<?xml version="1.0" encoding="UTF-8"?>
<svg width="127.034326px" height="185.317325px" viewBox="0 0 127.034326 185.317325" version="1.1" xmlns="http://www.w3.org/2000/svg" xmlns:xlink="http://www.w3.org/1999/xlink">
    <title>epression</title>
    <defs>
        <polygon id="path-1" points="0 0 127.034326 0 127.034326 185.317325 0 185.317325"></polygon>
        <polygon id="path-3" points="0 185.317325 127.034581 185.317325 127.034581 0 0 0"></polygon>
    </defs>
    <g id="Forts-matris-grovskisser---david" stroke="none" stroke-width="1" fill="none" fill-rule="evenodd">
        <g id="Matris-annas-linjer" transform="translate(-921.552672, -2651.327586)">
            <g id="epression" transform="translate(921.552417, 2651.327586)">
                <path d="M78.2798986,106.267004 L50.0382843,106.267004 C46.43713,106.267004 43.5183087,103.34199 43.5183087,99.7331949 L43.5183087,99.7331949 C43.5183087,96.1252515 46.43713,93.2002372 50.0382843,93.2002372 L78.2798986,93.2002372 C81.8802031,93.2002372 84.7998741,96.1252515 84.7998741,99.7331949 L84.7998741,99.7331949 C84.7998741,103.34199 81.8802031,106.267004 78.2798986,106.267004" id="Fill-1" fill="#DDEBC1"></path>
                <path d="M91.5741737,36.7825444 C91.5741737,52.1663314 79.1298831,64.6378771 63.7778177,64.6378771 C48.426602,64.6378771 35.9823115,52.1663314 35.9823115,36.7825444 C35.9823115,21.3987574 48.426602,8.92721176 63.7778177,8.92721176 C79.1298831,8.92721176 91.5741737,21.3987574 91.5741737,36.7825444" id="Fill-3" fill="#DDEBC1"></path>
                <g id="Group-7" transform="translate(0.000255, 0.000000)">
                    <mask id="mask-2" fill="white">
                        <use xlink:href="#path-1"></use>
                    </mask>
                    <g id="Clip-6"></g>
                    <path d="M77.7766037,105.202588 L49.5349894,105.202588 C46.525247,105.202588 44.0771759,102.749323 44.0771759,99.7331949 C44.0771759,96.7170667 46.525247,94.2638014 49.5349894,94.2638014 L77.7766037,94.2638014 C80.7863461,94.2638014 83.2344172,96.7170667 83.2344172,99.7331949 C83.2344172,102.749323 80.7863461,105.202588 77.7766037,105.202588 L77.7766037,105.202588 Z M52.5107426,83.1904722 C55.6598406,84.5367451 59.1224889,85.2860938 62.7610312,85.2860938 L65.5303001,85.2860938 C68.6878955,85.2860938 71.7163319,84.7189731 74.51959,83.682658 L74.6716916,92.13497 L52.3611902,92.13497 L52.5107426,83.1904722 Z M38.982197,61.7633587 C53.8524657,60.5380033 61.1083071,54.0833866 61.1083071,42.1244636 L61.1083071,11.1457095 C61.6580822,11.1082421 62.2104064,11.0826961 62.7610312,11.0826961 L65.5303001,11.0826961 C78.7189539,11.0826961 89.4493398,21.8358491 89.4493398,35.0533373 L89.4493398,59.1866212 C89.4493398,72.4041094 78.7189539,83.1572624 65.5303001,83.1572624 L62.7610312,83.1572624 C50.4391017,83.1572624 40.2652887,73.8721515 38.982197,61.7633587 L38.982197,61.7633587 Z M30.3880314,59.8542227 L30.3880314,32.1743057 C30.3880314,16.0735284 43.093189,2.89010146 58.983983,2.16033807 L58.983983,42.1244636 C58.983983,49.8470122 55.4771488,54.9970811 48.3453679,57.6717448 L48.3453679,13.3256328 L46.2210438,13.3256328 L46.2210438,58.3648923 C42.7006139,59.3577792 38.4460176,59.8542227 33.4360116,59.8542227 L30.3880314,59.8542227 Z M66.1429552,2.12883137 C82.6752951,2.12883137 96.1248158,15.6068885 96.1248158,32.1743057 L96.1248158,42.2283505 C95.1926624,41.4985871 94.0234344,41.0600479 92.7522389,41.0600479 L91.5736639,41.0600479 L91.5736639,35.0533373 C91.5736639,20.6624372 79.8907311,8.95386473 65.5303001,8.95386473 L62.7610312,8.95386473 C62.2112562,8.95386473 61.6589319,8.97685611 61.1083071,9.01176894 L61.1083071,2.12883137 L66.1429552,2.12883137 Z M96.1248158,51.9451884 C96.1248158,53.8091932 94.6114474,55.3249211 92.7522389,55.3249211 L91.5736639,55.3249211 L91.5736639,43.1888792 L92.7522389,43.1888792 C94.6114474,43.1888792 96.1248158,44.7054587 96.1248158,46.5694634 L96.1248158,50.4413819 L96.1248158,51.9451884 Z M84.9296278,97.237353 C83.8955069,94.2714652 81.0837515,92.13497 77.7766037,92.13497 L76.7968654,92.13497 L76.6277692,82.7919549 C85.4530613,78.6083755 91.5736639,69.6017158 91.5736639,59.1866212 L91.5736639,57.4537525 L92.7522389,57.4537525 C95.7823748,57.4537525 98.2491399,54.9817535 98.2491399,51.9451884 L98.2491399,50.4413819 L98.2491399,46.5694634 L98.2491399,32.1743057 C98.2491399,14.4334767 83.8462225,0 66.1429552,0 L60.3715915,0 C42.6674744,0 28.2637073,14.4334767 28.2637073,32.1743057 L28.2637073,60.9186384 C28.2637073,61.5070474 28.7395559,61.9830541 29.3258694,61.9830541 L33.4360116,61.9830541 C34.6162861,61.9830541 35.7566233,61.9566566 36.8595723,61.9047131 C37.7670836,70.7342541 43.0141641,78.1911246 50.4034131,82.1754454 L50.2360163,92.13497 L49.5349894,92.13497 C46.2303908,92.13497 43.4203349,94.2680591 42.3845145,97.2296893 C18.9498207,97.6120274 0,116.822602 0,140.395577 L0,185.317325 L2.1243241,185.317325 L2.1243241,140.395577 C2.1243241,118.134813 19.8989687,99.9690695 41.9706961,99.3695905 C41.964748,99.4905082 41.9528518,99.6105743 41.9528518,99.7331949 C41.9528518,103.922735 45.3543196,107.33142 49.5349894,107.33142 L77.7766037,107.33142 C81.9572735,107.33142 85.3587413,103.922735 85.3587413,99.7331949 C85.3587413,99.6131289 85.3459954,99.4956174 85.3400472,99.3764028 C107.284315,100.118939 124.910257,118.22763 124.910257,140.395577 L124.910257,185.317325 L127.034581,185.317325 L127.034581,140.395577 C127.034581,116.91627 108.235163,97.7670063 84.9296278,97.237353 L84.9296278,97.237353 Z" id="Fill-5" fill="#333333" mask="url(#mask-2)"></path>
                </g>
                <mask id="mask-4" fill="white">
                    <use xlink:href="#path-3"></use>
                </mask>
                <g id="Clip-9"></g>
                <polygon id="Fill-8" fill="#333333" mask="url(#mask-4)" points="27.1565096 185.317325 29.2808337 185.317325 29.2808337 147.344934 27.1565096 147.344934"></polygon>
                <polygon id="Fill-10" fill="#333333" mask="url(#mask-4)" points="98.7725734 185.317325 100.896898 185.317325 100.896898 147.344934 98.7725734 147.344934"></polygon>
                <polygon id="Fill-11" fill="#333333" mask="url(#mask-4)" points="36.7168178 55.8264738 38.8411419 55.8264738 38.8411419 38.0609502 36.7168178 38.0609502"></polygon>
                <path d="M65.681467,56.9355098 C65.681467,55.831072 65.339026,54.7521803 64.7085266,53.8538135 C64.8121936,48.8468021 64.839385,45.5871355 64.7000293,42.8750043 L62.5791041,42.984852 C62.7176101,45.6986863 62.6861701,49.0119994 62.5774047,54.1799504 C62.5723063,54.4345587 62.658129,54.6832062 62.8204273,54.8799102 C63.2954262,55.4563977 63.5571429,56.1861611 63.5571429,56.9355098 C63.5571429,58.7177674 62.1100534,60.1679273 60.3315692,60.1679273 L60.3315692,62.2967587 C63.2818305,62.2967587 65.681467,59.8920308 65.681467,56.9355098" id="Fill-12" fill="#333333" mask="url(#mask-4)"></path>
                <polygon id="Fill-13" fill="#333333" mask="url(#mask-4)" points="68.0658934 39.6413946 83.0058399 39.6413946 83.0058399 37.5125633 68.0658934 37.5125633"></polygon>
                <path d="M63.8110422,70.664769 C65.3244106,70.664769 66.8590224,70.6307077 68.2857184,70.3735449 L67.9084385,68.2779233 C66.4188624,68.5470076 64.6837145,68.5418984 63.0139958,68.533383 L61.9178445,68.53168 C60.2532242,68.5342346 58.53762,68.5350861 57.0293499,68.2813294 L56.6784116,70.3820602 C58.3634254,70.6630659 60.1724998,70.6562537 61.9186942,70.6605113 L63.0046487,70.6622144 C63.2723136,70.6639175 63.5416779,70.664769 63.8110422,70.664769" id="Fill-14" fill="#333333" mask="url(#mask-4)"></path>
                <path d="M69.6271866,46.9507797 L70.9884535,48.5857222 C72.2774934,47.5068305 73.9149224,46.9133123 75.5965374,46.9133123 C77.2535102,46.9133123 78.8102149,47.4616993 80.098405,48.4963113 L81.4282319,46.8366744 C79.7823056,45.5133928 77.7115144,44.7844809 75.5965374,44.7844809 C73.4178306,44.7844809 71.2977551,45.5534148 69.6271866,46.9507797" id="Fill-15" fill="#333333" mask="url(#mask-4)"></path>
            </g>
        </g>
    </g>
</svg>