<?xml version="1.0" encoding="UTF-8"?>
<svg width="127.999745px" height="184.716034px" viewBox="0 0 127.999745 184.716034" version="1.1" xmlns="http://www.w3.org/2000/svg" xmlns:xlink="http://www.w3.org/1999/xlink">
    <title>sol-pa-skarm</title>
    <defs>
        <polygon id="path-1" points="0 184.716204 128 184.716204 128 0 0 0"></polygon>
    </defs>
    <g id="Forts-matris-grovskisser---david" stroke="none" stroke-width="1" fill="none" fill-rule="evenodd">
        <g id="Matris-annas-linjer" transform="translate(-1193.000255, -1245.000510)">
            <g id="sol-pa-skarm" transform="translate(1193.000000, 1245.000000)">
                <polygon id="Fill-1" fill="#FFFFFF" points="68.7344458 184.65955 69.7952217 184.716545 69.7986243 184.65955"></polygon>
                <polygon id="Fill-2" fill="#FFFFFF" points="40.6179317 184.65955 40.6213343 184.715694 41.6821102 184.65955"></polygon>
                <g id="Group-21">
                    <path d="M125.373155,63.1005948 C125.373155,81.1439919 110.746018,95.7711293 92.7026204,95.7711293 C74.6583727,95.7711293 60.0312353,81.1439919 60.0312353,63.1005948 C60.0312353,45.0571977 74.6583727,30.4300603 92.7026204,30.4300603 C110.746018,30.4300603 125.373155,45.0571977 125.373155,63.1005948" id="Fill-3" fill="#DDEBC1"></path>
                    <path d="M47.5162922,48.7227865 C47.5162922,52.1381954 44.7473865,54.9062504 41.3328283,54.9062504 C37.9174193,54.9062504 35.1493643,52.1381954 35.1493643,48.7227865 C35.1493643,45.3073775 37.9174193,42.5393225 41.3328283,42.5393225 C44.7473865,42.5393225 47.5162922,45.3073775 47.5162922,48.7227865" id="Fill-5" fill="#95C23E"></path>
                    <path d="M76.5060962,48.7227865 C76.5060962,52.1381954 73.7371906,54.9062504 70.3226323,54.9062504 C66.9072233,54.9062504 64.1391683,52.1381954 64.1391683,48.7227865 C64.1391683,45.3073775 66.9072233,42.5393225 70.3226323,42.5393225 C73.7371906,42.5393225 76.5060962,45.3073775 76.5060962,48.7227865" id="Fill-7" fill="#95C23E"></path>
                    <mask id="mask-2" fill="white">
                        <use xlink:href="#path-1"></use>
                    </mask>
                    <g id="Clip-10"></g>
                    <polygon id="Fill-9" fill="#333333" mask="url(#mask-2)" points="90.5759648 39.2257378 92.7026204 39.2257378 92.7026204 26.7388666 90.5759648 26.7388666"></polygon>
                    <polygon id="Fill-11" fill="#333333" mask="url(#mask-2)" points="118.168131 38.4861721 116.700738 36.9456227 108.056309 45.178332 109.523701 46.7188814"></polygon>
                    <polygon id="Fill-12" fill="#333333" mask="url(#mask-2)" points="115.513129 64.1637525 128 64.1637525 128 62.0370968 115.513129 62.0370968"></polygon>
                    <polygon id="Fill-13" fill="#333333" mask="url(#mask-2)" points="108.056564 81.0218368 116.700994 89.2545461 118.168386 87.7139967 109.523956 79.4812874"></polygon>
                    <path d="M51.7533558,61.5255086 L57.7717912,61.5255086 L57.7717912,59.3988529 L51.7533558,59.3988529 C51.4922025,59.3988529 51.447968,59.3078321 51.4147922,59.2406298 C51.3254727,59.0594387 51.3441873,58.8025387 51.3918243,58.6604781 C53.6605406,58.2308937 54.9850217,51.4936486 54.9850217,50.7986575 L52.8583661,50.7986575 C52.8583661,51.7803218 51.6300098,55.7733304 50.9052455,56.5746543 C50.3888935,56.6529152 49.9312372,56.9659589 49.6241482,57.4584923 C49.3663975,57.8693622 49.2243369,58.3916688 49.2243369,58.927586 C49.2243369,60.2188913 50.0937137,61.5255086 51.7533558,61.5255086" id="Fill-14" fill="#333333" mask="url(#mask-2)"></path>
                    <path d="M41.3327432,50.578251 C40.3102472,50.578251 39.4774488,49.7454526 39.4774488,48.7221059 C39.4774488,47.6996099 40.3102472,46.8676622 41.3327432,46.8676622 C42.3552392,46.8676622 43.1880376,47.6996099 43.1880376,48.7221059 C43.1880376,49.7454526 42.3552392,50.578251 41.3327432,50.578251 M41.3327432,44.7410066 C39.1371839,44.7410066 37.3507932,46.5265466 37.3507932,48.7221059 C37.3507932,50.9176652 39.1371839,52.7049066 41.3327432,52.7049066 C43.5283025,52.7049066 45.3146932,50.9176652 45.3146932,48.7221059 C45.3146932,46.5265466 43.5283025,44.7410066 41.3327432,44.7410066" id="Fill-15" fill="#333333" mask="url(#mask-2)"></path>
                    <path d="M70.3225472,50.578251 C69.3000512,50.578251 68.4672528,49.7454526 68.4672528,48.7221059 C68.4672528,47.6996099 69.3000512,46.8676622 70.3225472,46.8676622 C71.3458939,46.8676622 72.1786922,47.6996099 72.1786922,48.7221059 C72.1786922,49.7454526 71.3458939,50.578251 70.3225472,50.578251 M70.3225472,44.7410066 C68.1269879,44.7410066 66.3405972,46.5265466 66.3405972,48.7221059 C66.3405972,50.9176652 68.1269879,52.7049066 70.3225472,52.7049066 C72.5181065,52.7049066 74.3053479,50.9176652 74.3053479,48.7221059 C74.3053479,46.5265466 72.5181065,44.7410066 70.3225472,44.7410066" id="Fill-16" fill="#333333" mask="url(#mask-2)"></path>
                    <path d="M74.9895355,42.13143 L76.8125047,41.0366277 C74.1056974,36.5332217 66.6249736,38.0040167 66.3076766,38.0720697 L66.734709,40.1553416 C66.7959567,40.1408803 73.0806494,38.9567584 74.9895355,42.13143" id="Fill-17" fill="#333333" mask="url(#mask-2)"></path>
                    <path d="M44.7760539,40.1550864 L45.201385,38.0718145 C44.8849386,38.0071642 37.4025134,36.5338171 34.6974075,41.0363725 L36.5203767,42.1311748 C38.4505293,38.9173728 44.7122542,40.1431771 44.7760539,40.1550864" id="Fill-18" fill="#333333" mask="url(#mask-2)"></path>
                    <path d="M60.6686365,69.8992577 L60.2917931,67.8057779 C56.7921686,68.4352679 53.113905,68.4590865 49.6091765,67.8721295 L49.2587037,69.9707133 C51.0629583,70.2709971 52.9122981,70.4241163 54.7565338,70.4241163 C56.7419795,70.4241163 58.7308279,70.2471785 60.6686365,69.8992577" id="Fill-19" fill="#333333" mask="url(#mask-2)"></path>
                    <path d="M55.3877252,98.4229838 C50.7226934,98.4229838 46.2252421,97.3554027 42.1293033,95.3342292 L42.6898897,83.481952 C44.9569047,84.2994384 47.3983053,84.7477374 49.9434868,84.7477374 L61.3338544,84.7477374 C63.5642908,84.7477374 65.7164663,84.4040699 67.7401918,83.7694758 L68.2956742,95.500959 C64.291607,97.4115464 59.9149497,98.4229838 55.3877252,98.4229838 L55.3877252,98.4229838 Z M30.6309016,63.3093473 L30.6309016,35.4118787 C30.6309016,31.0275654 32.7031149,25.973781 35.9994311,22.1432489 C39.1205109,28.4925919 47.1864904,32.7977936 56.3209017,32.7977936 C65.1592825,32.7977936 72.7803657,28.7767131 76.1523908,23.0253856 C79.0591037,26.495237 80.6455889,30.8455237 80.6455889,35.4118787 L80.6455889,63.3093473 C80.6455889,73.9570867 71.9824445,82.6210818 61.3338544,82.6210818 L49.9434868,82.6210818 C39.2948967,82.6210818 30.6309016,73.9570867 30.6309016,63.3093473 L30.6309016,63.3093473 Z M28.504246,45.6189751 C27.6893116,45.9269148 26.9594433,46.3811685 26.3367586,46.9553655 L26.3367586,26.2638568 C26.3367586,19.6984455 32.163795,10.5657356 37.8998106,10.5657356 C38.2519848,10.5657356 38.5820417,10.3913498 38.780246,10.098722 C42.1148421,5.18189419 48.8359245,2.12716603 56.3209017,2.12716603 C67.1021951,2.12716603 75.8750749,8.52925015 75.8750749,16.3995773 C75.8750749,24.2690538 67.1021951,30.671138 56.3209017,30.671138 C47.3370576,30.671138 39.5364848,26.2272783 37.3502828,19.863474 C37.2303394,19.5172545 36.9411142,19.2561012 36.5838361,19.1735869 C36.2282593,19.090222 35.8514159,19.1982561 35.5919639,19.4577081 C31.2867622,23.7620591 28.504246,30.0246346 28.504246,35.4118787 L28.504246,45.6189751 Z M28.504246,57.1088701 C27.0326003,56.2241814 26.129197,54.5662407 26.129197,52.5476191 C26.129197,50.5272963 27.033451,48.8659529 28.504246,47.9795628 L28.504246,57.1088701 Z M85.0213955,21.7281257 L85.0213955,46.9910933 C84.3799961,46.3896751 83.6212054,45.9184082 82.7722445,45.6028125 L82.7722445,35.4118787 C82.7722445,30.0229333 80.7816948,24.9044985 77.1553216,20.9438151 C77.7065508,19.5002412 78.0017306,17.9758545 78.0017306,16.3995773 C78.0017306,14.4915419 77.5644902,12.6600661 76.7682703,10.9553389 C81.5277256,12.2500469 85.0213955,16.6428667 85.0213955,21.7281257 L85.0213955,21.7281257 Z M82.7722445,57.1301367 L82.7722445,47.9582963 C84.2668581,48.8378811 85.1872746,50.510283 85.1872746,52.5476191 C85.1872746,54.5841046 84.2677087,56.2522533 82.7722445,57.1301367 L82.7722445,57.1301367 Z M87.3139303,52.5476191 C87.3139303,51.9427983 87.2467279,51.3583933 87.1267846,50.7986575 L87.1480511,50.7986575 L87.1480511,45.9124536 C88.4648763,45.571338 89.8199813,45.387595 91.1929501,45.387595 C100.064507,45.387595 107.281525,52.6054642 107.281525,61.4761702 C107.281525,70.3468761 100.064507,77.5638947 91.1929501,77.5638947 C87.0919074,77.5638947 83.2681806,76.0420599 80.2908627,73.2833622 C81.8671398,70.3009404 82.7722445,66.9110513 82.7722445,63.3093473 L82.7722445,59.4830685 C85.5198836,58.4639751 87.3139303,55.7826877 87.3139303,52.5476191 L87.3139303,52.5476191 Z M92.702025,96.9887673 L92.702025,85.1909325 L90.5753693,85.1909325 L90.5753693,95.7161765 C85.2723408,92.7201441 79.4546617,90.7568156 73.8411415,90.1622027 C73.5561696,90.1315788 73.2609898,90.221749 73.0398176,90.4105961 C72.8169441,90.6002937 72.6833902,90.871655 72.6672276,91.1634322 L72.5685508,93.0153239 C71.8539945,93.5146626 71.1215743,93.9757216 70.3738421,94.4070073 L69.8328209,82.9868666 C73.6531451,81.3306272 76.8984216,78.593196 79.1850018,75.1641765 C82.5042859,78.0913053 86.7048561,79.6905503 91.1929501,79.6905503 C101.236719,79.6905503 109.408181,71.5199394 109.408181,61.4761702 C109.408181,51.4324009 101.236719,43.2609393 91.1929501,43.2609393 C89.8259359,43.2609393 88.4699803,43.4157598 87.1480511,43.715193 L87.1480511,21.7281257 C87.1480511,14.987478 81.9904859,9.27698228 75.3391577,8.53350347 C71.6506862,3.45249782 64.5093766,0.000510397352 56.3209017,0.000510397352 C48.3655083,0.000510397352 41.1510417,3.22877365 37.3341202,8.45864519 C30.0388407,8.97839982 24.2101029,19.4007138 24.2101029,26.2638568 L24.2101029,50.6965781 C24.0756983,51.2869377 24.0025414,51.9062198 24.0025414,52.5476191 C24.0025414,55.7673758 25.7804255,58.4384553 28.504246,59.4686072 L28.504246,63.3093473 C28.504246,71.7836447 33.4474444,79.1240093 40.6015139,82.6023672 L40.0528368,94.2054004 C39.3331765,93.7766666 38.6288281,93.3190103 37.9406424,92.8273275 L37.8538748,91.1642828 C37.8385629,90.8725057 37.7041583,90.6002937 37.4821354,90.4105961 C37.2592619,90.221749 36.9717381,90.1324295 36.6799609,90.1622027 C19.3307043,92.0004838 0.000255198676,106.769682 0.000255198676,125.024043 L0.000255198676,184.65972 L2.12691083,184.65972 L2.12691083,125.024043 C2.12691083,108.28301 19.638644,94.6468941 35.7893175,92.4139057 L40.6210791,184.715864 L42.7443321,184.604427 L38.0810017,95.500959 C43.2462229,98.8074832 49.1846961,100.549639 55.3877252,100.549639 C61.4767656,100.549639 67.3225166,98.8661789 72.4264902,95.6702408 L67.6721388,184.603577 L69.7953918,184.715864 L74.7300835,92.4139057 C90.8322693,94.6434914 108.288709,108.277906 108.288709,125.024043 L108.288709,184.65972 L110.415365,184.65972 L110.415365,125.024043 C110.415365,113.491615 102.724528,103.356825 92.702025,96.9887673 L92.702025,96.9887673 Z" id="Fill-20" fill="#333333" mask="url(#mask-2)"></path>
                </g>
            </g>
        </g>
    </g>
</svg>