<?xml version="1.0" encoding="UTF-8"?>
<svg width="455px" height="275px" viewBox="0 0 455 275" version="1.1" xmlns="http://www.w3.org/2000/svg" xmlns:xlink="http://www.w3.org/1999/xlink">
    <title>lagkravpuff</title>
    <defs>
        <path d="M4.38934358,0 C1.96483707,0 0,1.990084 0,4.44496359 L0,4.44496359 L0,9.2478514 C0,12.7271784 5.90263036,12.7271784 5.90263036,12.7271784 L5.90263036,12.7271784 L5.90263036,2.7122562 L4.92895554,0" id="path-1"></path>
        <path d="M4.38934358,0 C1.96483707,0 0,1.990084 0,4.44496359 L0,4.44496359 L0,9.2478514 C0,12.7271784 5.90263036,12.7271784 5.90263036,12.7271784 L5.90263036,12.7271784 L5.90263036,2.7122562 L4.92895554,0" id="path-3"></path>
        <path d="M0.973674821,0 L0,2.7122562 L0,12.7271784 C0,12.7271784 5.90263036,12.7271784 5.90263036,9.2478514 L5.90263036,9.2478514 L5.90263036,4.44496359 C5.90263036,1.990084 3.9377933,0 1.51328678,0 L1.51328678,0" id="path-5"></path>
        <path d="M0.973674821,0 L0,2.7122562 L0,12.7271784 C0,12.7271784 5.90263036,12.7271784 5.90263036,9.2478514 L5.90263036,9.2478514 L5.90263036,4.44496359 C5.90263036,1.990084 3.9377933,0 1.51328678,0 L1.51328678,0" id="path-7"></path>
        <polygon id="path-9" points="0 0 0.8 0 0.8 38.501517 0 38.501517"></polygon>
        <polygon id="path-11" points="0 0 0.8 0 0.8 38.501517 0 38.501517"></polygon>
        <polygon id="path-13" points="0 107.92642 85.9901555 107.92642 85.9901555 0 0 0"></polygon>
    </defs>
    <g id="Page-1" stroke="none" stroke-width="1" fill="none" fill-rule="evenodd">
        <g id="Tillgänglighetssida-v3-tweakad" transform="translate(-1079, -914)">
            <g id="lagkravpuff" transform="translate(1079, 914)">
                <rect id="Rectangle-Copy-7" fill="#FFFFFF" x="0" y="0" width="455" height="275"></rect>
                <g id="Group-90-Copy" transform="translate(19, 67)">
                    <g id="Group-29" transform="translate(6.146, 0)">
                        <path d="M0,49.094177 C1.5270269,50.441768 2.39827538,52.3755707 2.39827538,54.432054 C2.39827538,56.477787 1.5245287,58.4236048 0,59.7699311" id="Stroke-1" stroke="#333333" stroke-width="0.93280785" stroke-linejoin="round"></path>
                        <path d="M2.86212932,46.3109683 C5.08802865,48.4003352 6.36461065,51.3604824 6.36461065,54.4319276 C6.36461065,57.5128584 5.09052686,60.4609904 2.86212932,62.5528868" id="Stroke-3" stroke="#333333" stroke-width="0.93280785" stroke-linejoin="round"></path>
                        <path d="M5.51109942,43.5042986 C8.59325801,46.2778951 10.360737,50.2593279 10.360737,54.4317379 C10.360737,58.6047802 8.59388256,62.586213 5.51109942,65.3598095" id="Stroke-5" stroke="#333333" stroke-width="0.93280785" stroke-linejoin="round"></path>
                        <path d="M74.694474,49.094177 C73.1674471,50.441768 72.2961986,52.3755707 72.2961986,54.432054 C72.2961986,56.477787 73.1699453,58.4236048 74.694474,59.7699311" id="Stroke-7" stroke="#333333" stroke-width="0.93280785" stroke-linejoin="round"></path>
                        <path d="M71.8323447,46.3109683 C69.6064454,48.4003352 68.3298634,51.3604824 68.3298634,54.4319276 C68.3298634,57.5128584 69.6039472,60.4609904 71.8323447,62.5528868" id="Stroke-9" stroke="#333333" stroke-width="0.93280785" stroke-linejoin="round"></path>
                        <path d="M69.1833746,43.5042986 C66.101216,46.2778951 64.333737,50.2593279 64.333737,54.4317379 C64.333737,58.6047802 66.1005915,62.586213 69.1833746,65.3598095" id="Stroke-11" stroke="#333333" stroke-width="0.93280785" stroke-linejoin="round"></path>
                        <path d="M14.3932122,43.0647347 L13.7742823,16.1388413 C13.7742823,7.22551628 20.9104006,0 29.7128207,0 L45.5039652,0 C54.3063853,0 61.4425036,7.22551628 61.4425036,16.1388413 L61.4000342,43.3006106" id="Stroke-13" stroke="#D3E4B2" stroke-width="11.488464"></path>
                        <path d="M28.7363979,15.4520189 C27.2555878,18.9003595 21.2954987,28.7647765 17.9335413,33.0491169 C17.0735348,31.116579 16.2366366,27.8655393 16.2366366,25.73823 L16.2366366,18.9262869 C16.2366366,13.7616806 20.371788,9.57472602 25.4731195,9.57472602" id="Stroke-15" stroke="#333333" stroke-width="0.94540485"></path>
                        <path d="M25.4728073,9.57491573 C29.2351018,4.74483579 34.5843801,2.10340559 41.1309224,2.10340559 C52.4777628,2.10340559 61.6755236,11.4163916 61.6755236,22.9053799 C61.6755236,23.9254007 61.6030757,24.9289797 61.4625517,25.9097933 C58.7120296,26.275306 55.6261237,26.1930973 52.8768508,26.1930973 C40.6431481,26.1930973 30.7546341,22.1161759 25.4728073,9.57491573 Z" id="Stroke-17" stroke="#333333" stroke-width="0.94540485" stroke-linejoin="round"></path>
                        <path d="M59.2813078,13.1578258 C58.0528162,13.2963159 56.804339,13.3671419 55.5396234,13.3671419 C49.7925063,13.3671419 44.3838956,11.8993996 39.6604173,9.31298602" id="Stroke-19" stroke="#333333" stroke-width="0.94540485" stroke-linejoin="round"></path>
                        <path d="M61.3997219,19.5015584 C59.8464639,19.6685054 58.2688483,19.753876 56.6718717,19.753876 C49.2528318,19.753876 42.2597356,17.9079735 36.1160286,14.6449187" id="Stroke-21" stroke="#333333" stroke-width="0.94540485" stroke-linejoin="round"></path>
                        <path d="M56.8779111,33.1165913 C56.8779111,33.1165913 52.6159759,28.3750438 51.7996879,26.2009387" id="Stroke-23" stroke="#333333" stroke-width="0.94540485" stroke-linejoin="round"></path>
                        <path d="M17.9334164,33.0494331 L17.9334164,44.3366937 C17.9334164,55.2255581 26.6515221,64.0528802 37.4056637,64.0528802 L37.4056637,64.0528802 C48.1598053,64.0528802 56.8779111,55.2255581 56.8779111,44.3366937 L56.8779111,33.1164648 C56.8779111,33.1164648 58.5261008,29.2760517 58.8483691,26.1344129" id="Stroke-25" stroke="#333333" stroke-width="0.94540485" stroke-linejoin="round"></path>
                        <path d="M17.9334164,43.0647347 C17.9334164,43.0647347 12.0307861,43.0647347 12.0307861,39.5847753 L12.0307861,34.7818875 C12.0307861,32.3270079 13.9962477,30.3375563 16.4201296,30.3375563 L16.9597416,30.3375563 L17.9334164,33.0491801 L17.9334164,43.0647347 Z" id="Stroke-27" stroke="#333333" stroke-width="0.94540485" stroke-linejoin="round"></path>
                    </g>
                    <g id="Group-36" transform="translate(18.1767, 30.3371)">
                        <g id="Group-32">
                            <mask id="mask-2" fill="white">
                                <use xlink:href="#path-1"></use>
                            </mask>
                            <g id="Clip-31"></g>
                            <line x1="1.28526326" y1="-3.41406593" x2="13.4508898" y2="8.9039659" id="Stroke-30" stroke="#333333" stroke-width="0.94540485" stroke-linejoin="round" mask="url(#mask-2)"></line>
                        </g>
                        <g id="Group-35">
                            <mask id="mask-4" fill="white">
                                <use xlink:href="#path-3"></use>
                            </mask>
                            <g id="Clip-34"></g>
                            <line x1="-2.94569422" y1="-2.34623757" x2="-2.94569422" y2="15.0744278" id="Stroke-33" stroke="#333333" stroke-width="0.94540485" stroke-linejoin="round" mask="url(#mask-4)"></line>
                        </g>
                    </g>
                    <g id="Group-41" transform="translate(18.1768, 30.3376)" stroke="#333333" stroke-width="0.94540485">
                        <path d="M5.90263036,12.7271784 C5.90263036,12.7271784 0,12.7271784 0,9.24721903 L0,4.44433121 C0,1.98945162 1.96546162,0 4.38934358,0 L4.92895554,0 L5.90263036,2.71162383 L5.90263036,12.7271784 Z" id="Stroke-37"></path>
                        <path d="M44.847125,12.7271784 C44.847125,12.7271784 50.7497554,12.7271784 50.7497554,9.24721903 L50.7497554,4.44433121 C50.7497554,1.98945162 48.7842938,0 46.3604118,0 L45.8207998,0 L44.847125,2.71162383 L44.847125,12.7271784 Z" id="Stroke-39" stroke-linejoin="round"></path>
                    </g>
                    <g id="Group-48" transform="translate(63.0238, 30.3371)">
                        <g id="Group-44">
                            <mask id="mask-6" fill="white">
                                <use xlink:href="#path-5"></use>
                            </mask>
                            <g id="Clip-43"></g>
                            <line x1="4.61767938" y1="-3.41406593" x2="-7.5479472" y2="8.9039659" id="Stroke-42" stroke="#333333" stroke-width="0.94540485" stroke-linejoin="round" mask="url(#mask-6)"></line>
                        </g>
                        <g id="Group-47">
                            <mask id="mask-8" fill="white">
                                <use xlink:href="#path-7"></use>
                            </mask>
                            <g id="Clip-46"></g>
                            <line x1="8.84863686" y1="-2.34623757" x2="8.84863686" y2="15.0744278" id="Stroke-45" stroke="#333333" stroke-width="0.94540485" stroke-linejoin="round" mask="url(#mask-8)"></line>
                        </g>
                    </g>
                    <g id="Group-89" transform="translate(0, 0.0001)">
                        <path d="M63.0239289,43.0646082 C63.0239289,43.0646082 68.9265593,43.0646082 68.9265593,39.5846488 L68.9265593,34.781761 C68.9265593,32.3268814 66.9610977,30.3374298 64.5372157,30.3374298 L63.9976037,30.3374298 L63.0239289,33.0490536 L63.0239289,43.0646082 Z" id="Stroke-49" stroke="#333333" stroke-width="0.94540485"></path>
                        <path d="M51.2443372,29.6586385 C51.2443372,29.6586385 56.2676,28.6177494 57.9457682,31.4457302" id="Stroke-51" stroke="#333333" stroke-width="0.94540485" stroke-linejoin="round"></path>
                        <path d="M35.8589635,29.6586385 C35.8589635,29.6586385 30.8357008,28.6177494 29.1575326,31.4457302" id="Stroke-53" stroke="#333333" stroke-width="0.94540485" stroke-linejoin="round"></path>
                        <path d="M42.3235023,45.7951401 L44.4869465,45.7951401 C46.7440734,45.7951401 48.5740075,43.9808563 48.5740075,41.7428813 C48.5740075,40.1303252 47.6240656,38.7372032 46.2488046,38.0852246 L46.2469309,38.0890188 C44.8192076,37.3036091 43.8505292,35.771997 43.8505292,34.0114651 L43.8505292,31.933481" id="Stroke-55" stroke="#333333" stroke-width="0.94540485" stroke-linejoin="round"></path>
                        <path d="M47.9863676,53.5070159 C46.3344305,54.2405709 41.6484252,54.3038084 39.319475,53.4842505" id="Stroke-57" stroke="#333333" stroke-width="0.94540485" stroke-linejoin="round"></path>
                        <line x1="33.0180689" y1="72.3003777" x2="34.2328204" y2="61.8016886" id="Stroke-59" stroke="#333333" stroke-width="0.93280785" stroke-linejoin="round"></line>
                        <line x1="53.4047836" y1="72.3003777" x2="52.1900322" y2="61.8016886" id="Stroke-61" stroke="#333333" stroke-width="0.93280785" stroke-linejoin="round"></line>
                        <path d="M0,138.999874 L0,96.3373293 C0,83.7315668 9.07722249,73.272085 20.9742922,71.2946485 C22.3052101,71.0733173 23.672352,70.958225 25.0651005,70.958225 L33.4053529,70.958225" id="Stroke-63" stroke="#333333" stroke-width="0.93280785" stroke-linejoin="round"></path>
                        <path d="M53.4047836,70.9580986 L61.9348995,70.9580986 C75.7780698,70.9580986 87,82.3206118 87,96.3372028 L87,138.999747" id="Stroke-65" stroke="#333333" stroke-width="0.93280785" stroke-linejoin="round"></path>
                        <g id="Group-69" transform="translate(17.8577, 100.4984)">
                            <mask id="mask-10" fill="white">
                                <use xlink:href="#path-9"></use>
                            </mask>
                            <g id="Clip-68"></g>
                            <line x1="0.31227544" y1="0" x2="0.31227544" y2="38.501517" id="Stroke-67" stroke="#333333" stroke-width="9.832808" stroke-linejoin="round" mask="url(#mask-10)"></line>
                        </g>
                        <g id="Group-72" transform="translate(67.9406, 100.4984)">
                            <mask id="mask-12" fill="white">
                                <use xlink:href="#path-11"></use>
                            </mask>
                            <g id="Clip-71"></g>
                            <line x1="0.4" y1="0" x2="0.4" y2="38.501517" id="Stroke-70" stroke="#333333" stroke-width="2.83280785" stroke-linejoin="round" mask="url(#mask-12)"></line>
                        </g>
                        <polyline id="Stroke-73" stroke="#333333" stroke-width="0.93280785" stroke-linejoin="round" points="20.9741673 71.294522 43.3112295 100.49823 65.9986648 71.294522"></polyline>
                        <polyline id="Stroke-75" stroke="#333333" stroke-width="0.93280785" stroke-linejoin="round" points="61.9348995 70.9580986 43.3114169 94.6633063 25.0651629 70.9580986"></polyline>
                        <path d="M36.8792923,35.3103633 C34.4091935,34.4800549 31.824802,34.5489838 29.5239566,35.336923" id="Stroke-77" stroke="#333333" stroke-width="0.94540485" stroke-linejoin="round"></path>
                        <path d="M31.5093413,36.0958994 C31.4837348,36.8737206 32.1276467,37.5174783 32.9470575,37.5339201 C33.7670928,37.5503618 34.4522251,36.9325315 34.4778317,36.1547103 C34.5034383,35.3768891 33.8595263,34.7331314 33.039491,34.7166896 C32.2200802,34.7002479 31.5349479,35.3180782 31.5093413,36.0958994" id="Fill-79" fill="#333333"></path>
                        <path d="M50.2241334,35.3103633 C52.6942321,34.4800549 55.2786236,34.5489838 57.5794691,35.336923" id="Stroke-81" stroke="#333333" stroke-width="0.94540485" stroke-linejoin="round"></path>
                        <path d="M55.5940843,36.0958994 C55.6196909,36.8737206 54.9757789,37.5174783 54.1563682,37.5339201 C53.3363329,37.5503618 52.6512005,36.9325315 52.625594,36.1547103 C52.6006119,35.3768891 53.2438993,34.7331314 54.0639346,34.7166896 C54.8833454,34.7002479 55.5684777,35.3180782 55.5940843,36.0958994" id="Fill-83" fill="#333333"></path>
                        <line x1="66.6424518" y1="26.0190677" x2="66.6424518" y2="30.6056833" id="Stroke-85" stroke="#333333" stroke-width="0.94540485" stroke-linejoin="round"></line>
                        <path d="M20.5392301,30.6056833 L20.5392301,16.138209 C20.5392301,7.22551628 27.6753484,0 36.4777685,0 L50.7037884,0 C59.5062085,0 66.6423269,7.22551628 66.6423269,16.138209" id="Stroke-87" stroke="#333333" stroke-width="0.94540485" stroke-linejoin="round"></path>
                    </g>
                </g>
                <g id="Group-5" transform="translate(121, 31)">
                    <g id="syn-copy" fill="#F4F4F4" fill-rule="nonzero">
                        <g id="syn-oga">
                            <circle id="Oval" cx="106.5" cy="106.5" r="106.5"></circle>
                        </g>
                    </g>
                    <rect id="Rectangle" fill="#FFFFFF" x="74.6597938" y="55.9948454" width="73.5618557" height="86.7371134"></rect>
                    <g id="Group-17" transform="translate(62.0785, 54.6269)">
                        <rect id="Rectangle" fill="#D4E4B2" x="1.75490113" y="6.14215396" width="8.77450566" height="91.2548589"></rect>
                        <rect id="Rectangle" fill="#D4E4B2" x="6.14215396" y="88.6225072" width="78.0931004" height="19.3039125"></rect>
                        <circle id="Oval" fill="#D4E4B2" cx="9.65195623" cy="97.3970128" r="9.65195623"></circle>
                        <polygon id="Rectangle" fill="#D4E4B2" points="1.75490113 13.1617585 11.4068574 5.3581039 11.4068574 107.92642 1.75490113 107.92642"></polygon>
                        <g id="Group-10" transform="translate(1.7549, 0)">
                            <path d="M57.6162871,28.9774703 C57.7115616,26.413251 54.5823243,21.8546781 48.0835464,21.8546781 C42.5544509,21.8546781 38.1693549,23.4799023 38.1693549,27.7428201 C38.1693549,31.89746 43.0325877,33.6309622 47.8937032,36.1002624 C52.7544658,38.5695626 61.5235993,42.486905 61.5235993,47.0187599 C61.5235993,51.1762122 58.2235737,53.4240347 49.8464771,52.7044081" id="Stroke-1" stroke="#3B3735" stroke-width="2.464" stroke-linejoin="round"></path>
                            <path d="M38.6481974,59.1653336 C38.5529229,61.7295528 41.6821602,66.2881257 48.1809381,66.2881257 C53.7100336,66.2881257 58.0951296,64.6629015 58.0951296,60.3999837 C58.0951296,56.2453438 53.2318968,54.5118416 48.3707813,52.0425414 C43.5100186,49.5732412 34.7408852,45.6558989 34.7408852,41.1240439 C34.7408852,36.9665916 38.0409108,34.7187691 46.4180074,35.4383957" id="Stroke-3" stroke="#3B3735" stroke-width="2.464" stroke-linejoin="round"></path>
                            <mask id="mask-14" fill="white">
                                <use xlink:href="#path-13"></use>
                            </mask>
                            <g id="Clip-6"></g>
                            <polygon id="Stroke-5" stroke="#3B3735" stroke-width="2.461888" stroke-linejoin="round" mask="url(#mask-14)" points="10.8457641 87.8433168 84.7561746 87.8433168 84.7561746 1.23043149 10.8457641 1.23043149"></polygon>
                            <path d="M85.7161179,106.695988 L10.2643781,106.695988 C5.06062734,106.695988 1.23518066,102.884814 1.23518066,97.7001277 L1.23518066,97.7001277 C1.23518066,92.5157925 5.06062734,87.8433168 10.2643781,87.8433168 L85.7161179,87.8433168" id="Stroke-7" stroke="#3B3735" stroke-width="2.464" stroke-linejoin="round" mask="url(#mask-14)"></path>
                            <path d="M1.38423229,95.9449699 L1.38423229,10.656732 C1.38423229,5.4723968 5.6419428,1.23057211 10.8456936,1.23057211 L10.8460464,1.23057211" id="Stroke-8" stroke="#3B3735" stroke-width="2.464" stroke-linejoin="round" mask="url(#mask-14)"></path>
                            <line x1="9.47462328" y1="97.2696525" x2="85.7160826" y2="97.2696525" id="Stroke-9" stroke="#3B3735" stroke-width="2.464" stroke-linejoin="round" mask="url(#mask-14)"></line>
                        </g>
                    </g>
                </g>
                <g id="Group-50-Copy" transform="translate(348, 68)">
                    <polygon id="Fill-1" fill="#DBE8C1" points="11.1232457 47.6357401 21.811525 47.6357401 21.811525 24.2746556 11.1232457 24.2746556"></polygon>
                    <polygon id="Fill-2" fill="#DBE8C1" points="71.4346064 47.6357401 82.1228858 47.6357401 82.1228858 24.2746556 71.4346064 24.2746556"></polygon>
                    <g id="Group-49">
                        <path d="M21.811838,44.7038244 L21.811838,54.9267893 C24.9248197,55.0001584 28.0234068,55.2443002 31.1032184,55.6244278" id="Stroke-3" stroke="#333333" stroke-width="1.2597" stroke-linejoin="round"></path>
                        <path d="M71.4342935,30.3596062 L71.4342935,25.0745048 C71.4342935,11.2260969 60.3260682,0 46.6230657,0 L46.6230657,0 C32.9200632,0 21.811838,11.2260969 21.811838,25.0745048 L21.811838,30.3596062" id="Stroke-5" stroke="#333333" stroke-width="1.2597" stroke-linejoin="round"></path>
                        <path d="M57.1587627,61.4996441 C63.1688076,63.201047 65.679095,64.0637658 71.4344187,65.8726923 L71.4344187,44.7038244" id="Stroke-7" stroke="#333333" stroke-width="1.2597" stroke-linejoin="round"></path>
                        <path d="M71.4342935,27.3499572 C67.4244676,29.7376138 62.0834572,29.7376138 59.5281085,29.7376138 L59.5281085,29.7376138 C48.0449987,29.7376138 38.7354685,20.3299308 38.7354685,8.72497133 L38.7354685,1.29445771" id="Stroke-9" stroke="#333333" stroke-width="1.2597" stroke-linejoin="round"></path>
                        <path d="M66.7922958,29.1077784 L66.7922958,40.9682646 C66.7922958,52.5732241 57.4833915,61.9809071 46.0002816,61.9809071 L46.0002816,61.9809071 C34.5165459,61.9809071 25.2076416,52.5732241 25.2076416,40.9682646 L25.2076416,26.8769799 C25.2076416,17.8538519 30.8346659,10.1595892 38.7354059,7.18181785" id="Stroke-11" stroke="#333333" stroke-width="1.2597" stroke-linejoin="round"></path>
                        <path d="M0,137 L0,100.796802 C0,83.2198551 15.7739427,68.9717124 33.1663355,68.9717124 L34.8411121,137" id="Stroke-13" stroke="#333333" stroke-width="1.2597" stroke-linejoin="round"></path>
                        <line x1="35.660163" y1="59.2024338" x2="35.660163" y2="72.9863276" id="Stroke-15" stroke="#333333" stroke-width="1.2597" stroke-linejoin="round"></line>
                        <line x1="60.5089418" y1="68.9715226" x2="58.0994164" y2="136.99981" id="Stroke-17" stroke="#333333" stroke-width="1.2597" stroke-linejoin="round"></line>
                        <path d="M46.4749894,77.1603939 C39.124998,77.1603939 33.1662729,71.7525891 33.1662729,68.9715226" id="Stroke-19" stroke="#333333" stroke-width="1.2597" stroke-linejoin="round"></path>
                        <line x1="57.2078294" y1="58.5187102" x2="57.6715848" y2="73.0660215" id="Stroke-21" stroke="#333333" stroke-width="1.2597" stroke-linejoin="round"></line>
                        <path d="M46.4749894,77.1603939 C53.8249808,77.1603939 60.509067,71.7525891 60.509067,68.9715226 C77.9008339,68.9715226 92,83.2202978 92,100.796612 L92,136.99981" id="Stroke-23" stroke="#333333" stroke-width="1.2597" stroke-linejoin="round"></path>
                        <line x1="65.856023" y1="64.1143651" x2="65.856023" y2="56.6275597" id="Stroke-25" stroke="#333333" stroke-width="1.2597" stroke-linejoin="round"></line>
                        <line x1="30.9473816" y1="27.8260971" x2="38.7360944" y2="27.8260971" id="Stroke-27" stroke="#333333" stroke-width="1.2597" stroke-linejoin="round"></line>
                        <path d="M45.0459844,33.9851757 L45.0459844,38.4625851 C45.0459844,39.3208765 43.3467996,39.3208765 43.3467996,41.3448502 C43.3467996,43.368824 45.0447327,43.6755825 46.6231283,43.6755825" id="Stroke-29" stroke="#333333" stroke-width="1.2597" stroke-linejoin="round"></path>
                        <path d="M38.7351556,33.5230139 C36.1197253,32.6457478 33.3841316,32.7184844 30.9470687,33.5508436" id="Stroke-31" stroke="#333333" stroke-width="1.2597" stroke-linejoin="round"></path>
                        <path d="M33.0496769,34.3531594 C33.0227653,35.1753987 33.7043168,35.8559599 34.5723718,35.8730372 C35.439801,35.8901145 36.165162,35.2373829 36.1920736,34.4151436 C36.219611,33.5929043 35.5380595,32.9129756 34.6700045,32.8958983 C33.8019495,32.8781885 33.0765885,33.5309201 33.0496769,34.3531594" id="Fill-33" fill="#333333"></path>
                        <path d="M53.2648444,33.5230139 C55.8802747,32.6457478 58.6158684,32.7184844 61.0529313,33.5508436" id="Stroke-35" stroke="#333333" stroke-width="1.2597" stroke-linejoin="round"></path>
                        <path d="M58.9503231,34.3531594 C58.9772347,35.1753987 58.2956832,35.8559599 57.4276282,35.8730372 C56.560199,35.8901145 55.834838,35.2373829 55.8079264,34.4151436 C55.780389,33.5929043 56.4619405,32.9129756 57.3299955,32.8958983 C58.1980505,32.8781885 58.9234115,33.5309201 58.9503231,34.3531594" id="Fill-37" fill="#333333"></path>
                        <line x1="17.915604" y1="26.7547192" x2="17.915604" y2="44.7035714" id="Stroke-39" stroke="#333333" stroke-width="1.2597" stroke-linejoin="round"></line>
                        <line x1="14.3501322" y1="26.7547192" x2="14.3501322" y2="44.7035714" id="Stroke-41" stroke="#333333" stroke-width="1.2597" stroke-linejoin="round"></line>
                        <line x1="75.4075071" y1="26.7547192" x2="75.4075071" y2="44.7035714" id="Stroke-43" stroke="#333333" stroke-width="1.2597" stroke-linejoin="round"></line>
                        <line x1="78.9729163" y1="26.7547192" x2="78.9729163" y2="44.7035714" id="Stroke-45" stroke="#333333" stroke-width="1.2597" stroke-linejoin="round"></line>
                        <path d="M49.6240827,50.7673335 C48.4055513,50.9887056 47.1507205,51.1044516 45.8683523,51.1044516 C44.67861,51.1044516 43.5120242,51.0051504 42.376105,50.8135054" id="Stroke-47" stroke="#333333" stroke-width="1.2597" stroke-linejoin="round"></path>
                    </g>
                </g>
            </g>
        </g>
    </g>
</svg>