{
	"padding": {
		"medium": {
			"value": "{global.spacing.base.value}",
			"name": "",
			"comment": ""
		},
		"smaller": {
			"value": "{global.spacing.smallest-2.value}",
			"name": "",
			"comment": ""
		},
		"small": {
			"value": "{global.spacing.smaller.value}",
			"name": "",
			"comment": ""
		},
		"large": {
			"value": "{global.spacing.largest-2.value}",
			"name": "",
			"comment": ""
		},
		"larger": {
			"value": "{global.spacing.largest-3.value}",
			"name": "",
			"comment": ""
		},
		"largest": {
			"value": "{global.spacing.largest-4.value}",
			"name": "",
			"comment": ""
		},
		"largest-2": {
			"value": "{global.spacing.largest-5.value}",
			"name": "",
			"comment": ""
		},
		"largest-3": {
			"value": "{global.spacing.largest-6.value}",
			"name": "",
			"comment": ""
		}
	},
	"margin": {
		"smaller": {
			"value": "{global.spacing.smallest-2.value}",
			"name": "",
			"comment": ""
		},
		"small": {
			"value": "{global.spacing.smallest.value}",
			"name": "",
			"comment": ""
		},
		"medium": {
			"value": "{global.spacing.base.value}",
			"name": "",
			"comment": ""
		},
		"large": {
			"value": "{global.spacing.largest-2.value}",
			"name": "",
			"comment": ""
		},
		"larger": {
			"value": "{global.spacing.largest-3.value}",
			"name": "",
			"comment": ""
		},
		"largest": {
			"value": "{global.spacing.largest-4.value}",
			"name": "",
			"comment": ""
		},
		"h1-small": {
			"value": "{global.spacing.base.value}",
			"name": "",
			"comment": ""
		},
		"h1-medium": {
			"value": "{global.spacing.largest-2.value}",
			"name": "",
			"comment": ""
		},
		"h1-large": {
			"value": "{global.spacing.largest-4.value}",
			"name": "",
			"comment": ""
		},
		"h2-small": {
			"value": "{global.spacing.base.value}",
			"name": "",
			"comment": ""
		},
		"h2-large": {
			"value": "{global.spacing.base.value}",
			"name": "",
			"comment": ""
		},
		"h3-small": {
			"value": "{global.spacing.smallest-2.value}",
			"name": "",
			"comment": ""
		},
		"h3-large": {
			"value": "{global.spacing.smallest-2.value}",
			"name": "",
			"comment": ""
		},
		"h4-h6-small": {
			"value": "{global.spacing.smallest-2.value}",
			"name": "",
			"comment": ""
		},
		"h4-h6-large": {
			"value": "{global.spacing.smallest-2.value}",
			"name": "",
			"comment": ""
		},
		"text-small": {
			"value": "{global.spacing.largest-2.value}",
			"name": "",
			"comment": ""
		},
		"text-large": {
			"value": "{global.spacing.largest-2.value}",
			"name": "",
			"comment": ""
		}
	},
	"gutter": {
		"largest-3": {
			"value": "{global.spacing.largest-2.value}",
			"name": "",
			"comment": ""
		},
		"largest-2": {
			"value": "{global.spacing.larger.value}",
			"name": "",
			"comment": ""
		},
		"largest": {
			"value": "{global.spacing.base.value}",
			"name": "",
			"comment": ""
		},
		"larger": {
			"value": "{global.spacing.smaller.value}",
			"name": "",
			"comment": ""
		},
		"large": {
			"value": "{global.spacing.smallest.value}",
			"name": "",
			"comment": ""
		},
		"medium": {
			"value": "{global.spacing.smallest-2.value}",
			"name": "",
			"comment": ""
		},
		"small": {
			"value": "{global.spacing.smallest-3.value}",
			"name": "",
			"comment": ""
		},
		"smaller": {
			"value": "{global.spacing.smallest-4.value}",
			"name": "",
			"comment": ""
		},
		"smallest": {
			"value": "{global.spacing.smallest-5.value}",
			"name": "",
			"comment": ""
		},
		"smallest-2": {
			"value": "{global.spacing.smallest-6.value}",
			"name": "",
			"comment": ""
		},
		"smallest-3": {
			"value": "{global.spacing.smallest-7.value}",
			"name": "",
			"comment": ""
		},
		"button-block-small": {
			"value": "{global.spacing.smallest-3.value}",
			"name": "",
			"comment": ""
		},
		"button-block-medium": {
			"value": "{global.spacing.smallest-2.value}",
			"name": "",
			"comment": ""
		},
		"button-block-large": {
			"value": "{global.spacing.smallest.value}",
			"name": "",
			"comment": ""
		},
		"button-inline-small": {
			"value": "{global.spacing.smallest-2.value}",
			"name": "",
			"comment": ""
		},
		"button-inline-medium": {
			"value": "{global.spacing.base.value}",
			"name": "",
			"comment": ""
		},
		"button-inline-large": {
			"value": "{global.spacing.largest-2.value}",
			"name": "",
			"comment": ""
		},
		"icon": {
			"value": "{global.spacing.smallest.value}",
			"name": "",
			"comment": ""
		}
	},
	"breakpoint": {
		"small-below": {
			"value": "{global.breakpoint.smallest.value}",
			"name": "",
			"comment": "",
			"attributes": {
				"container-width": "Auto",
        "container-gutter": "{container-gutter.smaller.value}",
				"columns": "3"
			}
		},
		"small": {
			"value": "{global.breakpoint.smaller.value}",
			"name": "",
			"comment": "",
			"attributes": {
				"container-width": "{container-width.small.value}",
        "container-gutter": "{container-gutter.small.value}",
				"columns": "6"
			}
		},
		"medium-below": {
			"value": "{global.breakpoint.small.value}",
			"name": "",
			"comment": "",
			"attributes": {
				"container-width": "{container-width.small.value}",
        "container-gutter": "{container-gutter.small.value}"
			}
		},
		"medium": {
			"value": "{global.breakpoint.medium.value}",
			"name": "",
			"comment": "",
			"attributes": {
				"container-width": "{container-width.medium.value}",
        "container-gutter": "{container-gutter.medium.value}",
				"columns": "12"
			}
		},
		"large-below": {
			"value": "{global.breakpoint.large.value}",
			"name": "",
			"comment": "",
			"attributes": {
				"container-width": "{container-width.medium.value}",
        "container-gutter": "{container-gutter.medium.value}"
			}
		},
		"large": {
			"value": "{global.breakpoint.larger.value}",
			"name": "",
			"comment": "",
			"attributes": {
				"container-width": "{container-width.large.value}",
        "container-gutter": "{container-gutter.large.value}",
				"columns": "12"
			}
		},
		"x-large-below": {
			"value": "{global.breakpoint.largest.value}",
			"name": "",
			"comment": "",
			"attributes": {
				"container-width": "{container-width.large.value}",
        "container-gutter": "{container-gutter.large.value}"
			}
		},
		"x-large": {
			"value": "{global.breakpoint.largest-2.value}",
			"name": "",
			"comment": "",
			"attributes": {
				"container-width": "{container-width.larger.value}",
        "container-gutter": "{container-gutter.larger.value}",
				"columns": "12"
			}
		},
		"xx-large-below": {
			"value": "{global.breakpoint.largest-3.value}",
			"name": "",
			"comment": "",
			"attributes": {
				"container-width": "{container-width.larger.value}",
        "container-gutter": "{container-gutter.larger.value}"
			}
		},
		"xx-large": {
			"value": "{global.breakpoint.largest-4.value}",
			"name": "",
			"comment": "",
			"attributes": {
				"container-width": "{container-width.largest.value}",
        "container-gutter": "{container-gutter.largest.value}",
				"columns": "12"
			}
		}
	},
	"container-width": {
		"smaller": {
			"value": "{global.size.smaller.value}",
			"name": "",
			"comment": ""
		},
		"small": {
			"value": "{global.size.small.value}",
			"name": "",
			"comment": ""
		},
		"base": {
			"value": "{global.size.base.value}",
			"name": "",
			"comment": ""
		},
		"medium": {
			"value": "{global.size.base.value}",
			"name": "",
			"comment": ""
		},
		"large": {
			"value": "{global.size.large.value}",
			"name": "",
			"comment": ""
		},
		"larger": {
			"value": "{global.size.larger.value}",
			"name": "",
			"comment": ""
		},
		"largest": {
			"value": "{global.size.largest.value}",
			"name": "",
			"comment": ""
		}
	},
	"container-gutter": {
		"smaller": {
			"value": "{global.spacing.base.value}",
			"name": "",
			"comment": ""
		},
		"small": {
			"value": "{global.spacing.large.value}",
			"name": "",
			"comment": ""
		},
		"base": {
			"value": "{global.spacing.base.value}",
			"name": "",
			"comment": ""
		},
		"medium": {
			"value": "{global.spacing.largest-2.value}",
			"name": "",
			"comment": ""
		},
		"large": {
			"value": "{global.spacing.base.value}",
			"name": "",
			"comment": ""
		},
		"larger": {
			"value": "{global.spacing.largest-3-5.value}",
			"name": "",
			"comment": ""
		},
		"largest": {
			"value": "{global.spacing.largest-5.value}",
			"name": "",
			"comment": ""
		}
	},
	"paragraph-width": {
		"medium": {
			"value": "{global.text-width.base.value}",
			"name": "",
			"comment": ""
		},
		"large": {
			"value": "{global.text-width.large.value}",
			"name": "",
			"comment": ""
		}
	},
	"input-height": {
		"small": {
			"value": "{global.spacing.largest-4.value}",
			"name": "",
			"comment": ""
		},
		"medium": {
			"value": "{global.spacing.largest-5.value}",
			"name": "",
			"comment": ""
		},
		"large": {
			"value": "{global.spacing.largest-6.value}",
			"name": "",
			"comment": ""
		}
	},
  "shadow": {
    "input-focus": {
      "value": "0 0 {global.border-width.base.value} {global.color.cta.link.base.value}",
      "name": "",
      "comment": ""
    }
  }
}
