{
	"global": {
		"spacing": {
			"base": {
				"value": "16px",
				"name": "",
				"comment": ""
			},
			"small": {
				"value": "14px",
				"name": "",
				"comment": "",
				"attributes": {
					"hidden-patterns": "true"
				}
			},
			"smaller": {
				"value": "12px",
				"name": "",
				"comment": ""
			},
			"smallest": {
				"value": "10px",
				"name": "",
				"comment": "",
				"attributes": {
					"hidden-patterns": "true"
				}
			},
			"smallest-2": {
				"value": "8px",
				"name": "",
				"comment": ""
			},
			"smallest-3": {
				"value": "6px",
				"name": "",
				"comment": "",
				"attributes": {
					"hidden-patterns": "true"
				}
			},
			"smallest-4": {
				"value": "4px",
				"name": "",
				"comment": ""
			},
			"smallest-5": {
				"value": "3px",
				"name": "",
				"comment": "",
				"attributes": {
					"hidden-patterns": "true"
				}
			},
			"smallest-6": {
				"value": "2px",
				"name": "",
				"comment": ""
			},
			"smallest-7": {
				"value": "1px",
				"name": "",
				"comment": "",
				"attributes": {
					"hidden-patterns": "true"
				}
			},
			"large": {
				"value": "18px",
				"name": "",
				"comment": "",
				"attributes": {
					"hidden-patterns": "true"
				}
			},
			"larger": {
				"value": "20px",
				"name": "",
				"comment": "",
				"attributes": {
					"hidden-patterns": "true"
				}
			},
			"largest": {
				"value": "22px",
				"name": "",
				"comment": "",
				"attributes": {
					"hidden-patterns": "true"
				}
			},
			"largest-2": {
				"value": "24px",
				"name": "",
				"comment": ""
				
			},
			"largest-3": {
				"value": "28px",
				"name": "",
				"comment": "",
				"attributes": {
					"hidden-patterns": "true"
				}
			},
			"largest-3-5": {
				"value": "30px",
				"name": "",
				"comment": "",
				"attributes": {
					"hidden-patterns": "true"
				}
			},
			"largest-4": {
				"value": "32px",
				"name": "",
				"comment": ""
			},
			"largest-5": {
				"value": "40px",
				"name": "",
				"comment": ""
			},
			"largest-6": {
				"value": "48px",
				"name": "",
				"comment": ""
			},
			"largest-7": {
				"value": "56px",
				"name": "",
				"comment": ""
			},
			"largest-8": {
				"value": "64px",
				"name": "",
				"comment": ""
			},
			"largest-9": {
				"value": "72px",
				"name": "",
				"comment": ""
			},
			"largest-10": {
				"value": "80px",
				"name": "",
				"comment": ""
			}
		},
		"breakpoint": {
			"smallest-3": {
				"value": "374px",
				"name": "",
				"comment": ""
			},
			"smallest-2": {
				"value": "375px",
				"name": "",
				"comment": ""
			},
			"smallest": {
				"value": "575px",
				"name": "",
				"comment": ""
			},
			"smaller": {
				"value": "576px",
				"name": "",
				"comment": ""
			},
			"small": {
				"value": "767px",
				"name": "",
				"comment": ""
			},
			"medium": {
				"value": "768px",
				"name": "",
				"comment": ""
			},
			"large": {
				"value": "991px",
				"name": "",
				"comment": ""
			},
			"larger": {
				"value": "992px",
				"name": "",
				"comment": ""
			},
			"largest": {
				"value": "1199px",
				"name": "",
				"comment": ""
			},
			"largest-2": {
				"value": "1200px",
				"name": "",
				"comment": ""
			},
			"largest-3": {
				"value": "1399px",
				"name": "",
				"comment": ""
			},
			"largest-4": {
				"value": "1400px",
				"name": "",
				"comment": ""
			}
		},
		"size": {
			"smaller": {
				"value": "auto",
				"name": "",
				"comment": ""
			},
			"small": {
				"value": "36rem",
				"name": "",
				"comment": ""
			},
			"base": {
				"value": "48rem",
				"name": "",
				"comment": ""
			},
			"large": {
				"value": "62rem",
				"name": "",
				"comment": ""
			},
			"larger": {
				"value": "75rem",
				"name": "",
				"comment": ""
			},
			"largest": {
				"value": "87.5rem",
				"name": "",
				"comment": ""
			}
		},
		"text-width": {
			"small": {
				"value": "31rem",
				"name": "",
				"comment": ""
			},
			"base": {
				"value": "35rem",
				"name": "",
				"comment": ""
			},
			"large": {
				"value": "40rem",
				"name": "",
				"comment": ""
			},
			"larger": {
				"value": "44rem",
				"name": "",
				"comment": ""
			},
			"largest": {
				"value": "48rem",
				"name": "",
				"comment": ""
			},
			"largest-2": {
				"value": "53rem",
				"name": "",
				"comment": ""
			},
			"largest-3": {
				"value": "61rem",
				"name": "",
				"comment": ""
			},
			"largest-4": {
				"value": "70rem",
				"name": "",
				"comment": ""
			}
		}
	}
}