{
	"name": "arbetsformedlingen-docs",
	"$schema": "../../../node_modules/nx/schemas/project-schema.json",
	"projectType": "application",
	"generators": {
		"@nxext/stencil:component": {
			"style": "scss",
			"storybook": false
		}
	},
	"sourceRoot": "apps/arbetsformedlingen/docs/src",
	"targets": {
		"prepare": {
			"executor": "nx:run-commands",
			"options": {
				"commands": ["npm run generate-changelog-page:arbetsformedlingen"],
				"cwd": "apps/arbetsformedlingen/docs/",
				"parallel": true
			},
			"configurations": {
				"production": {}
			},
			"defaultConfiguration": "production"
		},
		"build": {
			"executor": "nx:run-commands",
			"options": {
				"commands": ["npm run sw-precache:docs:arbetsformedlingen"],
				"cwd": "apps/arbetsformedlingen/docs",
				"parallel": false
			},
			"configurations": {
				"production": {}
			},
			"defaultConfiguration": "production",
			"dependsOn": [
				{
					"target": "prepare"
				},
				{
					"target": "pre-build"
				}
			]
		},
		"pre-build": {
			"executor": "@nxext/stencil:build",
			"options": {
				"projectType": "application",
				"configPath": "apps/arbetsformedlingen/docs/stencil.config.ts",
				"outputPath": "dist/apps/arbetsformedlingen/docs"
			},
			"configurations": {
				"production": {
					"configPath": "apps/arbetsformedlingen/docs/stencil.config.ts"
				}
			},
			"defaultConfiguration": "production",
			"dependsOn": [
				{
					"target": "build",
					"dependencies": true
				}
			]
		},
		"test": {
			"executor": "@nxext/stencil:test",
			"options": {
				"projectType": "application",
				"configPath": "apps/arbetsformedlingen/docs/stencil.config.ts"
			}
		},
		"e2e": {
			"executor": "@nxext/stencil:e2e",
			"options": {
				"projectType": "application",
				"configPath": "apps/arbetsformedlingen/docs/stencil.config.ts"
			}
		},
		"serve": {
			"executor": "@nxext/stencil:build",
			"options": {
				"projectType": "application",
				"configPath": "apps/arbetsformedlingen/docs/stencil.config.ts",
				"outputPath": "dist/apps/arbetsformedlingen/docs",
				"serve": true,
				"watch": true
			},
			"dependsOn": [
				{
					"target": "prepare"
				}
			]
		},
		"generate-component": {
			"executor": "nx:run-commands",
			"options": {
				"commands": [
					"nx g @nxext/stencil:component --project='arbetsformedlingen-docs' digi-docs-{args.name}"
				],
				"cwd": "apps/arbetsformedlingen/docs",
				"parallel": false
			}
		}
	},
	"tags": [],
	"implicitDependencies": ["arbetsformedlingen"]
}
