{
 "@animation-duration-base": ".3s",
 "@animation-duration-small": ".2s",
 "@animation-duration-large": ".5s",
 "@animation-duration-reduced": ".01s",
 "@animation-duration-sweep": "4s",
 "@animation-rotation-45": "0deg",
 "@animation-rotation-90": "45deg",
 "@animation-rotation-135": "90deg",
 "@animation-rotation-180": "135deg",
 "@animation-rotation-225": "180deg",
 "@animation-rotation-270": "225deg",
 "@animation-rotation-315": "270deg",
 "@animation-rotation-360": "315deg",
 "@global-animation-duration-base": ".3s",
 "@global-animation-duration-short": ".2s",
 "@global-animation-duration-shorter": ".1s",
 "@global-animation-duration-shortest": ".01s",
 "@global-animation-duration-long": ".4s",
 "@global-animation-duration-longer": ".5s",
 "@global-animation-duration-longest": "4s",
 "@global-animation-rotation-smallest-2": "0deg",
 "@global-animation-rotation-smallest": "45deg",
 "@global-animation-rotation-smaller": "90deg",
 "@global-animation-rotation-small": "135deg",
 "@global-animation-rotation-base": "180deg",
 "@global-animation-rotation-large": "225deg",
 "@global-animation-rotation-larger": "270deg",
 "@global-animation-rotation-largest": "315deg",
 "@global-animation-rotation-largest-2": "360deg",
 "@global-border-radius-base": "0.25rem",
 "@global-border-radius-small": "0.25rem",
 "@global-border-radius-smaller": "0.1875rem",
 "@global-border-radius-smallest": "0.125rem",
 "@global-border-radius-smallest-2": "0.0625rem",
 "@global-border-radius-smallest-3": "0rem",
 "@global-border-radius-large": "0.5rem",
 "@global-border-radius-larger": "1rem",
 "@global-border-radius-largest": "2rem",
 "@global-border-radius-largest-2": "4rem",
 "@global-border-width-base": "0.125rem",
 "@global-border-width-small": "0.0625rem",
 "@global-border-width-smaller": "0rem",
 "@global-border-width-large": "0.25rem",
 "@global-border-width-larger": "0.375rem",
 "@global-border-width-largest": "0.5rem",
 "@global-border-width-largest-2": "0.625rem",
 "@global-border-style-solid": "solid",
 "@global-border-style-none": "none",
 "@global-border-style-dashed": "dashed",
 "@global-color-profile-purple-base": "#692859",
 "@global-color-profile-purple-extra-dark": "#3D1B3D",
 "@global-color-profile-purple-dark": "#5A235A",
 "@global-color-profile-purple-opacity15": "#E8DFE6",
 "@global-color-profile-purple-opacity5": "#F8F4F8",
 "@global-color-profile-purple-opacity60": "#A57E9B",
 "@global-color-profile-blue-base": "#DCEAEA",
 "@global-color-profile-blue-opacity50": "#EDF4F4",
 "@global-color-profile-blue-opacity25": "#F6FAFA",
 "@global-color-profile-blue-dark": "#000048",
 "@global-color-profile-blue-light": "#33337B",
 "@global-color-profile-blue-lighter": "#DDDDE9",
 "@global-color-profile-apricot-base": "#FCDBCB",
 "@global-color-profile-apricot-opacity50": "#FDEDE5",
 "@global-color-profile-apricot-opacity25": "#FEF6F2",
 "@global-color-profile-yellow-base": "#FFE56F",
 "@global-color-profile-yellow-opacity50": "#FFF2B7",
 "@global-color-profile-yellow-opacity25": "#FFF8DB",
 "@global-color-profile-green-base": "#95C23E",
 "@global-color-profile-green-dark": "#779B32",
 "@global-color-profile-green-light": "#AACE65",
 "@global-color-profile-green-lighter": "#DDEBC1",
 "@global-color-profile-green-lightest": "#F1F7E5",
 "@global-color-profile-white-base": "#FFFFFF",
 "@global-color-profile-white-dark": "#FCFCFC",
 "@global-color-profile-white-darker": "#FAFAFA",
 "@global-color-profile-white-darkest": "#F8F8F8",
 "@global-color-profile-white-darkest-2": "#F4F4F4",
 "@global-color-profile-white-darkest-3": "#F1F1F1",
 "@global-color-complementary-blue-base": "#00424C",
 "@global-color-complementary-blue-accent1": "#99CED4",
 "@global-color-complementary-blue-complement1": "#497E89",
 "@global-color-complementary-red-accent2": "#EF7748",
 "@global-color-complementary-red-complement2": "#B1451C",
 "@global-color-complementary-orange-accent3": "#F59C00",
 "@global-color-complementary-green-accent4": "#A3C961",
 "@global-color-complementary-turqouise-base": "#058470",
 "@global-color-complementary-turqouise-dark": "#046A5A",
 "@global-color-complementary-turqouise-darker": "#035548",
 "@global-color-complementary-turqouise-darkest": "#02362E",
 "@global-color-complementary-turqouise-light": "#379D8D",
 "@global-color-complementary-turqouise-lighter": "#7FC1B6",
 "@global-color-complementary-turqouise-lightest": "#BDDFDA",
 "@global-color-complementary-turqouise-lightest-2": "#DDEEEC",
 "@global-color-complementary-cerise-base": "#D43372",
 "@global-color-complementary-cerise-dark": "#AA295B",
 "@global-color-complementary-cerise-darker": "#882149",
 "@global-color-complementary-cerise-darkest": "#57162E",
 "@global-color-complementary-cerise-light": "#DD5C8E",
 "@global-color-complementary-cerise-lighter": "#E997B7",
 "@global-color-complementary-cerise-lightest": "#F4CADA",
 "@global-color-complementary-cerise-lightest-2": "#F9E4EC",
 "@global-color-cta-green-base": "#9FD33C",
 "@global-color-cta-green-dark": "#92BE3B",
 "@global-color-cta-green-light": "#B7EE4A",
 "@global-color-cta-green-lighter": "#DAF6A2",
 "@global-color-cta-blue-base": "#F1F8FE",
 "@global-color-cta-blue-dark": "#BDD3E7",
 "@global-color-cta-blue-darker": "#0058A3",
 "@global-color-cta-link-base": "#0079C2",
 "@global-color-cta-hover-base": "#424AE0",
 "@global-color-cta-visited-base": "#822998",
 "@global-color-neutral-grayscale-dark": "#CACACA",
 "@global-color-neutral-grayscale-darker": "#BDBDBD",
 "@global-color-neutral-grayscale-darkest": "#ACACAC",
 "@global-color-neutral-grayscale-darkest-2": "#979797",
 "@global-color-neutral-grayscale-darkest-3": "#7D7D7D",
 "@global-color-neutral-grayscale-darkest-4": "#5C5C5C",
 "@global-color-neutral-grayscale-darkest-5": "#333333",
 "@global-color-neutral-grayscale-darkest-6": "#000000",
 "@global-color-neutral-grayscale-lighter": "#E4E4E4",
 "@global-color-neutral-grayscale-lightest": "#E9E9E9",
 "@global-color-neutral-grayscale-lightest-2": "#EDEDED",
 "@global-color-neutral-grayscale-lightest-3": "#F1F1F1",
 "@global-color-neutral-grayscale-lightest-4": "#F4F4F4",
 "@global-color-neutral-grayscale-lightest-5": "#F8F8F8",
 "@global-color-neutral-grayscale-lightest-6": "#FAFAFA",
 "@global-color-neutral-grayscale-base": "#F2F2F2",
 "@global-color-neutral-grayscale-opacity50": "#F8F8F8",
 "@global-color-neutral-grayscale-white": "#FFFFFF",
 "@global-color-neutral-grayscale-light": "#D9D9D9",
 "@global-color-neutral-grayscale-darker-1": "#929292",
 "@global-color-neutral-grayscale-darker-2": "#666666",
 "@global-color-neutral-grayscale-darker-3": "#262626",
 "@global-color-function-info-base": "#0000FF",
 "@global-color-function-info-dark": "#0000CC",
 "@global-color-function-info-darker": "#0000A3",
 "@global-color-function-info-darkest": "#000082",
 "@global-color-function-info-darkest-2": "#000068",
 "@global-color-function-info-light": "#3333FF",
 "@global-color-function-info-lighter": "#5C5CFF",
 "@global-color-function-info-lightest": "#7D7DFF",
 "@global-color-function-info-lightest-2": "#BDBDFF",
 "@global-color-function-info-lightest-3": "#DDDDFF",
 "@global-color-function-success-base": "#1D9A18",
 "@global-color-function-success-dark": "#00761B",
 "@global-color-function-success-darker": "#005E16",
 "@global-color-function-success-darkest": "#004B12",
 "@global-color-function-success-darkest-2": "#003C0E",
 "@global-color-function-success-light": "#33A94E",
 "@global-color-function-success-lighter": "#5CBA71",
 "@global-color-function-success-lightest": "#7DC88D",
 "@global-color-function-success-lightest-2": "#BDE3C5",
 "@global-color-function-success-lightest-3": "#DDF1E1",
 "@global-color-function-warning-base": "#FFE200",
 "@global-color-function-warning-dark": "#CCB500",
 "@global-color-function-warning-darker": "#A39100",
 "@global-color-function-warning-darkest": "#827400",
 "@global-color-function-warning-darkest-2": "#685B00",
 "@global-color-function-warning-light": "#FFE833",
 "@global-color-function-warning-lighter": "#FFF17D",
 "@global-color-function-warning-lightest": "#FFF6AC",
 "@global-color-function-warning-lightest-2": "#FFF9CA",
 "@global-color-function-warning-lightest-3": "#FFFBDD",
 "@global-color-function-danger-base": "#CD2126",
 "@global-color-function-danger-dark": "#AE0000",
 "@global-color-function-danger-darker": "#8B0000",
 "@global-color-function-danger-darkest": "#6F0000",
 "@global-color-function-danger-darkest-2": "#590000",
 "@global-color-function-danger-light": "#E84973",
 "@global-color-function-danger-lighter": "#E75C5C",
 "@global-color-function-danger-lightest": "#F09797",
 "@global-color-function-danger-lightest-2": "#F7CACA",
 "@global-color-function-danger-lightest-3": "#FADDDD",
 "@global-spacing-base": "2rem",
 "@global-spacing-small": "1.5rem",
 "@global-spacing-small-2": "2.375rem",
 "@global-spacing-smaller": "1rem",
 "@global-spacing-smaller-2": "0.625rem",
 "@global-spacing-smaller-3": "0.75rem",
 "@global-spacing-smallest": "0.5rem",
 "@global-spacing-large": "2.5rem",
 "@global-spacing-larger": "3.5rem",
 "@global-spacing-largest": "6rem",
 "@global-spacing-largest-2": "7.5rem",
 "@global-spacing-smallest-2": "0.5rem",
 "@global-spacing-smallest-3": "0.375rem",
 "@global-spacing-smallest-4": "0.25rem",
 "@global-spacing-smallest-5": "0.1875rem",
 "@global-spacing-smallest-6": "0.125rem",
 "@global-spacing-smallest-7": "0.0625rem",
 "@global-spacing--": "1.375rem",
 "@global-spacing-largest-3": "1.75rem",
 "@global-spacing-largest-4": "2rem",
 "@global-spacing-largest-5": "2.5rem",
 "@global-spacing-largest-6": "3rem",
 "@global-spacing-largest-7": "3.5rem",
 "@global-spacing-largest-8": "4rem",
 "@global-breakpoint-smallest": "23.375rem",
 "@global-breakpoint-smaller": "23.4375rem",
 "@global-breakpoint-small": "47.9375rem",
 "@global-breakpoint-medium": "48rem",
 "@global-breakpoint-large": "61.9375rem",
 "@global-breakpoint-larger": "62rem",
 "@global-breakpoint-largest": "79.9375rem",
 "@global-breakpoint-largest-2": "80rem",
 "@global-breakpoint-largest-3": "83.5rem",
 "@global-breakpoint-smallest-3": "23.375rem",
 "@global-breakpoint-smallest-2": "23.4375rem",
 "@global-breakpoint-largest-4": "87.5rem",
 "@global-size-smaller": "auto",
 "@global-size-small": "45rem",
 "@global-size-base": "56rem",
 "@global-size-large": "74rem",
 "@global-size-larger": "77.5rem",
 "@global-size-largest": "83.5rem",
 "@global-text-width-small": "42rem",
 "@global-text-width-base": "50rem",
 "@global-text-width-large": "68rem",
 "@global-text-width-larger": "71.5rem",
 "@global-text-width-largest": "48rem",
 "@global-text-width-largest-2": "53rem",
 "@global-text-width-largest-3": "61rem",
 "@global-text-width-largest-4": "70rem",
 "@global-text-width-brontosaurus-big": "70000000rem",
 "@global-typography-line-height-base": "2rem",
 "@global-typography-line-height-small": "1.75rem",
 "@global-typography-line-height-smaller": "1.5rem",
 "@global-typography-line-height-large": "2.25rem",
 "@global-typography-line-height-larger": "2.5rem",
 "@global-typography-line-height-largest": "2.75rem",
 "@global-typography-line-height-largest-2": "3.5rem",
 "@global-typography-font-size-base": "1.25rem",
 "@global-typography-font-size-small": "1.125rem",
 "@global-typography-font-size-smaller": "1rem",
 "@global-typography-font-size-smallest": ".75rem",
 "@global-typography-font-size-smallest-2": ".875rem",
 "@global-typography-font-size-large": "1.3125rem",
 "@global-typography-font-size-larger": "1.5625rem",
 "@global-typography-font-size-largest": "1.625rem",
 "@global-typography-font-size-largest-2": "2.125rem",
 "@global-typography-font-size-largest-3": "2.25rem",
 "@global-typography-font-size-largest-4": "2.8125rem",
 "@global-typography-font-size-largest-5": "2.5rem",
 "@global-typography-font-size-interaction-small": "1.125rem",
 "@global-typography-font-size-interaction-medium": "1.125rem",
 "@global-typography-font-size-interaction-large": "1.125rem",
 "@global-typography-font-weight-regular": "400",
 "@global-typography-font-weight-light": "300",
 "@global-typography-font-weight-semibold": "600",
 "@global-typography-font-weight-bold": "700",
 "@global-typography-font-family-default": "\"Source Sans Pro\"",
 "@global-typography-font-family-mono": "'Roboto Mono', monospace",
 "@global-typography-text-decoration-default": "none",
 "@global-typography-text-decoration-link": "underline",
 "@border-radius-primary": "0.25rem",
 "@border-radius-secondary": "0.5rem",
 "@border-radius-tertiary": "0.1875rem",
 "@border-radius-complementary-1": "2rem",
 "@border-radius-complementary-2": "4rem",
 "@border-radius-button": "0.25rem",
 "@border-radius-input": "0.5rem",
 "@border-radius-input-search": "0.5rem",
 "@border-width-primary": "0.125rem",
 "@border-width-secondary": "0.25rem",
 "@border-width-tertiary": "0.0625rem",
 "@border-width-quaternary": "0rem",
 "@border-width-complementary-1": "0.5rem",
 "@border-width-complementary-2": "0.625rem",
 "@border-width-input-regular": "0.0625rem",
 "@border-width-input-validation": "0.125rem",
 "@border-width-button": "0.0625rem",
 "@border-style-primary": "solid",
 "@border-style-secondary": "none",
 "@border-style-complementary": "dashed",
 "@color-text-primary": "#262626",
 "@color-text-secondary": "#692859",
 "@color-text-inverted": "#FFFFFF",
 "@color-text-link": "#692859",
 "@color-text-link-hover": "#5A235A",
 "@color-text-link-visited": "#692859",
 "@color-text-link-secondary": "#0079C2",
 "@color-text-link-secondary-hover": "#5A235A",
 "@color-text-link-secondary-visited": "#0079C2",
 "@color-text-neutral": "#5C5C5C",
 "@color-background-primary": "#FFFFFF",
 "@color-background-secondary": "#F8F4F8",
 "@color-background-tertiary": "#E8DFE6",
 "@color-background-inverted-1": "#692859",
 "@color-background-inverted-2": "#5A235A",
 "@color-background-inverted-3": "#3D1B3D",
 "@color-background-inverted-4": "#B7EE4A",
 "@color-background-complementary-1": "#692859",
 "@color-background-complementary-2": "#D43372",
 "@color-background-neutral-1": "#F8F4F8",
 "@color-background-neutral-2": "#9FD33C",
 "@color-background-neutral-3": "#F2F2F2",
 "@color-background-neutral-4": "#5C5C5C",
 "@color-background-neutral-5": "#F1F7E5",
 "@color-background-neutral-6": "#EDEDED",
 "@color-background-neutral-7": "#DDEBC1",
 "@color-background-informative": "#F8F8F8",
 "@color-background-success-1": "#1D9A18",
 "@color-background-success-2": "#FFFFFF",
 "@color-background-success-3": "#7DC88D",
 "@color-background-warning-1": "#EF7748",
 "@color-background-warning-2": "#FFFFFF",
 "@color-background-warning-3": "#FFF9CA",
 "@color-background-danger-1": "#CD2126",
 "@color-background-danger-2": "#FFFFFF",
 "@color-background-danger-3": "#F09797",
 "@color-background-input": "#FFFFFF",
 "@color-background-input-empty": "#F8F4F8",
 "@color-background-radio-primary": "#FFFFFF",
 "@color-background-radio-secondary": "#FFFFFF",
 "@color-background-radio-marker": "#692859",
 "@color-background-checkbox-primary": "#692859",
 "@color-background-checkbox-secondary": "#692859",
 "@color-background-checkbox-marker": "#FFFFFF",
 "@color-background-notification-info": "#F8F8F8",
 "@color-background-notification-warning": "#FEF6F2",
 "@color-background-notification-danger": "#FDEDE5",
 "@color-border-primary": "#A57E9B",
 "@color-border-secondary": "#692859",
 "@color-border-tertiary": "#5A235A",
 "@color-border-quaternary": "#3D1B3D",
 "@color-border-focus": "#F59C00",
 "@color-border-success": "#1D9A18",
 "@color-border-warning": "#EF7748",
 "@color-border-danger": "#CD2126",
 "@color-border-informative": "#00424C",
 "@color-border-inverted": "#FAFAFA",
 "@color-border-neutral-1": "#F1F7E5",
 "@color-border-neutral-2": "#D9D9D9",
 "@color-border-neutral-3": "#A57E9B",
 "@color-border-neutral-4": "#EDEDED",
 "@color-border-neutral-5": "#7D7D7D",
 "@color-border-radio-primary": "#A57E9B",
 "@color-border-radio-secondary": "#A57E9B",
 "@color-border-radio-focus": "#692859",
 "@color-border-checkbox-primary": "#692859",
 "@color-border-checkbox-secondary": "#692859",
 "@color-border-checkbox-focus": "#692859",
 "@color-icons-primary": "#692859",
 "@color-icons-secondary": "#DCEAEA",
 "@color-icons-inverted": "#FFFFFF",
 "@color-icons-complementary-1": "#0079C2",
 "@color-icons-complementary-2": "#424AE0",
 "@color-icons-complementary-3": "#822998",
 "@color-icons-success": "#058470",
 "@color-icons-warning": "#FFE200",
 "@color-icons-danger": "#CD2126",
 "@color-icons-informative": "#0000FF",
 "@padding-medium": "1rem",
 "@padding-smaller": "0.5rem",
 "@padding-small": "1rem",
 "@padding-large": "1rem",
 "@padding-larger": "1rem",
 "@padding-largest": "1.5rem",
 "@padding-largest-2": "1.5rem",
 "@padding-largest-3": "2.5rem",
 "@margin-smaller": "0.5rem",
 "@margin-small": "1rem",
 "@margin-medium": "1rem",
 "@margin-large": "1rem",
 "@margin-larger": "1rem",
 "@margin-largest": "1.5rem",
 "@margin-h1-small": "1rem",
 "@margin-h1-medium": "1rem",
 "@margin-h1-large": "1rem",
 "@margin-h2-small": "0.5rem",
 "@margin-h2-large": "0.5rem",
 "@margin-h3-small": "0.5rem",
 "@margin-h3-large": "0.5rem",
 "@margin-h4-h6-small": "0",
 "@margin-h4-h6-large": "0",
 "@margin-text-small": "0.75rem",
 "@margin-text-large": "1rem",
 "@gutter-largest-3": "1.5rem",
 "@gutter-largest-2": "1.5rem",
 "@gutter-largest": "1.5rem",
 "@gutter-larger": "1rem",
 "@gutter-large": "1rem",
 "@gutter-medium": "1rem",
 "@gutter-small": "0.5rem",
 "@gutter-smaller": "0.5rem",
 "@gutter-smallest": "0.5rem",
 "@gutter-smallest-2": "0.5rem",
 "@gutter-smallest-3": "0.5rem",
 "@gutter-smallest-4": "0.375rem",
 "@gutter-button-block-small": "0.375rem",
 "@gutter-button-block-medium": "0.375rem",
 "@gutter-button-block-large": "0.5rem",
 "@gutter-button-inline-small": "1.5rem",
 "@gutter-button-inline-medium": "1.5rem",
 "@gutter-button-inline-large": "1.5rem",
 "@gutter-icon": "0.5rem",
 "@breakpoint-small-below": "23.375rem",
 "@breakpoint-small": "23.4375rem",
 "@breakpoint-medium-below": "47.9375rem",
 "@breakpoint-medium": "48rem",
 "@breakpoint-large-below": "61.9375rem",
 "@breakpoint-large": "62rem",
 "@breakpoint-x-large-below": "79.9375rem",
 "@breakpoint-x-large": "80rem",
 "@breakpoint-xx-large-below": "83.5rem",
 "@breakpoint-xx-large": "80rem",
 "@container-width-smaller": "100%",
 "@container-width-small": "100%",
 "@container-width-base": "100%",
 "@container-width-medium": "100%",
 "@container-width-large": "100%",
 "@container-width-larger": "83.5rem",
 "@container-width-largest": "83.5rem",
 "@container-gutter-smaller": "1rem",
 "@container-gutter-small": "1.5rem",
 "@container-gutter-base": "1rem",
 "@container-gutter-medium": "3rem",
 "@container-gutter-large": "3rem",
 "@container-gutter-larger": "3rem",
 "@container-gutter-largest": "3rem",
 "@paragraph-width-medium": "50rem",
 "@paragraph-width-large": "68rem",
 "@input-height-small": "3rem",
 "@input-height-medium": "3rem",
 "@input-height-large": "3rem",
 "@grid-gutter-smaller": "0.5rem",
 "@grid-gutter-small": "1.5rem",
 "@grid-gutter-medium": "2rem",
 "@grid-gutter-large": "2rem",
 "@grid-gutter-larger": "2rem",
 "@height-button-small": "2.5rem",
 "@height-button-large": "3rem",
 "@shadow-input-focus": "0 0 0.125rem #692859",
 "@typography-font-family": "\"Source Sans Pro\"",
 "@typography-body-font-size-desktop": "1.125rem",
 "@typography-body-font-size-desktop-large": "1.25rem",
 "@typography-body-font-size-mobile": "1.125rem",
 "@typography-body-font-weight-desktop": "400",
 "@typography-body-font-weight-desktop-large": "400",
 "@typography-body-font-weight-mobile": "400",
 "@typography-body-line-height-desktop": "1.75rem",
 "@typography-body-line-height-desktop-large": "2rem",
 "@typography-body-line-height-mobile": "1.75rem",
 "@typography-body-text-decoration-desktop": "none",
 "@typography-body-text-decoration-desktop-large": "none",
 "@typography-body-text-decoration-mobile": "none",
 "@typography-description-font-size-desktop": "1.3125rem",
 "@typography-description-font-size-desktop-large": "1.3125rem",
 "@typography-description-font-size-mobile": "1.3125rem",
 "@typography-description-font-weight-desktop": "600",
 "@typography-description-font-weight-desktop-large": "600",
 "@typography-description-font-weight-mobile": "600",
 "@typography-description-line-height-desktop": "2rem",
 "@typography-description-line-height-desktop-large": "2rem",
 "@typography-description-line-height-mobile": "2rem",
 "@typography-description-text-decoration-desktop": "none",
 "@typography-description-text-decoration-desktop-large": "none",
 "@typography-description-text-decoration-mobile": "none",
 "@typography-heading-1-font-size-desktop": "2.8125rem",
 "@typography-heading-1-font-size-desktop-large": "2.8125rem",
 "@typography-heading-1-font-size-mobile": "2.125rem",
 "@typography-heading-1-font-weight-desktop": "600",
 "@typography-heading-1-font-weight-desktop-large": "600",
 "@typography-heading-1-font-weight-mobile": "600",
 "@typography-heading-1-line-height-desktop": "3.5rem",
 "@typography-heading-1-line-height-desktop-large": "3.5rem",
 "@typography-heading-1-line-height-mobile": "2.5rem",
 "@typography-heading-1-text-decoration-desktop": "none",
 "@typography-heading-1-text-decoration-desktop-large": "none",
 "@typography-heading-1-text-decoration-mobile": "none",
 "@typography-heading-2-font-size-desktop": "2.25rem",
 "@typography-heading-2-font-size-desktop-large": "2.25rem",
 "@typography-heading-2-font-size-mobile": "1.625rem",
 "@typography-heading-2-font-weight-desktop": "600",
 "@typography-heading-2-font-weight-desktop-large": "600",
 "@typography-heading-2-font-weight-mobile": "600",
 "@typography-heading-2-line-height-desktop": "2.75rem",
 "@typography-heading-2-line-height-desktop-large": "2.75rem",
 "@typography-heading-2-line-height-mobile": "2.25rem",
 "@typography-heading-2-text-decoration-desktop": "none",
 "@typography-heading-2-text-decoration-desktop-large": "none",
 "@typography-heading-2-text-decoration-mobile": "none",
 "@typography-heading-3-font-size-desktop": "1.5625rem",
 "@typography-heading-3-font-size-desktop-large": "1.5625rem",
 "@typography-heading-3-font-size-mobile": "1.3125rem",
 "@typography-heading-3-font-weight-desktop": "600",
 "@typography-heading-3-font-weight-desktop-large": "600",
 "@typography-heading-3-font-weight-mobile": "600",
 "@typography-heading-3-line-height-desktop": "2.5rem",
 "@typography-heading-3-line-height-desktop-large": "2.5rem",
 "@typography-heading-3-line-height-mobile": "1.75rem",
 "@typography-heading-3-text-decoration-desktop": "none",
 "@typography-heading-3-text-decoration-desktop-large": "none",
 "@typography-heading-3-text-decoration-mobile": "none",
 "@typography-heading-4-font-size-desktop": "1.3125rem",
 "@typography-heading-4-font-size-desktop-large": "1.3125rem",
 "@typography-heading-4-font-size-mobile": "1.125rem",
 "@typography-heading-4-font-weight-desktop": "600",
 "@typography-heading-4-font-weight-desktop-large": "600",
 "@typography-heading-4-font-weight-mobile": "600",
 "@typography-heading-4-line-height-desktop": "2rem",
 "@typography-heading-4-line-height-desktop-large": "2rem",
 "@typography-heading-4-line-height-mobile": "1.75rem",
 "@typography-heading-4-text-decoration-desktop": "none",
 "@typography-heading-4-text-decoration-desktop-large": "none",
 "@typography-heading-4-text-decoration-mobile": "none",
 "@typography-heading-jumbo-font-size-desktop": "2.8125rem",
 "@typography-heading-jumbo-font-size-desktop-large": "2.5rem",
 "@typography-heading-jumbo-font-size-mobile": "2.25rem",
 "@typography-heading-jumbo-font-weight-desktop": "600",
 "@typography-heading-jumbo-font-weight-desktop-large": "600",
 "@typography-heading-jumbo-font-weight-mobile": "600",
 "@typography-heading-jumbo-line-height-desktop": "2rem",
 "@typography-heading-jumbo-line-height-desktop-large": "2rem",
 "@typography-heading-jumbo-line-height-mobile": "2rem",
 "@typography-heading-jumbo-text-decoration-desktop": "none",
 "@typography-heading-jumbo-text-decoration-desktop-large": "none",
 "@typography-heading-jumbo-text-decoration-mobile": "none",
 "@typography-input-font-size-desktop": "1.125rem",
 "@typography-input-font-size-desktop-large": "1.125rem",
 "@typography-input-font-size-mobile": "1.125rem",
 "@typography-input-font-weight-desktop": "400",
 "@typography-input-font-weight-desktop-large": "400",
 "@typography-input-font-weight-mobile": "400",
 "@typography-input-line-height-desktop": "2rem",
 "@typography-input-line-height-desktop-large": "2rem",
 "@typography-input-line-height-mobile": "2rem",
 "@typography-input-text-decoration-desktop": "none",
 "@typography-input-text-decoration-desktop-large": "none",
 "@typography-input-text-decoration-mobile": "none",
 "@typography-label-font-size-desktop": "1.125rem",
 "@typography-label-font-size-desktop-large": "1.125rem",
 "@typography-label-font-size-mobile": "1.125rem",
 "@typography-label-font-weight-desktop": "600",
 "@typography-label-font-weight-desktop-large": "600",
 "@typography-label-font-weight-mobile": "600",
 "@typography-label-line-height-desktop": "1.5",
 "@typography-label-line-height-desktop-large": "1.5rem",
 "@typography-label-line-height-mobile": "1.5rem",
 "@typography-label-text-decoration-desktop": "none",
 "@typography-label-text-decoration-desktop-large": "none",
 "@typography-label-text-decoration-mobile": "none",
 "@typography-label-description-font-size-desktop": "1rem",
 "@typography-label-description-font-size-desktop-large": "1rem",
 "@typography-label-description-font-size-mobile": "1rem",
 "@typography-label-description-font-weight-desktop": "400",
 "@typography-label-description-font-weight-desktop-large": "400",
 "@typography-label-description-font-weight-mobile": "400",
 "@typography-label-description-line-height-desktop": "1.5rem",
 "@typography-label-description-line-height-desktop-large": "1.5rem",
 "@typography-label-description-line-height-mobile": "1.5rem",
 "@typography-label-description-text-decoration-desktop": "none",
 "@typography-label-description-text-decoration-desktop-large": "none",
 "@typography-label-description-text-decoration-mobile": "none",
 "@typography-link-font-size-desktop": "1.25rem",
 "@typography-link-font-size-desktop-large": "1.25rem",
 "@typography-link-font-size-mobile": "1.125rem",
 "@typography-link-font-weight-desktop": "400",
 "@typography-link-font-weight-desktop-large": "400",
 "@typography-link-font-weight-mobile": "400",
 "@typography-link-line-height-desktop": "2rem",
 "@typography-link-line-height-desktop-large": "2rem",
 "@typography-link-line-height-mobile": "1.75rem",
 "@typography-link-text-decoration-desktop": "underline",
 "@typography-link-text-decoration-desktop-large": "underline",
 "@typography-link-text-decoration-mobile": "underline",
 "@typography-link-bold-font-size-desktop": "1.25rem",
 "@typography-link-bold-font-size-desktop-large": "1.3125rem",
 "@typography-link-bold-font-size-mobile": "1.25rem",
 "@typography-link-bold-font-weight-desktop": "600",
 "@typography-link-bold-font-weight-desktop-large": "600",
 "@typography-link-bold-font-weight-mobile": "600",
 "@typography-link-bold-line-height-desktop": "2rem",
 "@typography-link-bold-line-height-desktop-large": "2rem",
 "@typography-link-bold-line-height-mobile": "2rem",
 "@typography-link-bold-text-decoration-desktop": "underline",
 "@typography-link-bold-text-decoration-desktop-large": "underline",
 "@typography-link-bold-text-decoration-mobile": "underline",
 "@typography-placeholder-font-size-desktop": "1.125rem",
 "@typography-placeholder-font-size-desktop-large": "1.125rem",
 "@typography-placeholder-font-size-mobile": "1.125rem",
 "@typography-placeholder-font-weight-desktop": "400",
 "@typography-placeholder-font-weight-desktop-large": "400",
 "@typography-placeholder-font-weight-mobile": "400",
 "@typography-placeholder-line-height-desktop": "2rem",
 "@typography-placeholder-line-height-desktop-large": "2rem",
 "@typography-placeholder-line-height-mobile": "2rem",
 "@typography-placeholder-text-decoration-desktop": "none",
 "@typography-placeholder-text-decoration-desktop-large": "none",
 "@typography-placeholder-text-decoration-mobile": "none",
 "@typography-preamble-font-size-desktop": "1.5625rem",
 "@typography-preamble-font-size-desktop-large": "1.5625rem",
 "@typography-preamble-font-size-mobile": "1.3125rem",
 "@typography-preamble-font-weight-desktop": "400",
 "@typography-preamble-font-weight-desktop-large": "400",
 "@typography-preamble-font-weight-mobile": "400",
 "@typography-preamble-line-height-desktop": "2.25rem",
 "@typography-preamble-line-height-desktop-large": "2.25rem",
 "@typography-preamble-line-height-mobile": "2rem",
 "@typography-preamble-text-decoration-desktop": "none",
 "@typography-preamble-text-decoration-desktop-large": "none",
 "@typography-preamble-text-decoration-mobile": "none",
 "@typography-accordion-font-size-desktop": "1.3125rem",
 "@typography-accordion-font-size-desktop-large": "1.3125rem",
 "@typography-accordion-font-size-mobile": "1.125rem",
 "@typography-accordion-font-weight-desktop": "600",
 "@typography-accordion-font-weight-desktop-large": "600",
 "@typography-accordion-font-weight-mobile": "600",
 "@typography-accordion-line-height-desktop": "2rem",
 "@typography-accordion-line-height-desktop-large": "2rem",
 "@typography-accordion-line-height-mobile": "1.75rem",
 "@typography-accordion-text-decoration-desktop": "none",
 "@typography-accordion-text-decoration-desktop-large": "none",
 "@typography-accordion-text-decoration-mobile": "none",
 "@typography-tag-font-size-desktop": "1.125rem",
 "@typography-tag-font-size-desktop-large": "1.125rem",
 "@typography-tag-font-size-mobile": "1.125rem",
 "@typography-tag-font-weight-desktop": "400",
 "@typography-tag-font-weight-desktop-large": "400",
 "@typography-tag-font-weight-mobile": "400",
 "@typography-tag-line-height-desktop": "2rem",
 "@typography-tag-line-height-desktop-large": "2rem",
 "@typography-tag-line-height-mobile": "2rem",
 "@typography-tag-text-decoration-desktop": "none",
 "@typography-tag-text-decoration-desktop-large": "none",
 "@typography-tag-text-decoration-mobile": "none",
 "@typography-breadcrumbs-font-size-desktop": "1rem",
 "@typography-breadcrumbs-font-size-desktop-large": "1rem",
 "@typography-breadcrumbs-font-size-mobile": "1rem",
 "@typography-breadcrumbs-font-weight-desktop": "400",
 "@typography-breadcrumbs-font-weight-desktop-large": "400",
 "@typography-breadcrumbs-font-weight-mobile": "400",
 "@typography-breadcrumbs-line-height-desktop": "2rem",
 "@typography-breadcrumbs-line-height-desktop-large": "2rem",
 "@typography-breadcrumbs-line-height-mobile": "2rem",
 "@typography-breadcrumbs-text-decoration-desktop": "underline",
 "@typography-breadcrumbs-text-decoration-desktop-large": "underline",
 "@typography-breadcrumbs-text-decoration-mobile": "underline",
 "@typography-title-logo-font-size-desktop": "2.8125rem",
 "@typography-title-logo-font-size-desktop-large": "2.5rem",
 "@typography-title-logo-font-size-mobile": "2.25rem",
 "@typography-title-logo-font-weight-desktop": "700",
 "@typography-title-logo-font-weight-desktop-large": "700",
 "@typography-title-logo-font-weight-mobile": "700",
 "@typography-title-logo-line-height-desktop": "1.75rem",
 "@typography-title-logo-line-height-desktop-large": "1.75rem",
 "@typography-title-logo-line-height-mobile": "1.75rem",
 "@typography-title-logo-text-decoration-desktop": "none",
 "@typography-title-logo-text-decoration-desktop-large": "none",
 "@typography-title-logo-text-decoration-mobile": "none",
 "@typography-vertical-menu-level-1-font-size-desktop": "1.5625rem",
 "@typography-vertical-menu-level-1-font-size-desktop-large": "1.5625rem",
 "@typography-vertical-menu-level-1-font-size-mobile": "1.3125rem",
 "@typography-vertical-menu-level-1-font-weight-desktop": "600",
 "@typography-vertical-menu-level-1-font-weight-desktop-large": "600",
 "@typography-vertical-menu-level-1-font-weight-mobile": "600",
 "@typography-vertical-menu-level-1-line-height-desktop": "2rem",
 "@typography-vertical-menu-level-1-line-height-desktop-large": "2rem",
 "@typography-vertical-menu-level-1-line-height-mobile": "2rem",
 "@typography-vertical-menu-level-1-text-decoration-desktop": "none",
 "@typography-vertical-menu-level-1-text-decoration-desktop-large": "none",
 "@typography-vertical-menu-level-1-text-decoration-mobile": "none",
 "@typography-vertical-menu-level-2-font-size-desktop": "1.25rem",
 "@typography-vertical-menu-level-2-font-size-desktop-large": "1.25rem",
 "@typography-vertical-menu-level-2-font-size-mobile": "1.125rem",
 "@typography-vertical-menu-level-2-font-weight-desktop": "400",
 "@typography-vertical-menu-level-2-font-weight-desktop-large": "400",
 "@typography-vertical-menu-level-2-font-weight-mobile": "400",
 "@typography-vertical-menu-level-2-line-height-desktop": "2rem",
 "@typography-vertical-menu-level-2-line-height-desktop-large": "2rem",
 "@typography-vertical-menu-level-2-line-height-mobile": "2rem",
 "@typography-vertical-menu-level-2-text-decoration-desktop": "none",
 "@typography-vertical-menu-level-2-text-decoration-desktop-large": "none",
 "@typography-vertical-menu-level-2-text-decoration-mobile": "none",
 "@typography-vertical-menu-level-3-font-size-desktop": "1.25rem",
 "@typography-vertical-menu-level-3-font-size-desktop-large": "1.25rem",
 "@typography-vertical-menu-level-3-font-size-mobile": "1.125rem",
 "@typography-vertical-menu-level-3-font-weight-desktop": "400",
 "@typography-vertical-menu-level-3-font-weight-desktop-large": "400",
 "@typography-vertical-menu-level-3-font-weight-mobile": "400",
 "@typography-vertical-menu-level-3-line-height-desktop": "2rem",
 "@typography-vertical-menu-level-3-line-height-desktop-large": "2rem",
 "@typography-vertical-menu-level-3-line-height-mobile": "2rem",
 "@typography-vertical-menu-level-3-text-decoration-desktop": "none",
 "@typography-vertical-menu-level-3-text-decoration-desktop-large": "none",
 "@typography-vertical-menu-level-3-text-decoration-mobile": "none",
 "@typography-vertical-menu-level-4-font-size-desktop": "1.125rem",
 "@typography-vertical-menu-level-4-font-size-desktop-large": "1.125rem",
 "@typography-vertical-menu-level-4-font-size-mobile": "1rem",
 "@typography-vertical-menu-level-4-font-weight-desktop": "400",
 "@typography-vertical-menu-level-4-font-weight-desktop-large": "400",
 "@typography-vertical-menu-level-4-font-weight-mobile": "400",
 "@typography-vertical-menu-level-4-line-height-desktop": "2rem",
 "@typography-vertical-menu-level-4-line-height-desktop-large": "2rem",
 "@typography-vertical-menu-level-4-line-height-mobile": "2rem",
 "@typography-vertical-menu-level-4-text-decoration-desktop": "none",
 "@typography-vertical-menu-level-4-text-decoration-desktop-large": "none",
 "@typography-vertical-menu-level-4-text-decoration-mobile": "none",
 "@typography-vertical-menu-level-5-font-size-desktop": "1.125rem",
 "@typography-vertical-menu-level-5-font-size-desktop-large": "1.125rem",
 "@typography-vertical-menu-level-5-font-size-mobile": "1rem",
 "@typography-vertical-menu-level-5-font-weight-desktop": "400",
 "@typography-vertical-menu-level-5-font-weight-desktop-large": "400",
 "@typography-vertical-menu-level-5-font-weight-mobile": "400",
 "@typography-vertical-menu-level-5-line-height-desktop": "2rem",
 "@typography-vertical-menu-level-5-line-height-desktop-large": "2rem",
 "@typography-vertical-menu-level-5-line-height-mobile": "2rem",
 "@typography-vertical-menu-level-5-text-decoration-desktop": "none",
 "@typography-vertical-menu-level-5-text-decoration-desktop-large": "none",
 "@typography-vertical-menu-level-5-text-decoration-mobile": "none",
 "@typography-button-font-size-desktop": "1.125rem",
 "@typography-button-font-size-desktop-large": "1.125rem",
 "@typography-button-font-size-mobile": "1.125rem",
 "@typography-button-font-weight-desktop": "600",
 "@typography-button-font-weight-desktop-large": "600",
 "@typography-button-font-weight-mobile": "600",
 "@typography-button-line-height-desktop": "2rem",
 "@typography-button-line-height-desktop-large": "2rem",
 "@typography-button-line-height-mobile": "2rem",
 "@typography-button-text-decoration-desktop": "none",
 "@typography-button-text-decoration-desktop-large": "none",
 "@typography-button-text-decoration-mobile": "none"
}