<?xml version="1.0" encoding="UTF-8"?>
<svg width="660px" height="213px" viewBox="0 0 660 213" version="1.1" xmlns="http://www.w3.org/2000/svg" xmlns:xlink="http://www.w3.org/1999/xlink">
    <title>Logo frizon</title>
    <defs>
        <rect id="path-1" x="0" y="0" width="660" height="213"></rect>
        <mask id="mask-2" maskContentUnits="userSpaceOnUse" maskUnits="objectBoundingBox" x="0" y="0" width="660" height="213" fill="white">
            <use xlink:href="#path-1"></use>
        </mask>
        <rect id="path-3" x="68" y="72" width="524" height="72"></rect>
        <mask id="mask-4" maskContentUnits="userSpaceOnUse" maskUnits="objectBoundingBox" x="0" y="0" width="524" height="72" fill="white">
            <use xlink:href="#path-3"></use>
        </mask>
        <path d="M21.2942639,-1.63590072e-14 C44.0135417,-1.63590072e-14 62.4316667,18.7507092 62.4316667,41.8817233 C62.4316667,49.9730923 60.17175,57.5241506 56.2681389,63.9281285 L56.2681389,63.9281285 L47.9615417,58.3482407 C50.8278889,53.547251 52.4787639,47.9108732 52.4787639,41.8817233 C52.4787639,24.3472117 38.5171528,10.1329859 21.2942639,10.1329859 L21.2942639,10.1329859 Z M21.2942639,20.2023706 C33.0547083,20.2023706 42.5885278,29.9086904 42.5885278,41.8812581 C42.5885278,53.8544904 33.0547083,63.5608103 21.2942639,63.5608103 C9.53381944,63.5608103 1.99152267e-11,53.8544904 1.99152267e-11,41.8812581 C1.99152267e-11,29.9086904 9.53381944,20.2023706 21.2942639,20.2023706 Z M21.2942639,30.3001332 C15.0112778,30.3001332 9.91895833,35.4852552 9.91895833,41.8812581 C9.91895833,48.2779256 15.0112778,53.4630476 21.2942639,53.4630476 C27.57725,53.4630476 32.6695694,48.2779256 32.6695694,41.8812581 C32.6695694,35.4852552 27.57725,30.3001332 21.2942639,30.3001332 Z" id="path-5"></path>
    </defs>
    <g id="Page-1" stroke="none" stroke-width="1" fill="none" fill-rule="evenodd">
        <g id="Grafisk-manual---logotyp" transform="translate(-804.000000, -1602.000000)">
            <g id="Logo-frizon" transform="translate(804.000000, 1602.000000)">
                <g id="Group">
                    <use id="Rectangle-Copy-2" stroke="#333333" mask="url(#mask-2)" stroke-width="4" fill="#FFFFFF" stroke-dasharray="12,6" xlink:href="#path-1"></use>
                    <g id="Group-5-Copy-4" transform="translate(6.000000, 144.000000)" fill="#D1D1D1">
                        <path d="M21.3048004,53.4630476 C15.0187054,53.4630476 9.92386628,48.2779256 9.92386628,41.8812581 C9.92386628,35.4852552 15.0187054,30.3001332 21.3048004,30.3001332 C27.5908953,30.3001332 32.6857345,35.4852552 32.6857345,41.8812581 C32.6857345,48.2779256 27.5908953,53.4630476 21.3048004,53.4630476 M21.3048004,20.2023706 C9.53853682,20.2023706 0,29.9086904 0,41.8812581 C0,53.8544904 9.53853682,63.5608103 21.3048004,63.5608103 C33.071064,63.5608103 42.6096008,53.8544904 42.6096008,41.8812581 C42.6096008,29.9086904 33.071064,20.2023706 21.3048004,20.2023706" id="Fill-77"></path>
                        <path d="M21.3048004,10.1329859 C38.5362112,10.1329859 52.5047306,24.3472117 52.5047306,41.8817233 C52.5047306,47.9108732 50.8530388,53.547251 47.9852733,58.3482407 L56.2959806,63.9281285 C60.2015233,57.5241506 62.4625581,49.9730923 62.4625581,41.8817233 C62.4625581,18.7507092 44.0353198,0 21.3048004,0 L21.3048004,10.1329859 Z" id="Fill-78"></path>
                    </g>
                    <g id="Group-5-Copy" transform="translate(591.000000, 8.000000)" fill="#D1D1D1">
                        <path d="M21.3048004,53.4630476 C15.0187054,53.4630476 9.92386628,48.2779256 9.92386628,41.8812581 C9.92386628,35.4852552 15.0187054,30.3001332 21.3048004,30.3001332 C27.5908953,30.3001332 32.6857345,35.4852552 32.6857345,41.8812581 C32.6857345,48.2779256 27.5908953,53.4630476 21.3048004,53.4630476 M21.3048004,20.2023706 C9.53853682,20.2023706 0,29.9086904 0,41.8812581 C0,53.8544904 9.53853682,63.5608103 21.3048004,63.5608103 C33.071064,63.5608103 42.6096008,53.8544904 42.6096008,41.8812581 C42.6096008,29.9086904 33.071064,20.2023706 21.3048004,20.2023706" id="Fill-77"></path>
                        <path d="M21.3048004,10.1329859 C38.5362112,10.1329859 52.5047306,24.3472117 52.5047306,41.8817233 C52.5047306,47.9108732 50.8530388,53.547251 47.9852733,58.3482407 L56.2959806,63.9281285 C60.2015233,57.5241506 62.4625581,49.9730923 62.4625581,41.8817233 C62.4625581,18.7507092 44.0353198,0 21.3048004,0 L21.3048004,10.1329859 Z" id="Fill-78"></path>
                    </g>
                    <use id="Rectangle-Copy" stroke="#333333" mask="url(#mask-4)" stroke-width="4" fill="#FFFFFF" stroke-dasharray="12,6" xlink:href="#path-3"></use>
                    <g id="logo/a/arbetsförmedlingen/primary-copy" transform="translate(71.746542, 75.847925)">
                        <g id="Group-12-Copy-2" transform="translate(0.000000, 0.000000)">
                            <path d="M90.6967489,21.7894117 L88.0570895,15.2292537 L85.3580018,21.7894117 L90.6967489,21.7894117 Z M92.3764135,25.6415061 L83.7384186,25.6415061 L80.9792496,31.5392271 L76.4209065,31.5392271 L87.9976612,6.56318795 L88.1171708,6.56318795 L99.6945787,31.5392271 L95.0154199,31.5392271 L92.3764135,25.6415061 Z" id="Fill-1" fill="#00005A"></path>
                            <g id="Group-79">
                                <path d="M109.439369,10.6233195 L109.439369,16.9721366 L113.636731,16.9721366 C115.375078,16.9721366 116.874508,15.5678604 116.874508,13.7973957 C116.874508,12.0269311 115.495189,10.6233195 113.756189,10.6233195 L109.439369,10.6233195 Z M117.3543,31.1338599 L109.439369,20.7569699 L109.439369,31.1338599 L105.12255,31.1338599 L105.12255,6.53343985 L113.756189,6.53343985 C117.893494,6.53343985 121.191328,9.58523174 121.191328,13.7369181 C121.191328,17.8872754 118.193119,20.207355 114.535606,20.634021 L122.810217,31.1338599 L117.3543,31.1338599 Z" id="Fill-2" fill="#00005A"></path>
                                <path d="M280.363551,10.6233195 L280.363551,16.9721366 L284.560912,16.9721366 C286.299912,16.9721366 287.79869,15.5678604 287.79869,13.7973957 C287.79869,12.0269311 286.419371,10.6233195 284.680371,10.6233195 L280.363551,10.6233195 Z M288.278482,31.1338599 L280.363551,20.7569699 L280.363551,31.1338599 L276.046732,31.1338599 L276.046732,6.53343985 L284.680371,6.53343985 C288.817676,6.53343985 292.11551,9.58523174 292.11551,13.7369181 C292.11551,17.8872754 289.117301,20.207355 285.46044,20.634021 L293.734399,31.1338599 L288.278482,31.1338599 Z" id="Fill-4" fill="#00005A"></path>
                                <path d="M141.559039,23.9306474 C141.559039,22.1601828 140.000206,20.7565712 138.261206,20.7565712 L134.603692,20.7565712 L134.603692,26.9831039 L138.261206,26.9831039 C140.000206,26.9831039 141.559039,25.7622542 141.559039,23.9306474 L141.559039,23.9306474 Z M134.603692,10.6235853 L134.603692,16.6666915 L138.261206,16.6666915 C140.000206,16.6666915 141.259414,15.506984 141.259414,13.6753772 C141.259414,11.9049126 140.000206,10.6235853 138.261206,10.6235853 L134.603692,10.6235853 Z M146.056025,23.9306474 C146.056025,28.0205271 142.818247,31.1341257 138.261206,31.1341257 L130.346928,31.1341257 L130.346928,6.53304109 L138.261206,6.53304109 C142.398511,6.53304109 145.576233,9.58549758 145.576233,13.7365194 C145.576233,15.8731725 144.796817,17.5824949 143.298039,18.7422024 C144.976331,19.7796256 146.056025,21.7939943 146.056025,23.9306474 L146.056025,23.9306474 Z" id="Fill-6" fill="#00005A"></path>
                                <polygon id="Fill-8" fill="#00005A" points="159.108774 10.745338 159.108774 16.8495864 167.922579 16.8495864 167.922579 20.939466 159.108774 20.939466 159.108774 27.0437144 168.222204 27.0437144 168.222204 31.1342586 154.85201 31.1342586 154.85201 6.53317401 168.222204 6.53317401 168.222204 10.6230537 159.108774 10.6230537"></polygon>
                                <polygon id="Fill-10" fill="#00005A" points="181.653237 10.6233195 175.477307 10.6233195 175.477307 6.53343985 192.145987 6.53343985 192.145987 10.6233195 185.970057 10.6233195 185.970057 31.1338599 181.653237 31.1338599"></polygon>
                                <polygon id="Fill-12" fill="#00005A" points="226.160997 10.6843287 226.160997 16.7885771 235.154317 16.7885771 235.154317 20.8784568 226.160997 20.8784568 226.160997 31.1343916 222.023692 31.1343916 222.023692 6.53330693 235.394539 6.53330693 235.394539 10.6231866"></polygon>
                                <path d="M260.457028,2.62652151 C260.457028,1.2229099 261.656833,0.123679981 262.975444,0.123679981 C264.294708,0.123679981 265.493861,1.2229099 265.493861,2.62652151 C265.493861,4.0307977 264.294708,5.12936303 262.975444,5.12936303 C261.656833,5.12936303 260.457028,4.09193987 260.457028,2.62652151 M264.174597,18.8032782 C264.174597,13.8587373 260.457028,10.1350461 255.601014,10.1350461 C250.744347,10.1350461 247.026778,13.9198795 247.026778,18.8032782 C247.026778,23.747819 250.744347,27.4715102 255.601014,27.4715102 C260.396972,27.5326524 264.174597,23.747819 264.174597,18.8032782 M245.767569,2.68766368 C245.767569,1.28338749 246.966722,0.184822153 248.285333,0.184822153 C249.604597,0.184822153 250.80375,1.28338749 250.80375,2.68766368 C250.80375,4.09193987 249.604597,5.1905052 248.285333,5.1905052 C246.966722,5.1905052 245.767569,4.09193987 245.767569,2.68766368 M242.649903,18.8032782 C242.649903,11.660942 248.405444,5.98402426 255.601014,5.98402426 C262.735875,5.98402426 268.551472,11.660942 268.551472,18.8032782 C268.551472,25.9449497 262.795931,31.6225321 255.601014,31.6225321 C248.405444,31.6225321 242.649903,25.9449497 242.649903,18.8032782" id="Fill-14" fill="#00005A"></path>
                                <polygon id="Fill-16" fill="#00005A" points="326.274131 5.98382489 326.274131 31.1338599 321.957311 31.1338599 321.957311 15.1405298 313.802811 22.4044856 305.588256 15.0793876 305.588256 31.1338599 301.270783 31.1338599 301.270783 5.98382489 301.330839 5.98382489 313.742756 16.78871 326.093964 5.98382489"></polygon>
                                <polygon id="Fill-18" fill="#00005A" points="340.124574 10.745338 340.124574 16.8495864 348.938379 16.8495864 348.938379 20.939466 340.124574 20.939466 340.124574 27.0437144 349.238004 27.0437144 349.238004 31.1342586 335.86781 31.1342586 335.86781 6.53317401 349.238004 6.53317401 349.238004 10.6230537 340.124574 10.6230537"></polygon>
                                <path d="M373.485108,18.8641545 C373.485108,13.9807558 370.067817,10.6843952 364.970928,10.6843952 L362.812192,10.6843952 L362.812192,26.9827716 L364.970928,26.9827716 C370.067817,26.9827716 373.485108,23.686411 373.485108,18.8641545 M377.861983,18.8641545 C377.861983,26.0669682 372.406067,31.1337934 364.970928,31.1337934 L358.555428,31.1337934 L358.555428,6.53337339 L364.970928,6.53337339 C372.406067,6.53337339 377.861983,11.6001986 377.861983,18.8641545" id="Fill-20" fill="#00005A"></path>
                                <polygon id="Fill-22" fill="#00005A" points="398.547597 27.0439802 398.547597 31.1338599 385.177403 31.1338599 385.177403 6.53343985 389.494222 6.53343985 389.494222 27.0439802"></polygon>
                                <polygon id="Clip-25" points="0.000326388884 63.9287931 516.726812 63.9287931 516.726812 -2.21528222e-15 0.000326388884 -2.21528222e-15"></polygon>
                                <polygon id="Fill-24" fill="#00005A" points="406.162576 31.1339928 410.479396 31.1339928 410.479396 6.53290818 406.162576 6.53290818"></polygon>
                                <polygon id="Fill-26" fill="#00005A" points="439.739507 6.53324047 439.739507 31.6221333 439.679451 31.6221333 424.330687 16.117276 424.330687 31.1343251 420.012562 31.1343251 420.012562 6.04476768 420.073271 6.04476768 435.422687 21.4891474 435.422687 6.53324047"></polygon>
                                <polygon id="Fill-27" fill="#00005A" points="516.726486 6.53324047 516.726486 31.6221333 516.666431 31.6221333 501.317667 16.117276 501.317667 31.1343251 497.000194 31.1343251 497.000194 6.04476768 497.06025 6.04476768 512.469722 21.4891474 512.469722 6.53324047"></polygon>
                                <path d="M465.886978,31.1340593 L459.950617,31.1340593 C452.456075,31.1340593 447.059561,26.0060919 447.059561,18.8644203 C447.059561,11.660942 452.516131,6.53297463 459.950617,6.53297463 L464.087922,6.53297463 L464.087922,10.6235189 L459.950617,10.6235189 C454.855033,10.6235189 451.436436,13.9198795 451.436436,18.8032782 C451.436436,23.6866769 454.855033,26.9830374 459.950617,26.9830374 L461.630214,26.9830374 L461.630214,20.8787891 L457.972047,20.8787891 L457.972047,16.7889094 L465.886978,16.7889094 L465.886978,31.1340593 Z" id="Fill-28" fill="#00005A"></path>
                                <polygon id="Fill-29" fill="#00005A" points="479.173943 10.745338 479.173943 16.8495864 487.988401 16.8495864 487.988401 20.939466 479.173943 20.939466 479.173943 27.0437144 488.288026 27.0437144 488.288026 31.1342586 474.917179 31.1342586 474.917179 6.53317401 488.288026 6.53317401 488.288026 10.6230537 479.173943 10.6230537"></polygon>
                                <path d="M198.861308,26.9726034 L206.476614,26.9726034 C208.214961,26.9726034 209.593628,25.5038621 209.593628,23.7294099 C209.593628,21.9549578 208.214961,20.5473586 206.476614,20.5473586 L205.396919,20.4862164 C201.020044,20.4862164 198.141947,18.1608201 198.141947,13.5705051 C198.141947,8.91971249 201.499836,6.53317401 205.577086,6.53317401 L212.531781,6.53317401 L212.531781,10.6336871 L205.577086,10.6336871 C203.838086,10.6336871 202.458767,11.7349108 202.458767,13.5705051 C202.458767,15.3456219 203.838086,16.263419 205.577086,16.263419 L206.656128,16.3245612 C211.212517,16.3245612 213.9111,18.833384 213.9111,23.7294099 C213.9111,28.3190604 210.553211,31.1342586 206.476614,31.1342586 L198.861308,31.1342586 L198.861308,26.9726034 Z" id="Fill-30" fill="#00005A"></path>
                                <polygon id="Fill-31" fill="#00005A" points="108.636779 46.7139487 101.531293 62.267321 101.47189 62.267321 98.3333347 55.394808 95.1954319 62.267321 88.0892931 46.7139487 90.5176264 46.7139487 95.1954319 57.0828636 97.1491958 52.8029115 94.3664042 46.7139487 96.7940847 46.7139487 98.3333347 50.1498729 99.8732375 46.7139487 102.241515 46.7139487 99.4587236 52.7424339 101.412487 57.0828636 106.090293 46.7139487"></polygon>
                                <polygon id="Fill-32" fill="#00005A" points="113.981724 48.7625438 113.981724 53.163451 119.725515 53.163451 119.725515 55.3333335 113.981724 55.3333335 113.981724 59.7342407 119.843668 59.7342407 119.843668 61.9041232 111.731599 61.9041232 111.731599 46.7129518 119.843668 46.7129518 119.843668 48.8834989 113.981724 48.8834989"></polygon>
                                <path d="M134.449897,54.3086704 C134.449897,51.0535144 132.140369,48.8231543 128.765508,48.8231543 L127.225606,48.8231543 L127.225606,59.7343736 L128.765508,59.7343736 C132.140369,59.7941866 134.449897,57.5638265 134.449897,54.3086704 M136.700022,54.3086704 C136.700022,58.7693906 133.324508,61.9042561 128.706106,61.9042561 L124.916731,61.9042561 L124.916731,46.7130847 L128.706106,46.7130847 C133.324508,46.7130847 136.700022,49.8479502 136.700022,54.3086704" id="Fill-33" fill="#00005A"></path>
                                <polygon id="Fill-34" fill="#00005A" points="140.825382 61.9044555 143.075507 61.9044555 143.075507 46.7132841 140.825382 46.7132841"></polygon>
                                <polygon id="Fill-35" fill="#00005A" points="172.997861 46.7129518 172.997861 61.9041232 170.747736 61.9041232 170.747736 55.3938111 163.464042 55.3938111 163.464042 61.9041232 161.214569 61.9041232 161.214569 46.7129518 163.464042 46.7129518 163.464042 53.223264 170.747736 53.223264 170.747736 46.7129518"></polygon>
                                <path d="M194.041654,51.0532485 C194.041654,49.7872068 193.035071,48.8228884 191.791529,48.8228884 L189.304446,48.8228884 L189.304446,53.2836086 L191.791529,53.2836086 C193.035071,53.2836086 194.041654,52.3797678 194.041654,51.0532485 M196.232376,51.0532485 C196.232376,53.585332 194.21921,55.4541557 191.732126,55.4541557 L189.245043,55.4541557 L189.245043,61.9046549 L186.995571,61.9046549 L186.995571,46.7128189 L191.673376,46.7128189 C194.21921,46.7128189 196.232376,48.5816427 196.232376,51.0532485" id="Fill-36" fill="#00005A"></path>
                                <path d="M200.120974,57.2032871 L200.120974,46.7140816 L202.371099,46.7140816 L202.371099,57.2032871 C202.371099,58.7703875 203.555237,60.0969068 205.390849,60.0969068 C207.167057,60.0969068 208.410599,58.7703875 208.410599,57.2032871 L208.410599,46.7140816 L210.660724,46.7140816 L210.660724,57.2032871 C210.660724,60.0969068 208.647557,62.2674539 205.450251,62.2674539 C202.13414,62.2674539 200.120974,60.0370938 200.120974,57.2032871" id="Fill-37" fill="#00005A"></path>
                                <path d="M222.720532,57.5037477 C222.720532,56.237706 221.595796,55.2733876 220.292851,55.2733876 L217.805768,55.2733876 L217.805768,59.7341078 L220.292851,59.7341078 C221.536393,59.7341078 222.720532,58.7697894 222.720532,57.5037477 L222.720532,57.5037477 Z M217.805768,48.8228884 L217.805768,53.1028405 L220.292851,53.1028405 C221.595796,53.1028405 222.483574,52.2588127 222.483574,50.9329579 C222.483574,49.6669162 221.595796,48.8228884 220.292851,48.8228884 L217.805768,48.8228884 Z M224.970657,57.5037477 C224.970657,60.2165993 223.016893,61.9046549 220.292851,61.9046549 L215.615046,61.9046549 L215.615046,46.7128189 L220.292851,46.7128189 C222.779935,46.7128189 224.733699,48.5211651 224.733699,50.9934355 C224.733699,52.3797678 224.141629,53.4643768 223.194449,54.2485916 C224.141629,54.9118513 224.970657,56.1174154 224.970657,57.5037477 L224.970657,57.5037477 Z" id="Fill-38" fill="#00005A"></path>
                                <polygon id="Fill-39" fill="#00005A" points="237.563589 59.7344401 237.563589 61.9043226 229.629075 61.9043226 229.629075 46.7131512 231.8792 46.7131512 231.8792 59.7942531 237.563589 59.7942531"></polygon>
                                <polygon id="Fill-40" fill="#00005A" points="241.511132 61.9044555 243.761257 61.9044555 243.761257 46.7132841 241.511132 46.7132841"></polygon>
                                <path d="M247.867164,54.2788304 C247.867164,49.8353895 251.242025,46.7131512 255.861081,46.7131512 L258.111206,46.7131512 L258.111206,48.8743941 L255.861081,48.8743941 C252.426817,48.8743941 250.176692,51.0363015 250.176692,54.3386434 C250.176692,57.5811723 252.485567,59.7430797 255.861081,59.7430797 L258.111206,59.7430797 L258.111206,61.9043226 L255.861081,61.9043226 C251.242025,61.8445096 247.867164,58.7222713 247.867164,54.2788304" id="Fill-41" fill="#00005A"></path>
                                <polygon id="Fill-42" fill="#00005A" points="273.589742 48.7625438 273.589742 53.163451 279.333533 53.163451 279.333533 55.3333335 273.589742 55.3333335 273.589742 59.7342407 279.451686 59.7342407 279.451686 61.9041232 271.340269 61.9041232 271.340269 46.7129518 279.451686 46.7129518 279.451686 48.8834989 273.590394 48.8834989 273.590394 48.7625438"></polygon>
                                <polygon id="Fill-43" fill="#00005A" points="299.683619 46.4166781 299.683619 61.9095729 297.433494 61.9095729 297.433494 51.0581665 292.162967 55.5195513 286.893092 51.0581665 286.893092 61.9095729 284.702369 61.9095729 284.702369 46.3562005 284.761772 46.3562005 292.222369 52.6864091"></polygon>
                                <path d="M312.177525,50.9931697 C312.177525,49.727128 311.170942,48.7628096 309.9274,48.7628096 L307.440317,48.7628096 L307.440317,53.2235298 L309.9274,53.2235298 C311.229692,53.2235298 312.177525,52.319689 312.177525,50.9931697 M314.426997,50.9931697 C314.426997,53.5252531 312.413831,55.3940769 309.9274,55.3940769 L307.440317,55.3940769 L307.440317,61.9097058 L305.190192,61.9043891 L305.190192,46.7138822 L309.867997,46.7138822 C312.413831,46.7138822 314.426997,48.5215638 314.426997,50.9931697" id="Fill-44" fill="#00005A"></path>
                                <polygon id="Fill-45" fill="#00005A" points="326.09305 59.7344401 326.09305 61.9043226 318.158536 61.9043226 318.158536 46.7131512 320.408008 46.7131512 320.408008 59.7942531 326.09305 59.7942531"></polygon>
                                <path d="M342.179192,54.3112623 C342.179192,50.9956287 339.692108,48.5240228 336.4354,48.5240228 C333.178692,48.5240228 330.691608,51.0561063 330.691608,54.3112623 C330.691608,57.626896 333.178692,60.0985018 336.4354,60.0985018 C339.692108,60.0985018 342.179192,57.626896 342.179192,54.3112623 M328.441483,54.3112623 C328.441483,49.9103551 331.9939,46.3534757 336.4354,46.3534757 C340.876247,46.3534757 344.429317,49.8505421 344.429317,54.3112623 C344.429317,58.7121696 340.876247,62.269049 336.4354,62.269049 C331.9939,62.269049 328.441483,58.7121696 328.441483,54.3112623" id="Fill-46" fill="#00005A"></path>
                                <polygon id="Fill-47" fill="#00005A" points="352.996568 54.5497833 352.996568 61.9041232 350.746443 61.9041232 350.746443 54.5497833 346.18679 46.7129518 348.673874 46.7129518 351.871179 52.198468 355.069137 46.7129518 357.555568 46.7129518"></polygon>
                                <polygon id="Fill-48" fill="#00005A" points="375.892226 46.4166781 375.892226 61.9095729 373.642101 61.9095729 373.642101 51.0581665 368.372226 55.5195513 363.102351 51.0581665 363.102351 61.9095729 360.852226 61.9095729 360.852226 46.3562005 360.911629 46.3562005 368.372226 52.6864091"></polygon>
                                <polygon id="Fill-49" fill="#00005A" points="383.728106 48.7625438 383.728106 53.163451 389.471897 53.163451 389.471897 55.3333335 383.728106 55.3333335 383.728106 59.7342407 389.59005 59.7342407 389.59005 61.9041232 381.477981 61.9041232 381.477981 46.7129518 389.59005 46.7129518 389.59005 48.8834989 383.728106 48.8834989"></polygon>
                                <polygon id="Fill-50" fill="#00005A" points="406.643543 46.7145468 406.643543 62.2074416 406.58414 62.2074416 397.110376 51.7787137 397.110376 61.9063828 394.860251 61.9063828 394.860251 46.3530105 394.919654 46.3530105 404.394071 56.7219254 404.394071 46.7138822"></polygon>
                                <polygon id="Fill-51" fill="#00005A" points="414.203428 48.8832331 410.295247 48.8832331 410.295247 46.712686 420.302331 46.712686 420.302331 48.8832331 416.453553 48.8832331 416.453553 61.904522 414.203428 61.904522"></polygon>
                                <path d="M193.922783,51.0532485 C193.922783,49.7872068 192.9162,48.8228884 191.672658,48.8228884 L189.185575,48.8228884 L189.185575,53.2836086 L191.672658,53.2836086 C192.9162,53.2836086 193.922783,52.3797678 193.922783,51.0532485 M196.113506,51.0532485 C196.113506,53.585332 194.100339,55.4541557 191.613256,55.4541557 L189.126172,55.4541557 L189.126172,61.9046549 L186.8767,61.9046549 L186.8767,46.7128189 L191.554506,46.7128189 C194.100339,46.7128189 196.113506,48.5816427 196.113506,51.0532485" id="Fill-52" fill="#00005A"></path>
                                <path d="M200.002103,57.2032871 L200.002103,46.7140816 L202.252228,46.7140816 L202.252228,57.2032871 C202.252228,58.7703875 203.436367,60.0969068 205.271978,60.0969068 C207.048186,60.0969068 208.291728,58.7703875 208.291728,57.2032871 L208.291728,46.7140816 L210.541853,46.7140816 L210.541853,57.2032871 C210.541853,60.0969068 208.528686,62.2674539 205.331381,62.2674539 C202.015269,62.2674539 200.002103,60.0370938 200.002103,57.2032871" id="Fill-53" fill="#00005A"></path>
                                <path d="M222.601987,57.5037477 C222.601987,56.237706 221.476599,55.2733876 220.174307,55.2733876 L217.687224,55.2733876 L217.687224,59.7341078 L220.174307,59.7341078 C221.417849,59.7341078 222.601987,58.7697894 222.601987,57.5037477 L222.601987,57.5037477 Z M217.687224,48.8228884 L217.687224,53.1028405 L220.174307,53.1028405 C221.476599,53.1028405 222.365029,52.2588127 222.365029,50.9329579 C222.365029,49.6669162 221.476599,48.8228884 220.174307,48.8228884 L217.687224,48.8228884 Z M224.852112,57.5037477 C224.852112,60.2165993 222.897696,61.9046549 220.174307,61.9046549 L215.496501,61.9046549 L215.496501,46.7128189 L220.174307,46.7128189 C222.660737,46.7128189 224.615154,48.5211651 224.615154,50.9934355 C224.615154,52.3797678 224.023085,53.4643768 223.075904,54.2485916 C224.023085,54.9118513 224.852112,56.1174154 224.852112,57.5037477 L224.852112,57.5037477 Z" id="Fill-54" fill="#00005A"></path>
                                <polygon id="Fill-55" fill="#00005A" points="237.444718 59.7344401 237.444718 61.9043226 229.510204 61.9043226 229.510204 46.7131512 231.760329 46.7131512 231.760329 59.7942531 237.444718 59.7942531"></polygon>
                                <polygon id="Fill-56" fill="#00005A" points="241.392326 61.9044555 243.642451 61.9044555 243.642451 46.7132841 241.392326 46.7132841"></polygon>
                                <path d="M247.748228,54.2788304 C247.748228,49.8353895 251.123089,46.7131512 255.742144,46.7131512 L257.992269,46.7131512 L257.992269,48.8743941 L255.742144,48.8743941 C252.307881,48.8743941 250.057756,51.0363015 250.057756,54.3386434 C250.057756,57.5811723 252.367283,59.7430797 255.742144,59.7430797 L257.992269,59.7430797 L257.992269,61.9043226 L255.742144,61.9043226 C251.123089,61.8445096 247.748228,58.7222713 247.748228,54.2788304" id="Fill-57" fill="#00005A"></path>
                                <polygon id="Fill-58" fill="#00005A" points="273.471132 48.7625438 273.471132 53.163451 279.214924 53.163451 279.214924 55.3333335 273.471132 55.3333335 273.471132 59.7342407 279.333076 59.7342407 279.333076 61.9041232 271.221007 61.9041232 271.221007 46.7129518 279.333076 46.7129518 279.333076 48.8834989 273.471132 48.8834989"></polygon>
                                <polygon id="Fill-59" fill="#00005A" points="299.564422 46.4166781 299.564422 61.9095729 297.314297 61.9095729 297.314297 51.0581665 292.044422 55.5195513 286.774547 51.0581665 286.774547 61.9095729 284.583825 61.9095729 284.583825 46.3562005 284.643228 46.3562005 292.103825 52.6864091"></polygon>
                                <path d="M312.058328,50.9931697 C312.058328,49.727128 311.051744,48.7628096 309.808203,48.7628096 L307.321119,48.7628096 L307.321119,53.2235298 L309.808203,53.2235298 C311.111147,53.2235298 312.058328,52.319689 312.058328,50.9931697 M314.308453,50.9931697 C314.308453,53.5252531 312.295286,55.3940769 309.808203,55.3940769 L307.321119,55.3940769 L307.321119,61.9097058 L305.071647,61.9043891 L305.071647,46.7138822 L309.749453,46.7138822 C312.295286,46.7138822 314.308453,48.5215638 314.308453,50.9931697" id="Fill-60" fill="#00005A"></path>
                                <polygon id="Fill-61" fill="#00005A" points="325.973853 59.7344401 325.973853 61.9043226 318.039339 61.9043226 318.039339 46.7131512 320.289464 46.7131512 320.289464 59.7942531 325.973853 59.7942531"></polygon>
                                <path d="M342.059994,54.3112623 C342.059994,50.9956287 339.572911,48.5240228 336.316203,48.5240228 C333.060147,48.5240228 330.572411,51.0561063 330.572411,54.3112623 C330.572411,57.626896 333.060147,60.0985018 336.316203,60.0985018 C339.572911,60.0985018 342.059994,57.626896 342.059994,54.3112623 M328.322939,54.3112623 C328.322939,49.9103551 331.875356,46.3534757 336.316203,46.3534757 C340.757703,46.3534757 344.310119,49.8505421 344.310119,54.3112623 C344.310119,58.7121696 340.757703,62.269049 336.316203,62.269049 C331.875356,62.269049 328.322939,58.7121696 328.322939,54.3112623" id="Fill-62" fill="#00005A"></path>
                                <polygon id="Fill-63" fill="#00005A" points="352.877371 54.5497833 352.877371 61.9041232 350.627899 61.9041232 350.627899 54.5497833 346.068246 46.7129518 348.555329 46.7129518 351.752635 52.198468 354.950593 46.7129518 357.437024 46.7129518"></polygon>
                                <polygon id="Fill-64" fill="#00005A" points="375.773682 46.4166781 375.773682 61.9095729 373.523557 61.9095729 373.523557 51.0581665 368.253029 55.5195513 362.983154 51.0581665 362.983154 61.9095729 360.733682 61.9095729 360.733682 46.3562005 360.792432 46.3562005 368.253029 52.6864091"></polygon>
                                <polygon id="Fill-65" fill="#00005A" points="383.608908 48.7625438 383.608908 53.163451 389.3527 53.163451 389.3527 55.3333335 383.608908 55.3333335 383.608908 59.7342407 389.470853 59.7342407 389.470853 61.9041232 381.359436 61.9041232 381.359436 46.7129518 389.470853 46.7129518 389.470853 48.8834989 383.608908 48.8834989"></polygon>
                                <polygon id="Fill-66" fill="#00005A" points="406.524999 46.7145468 406.524999 62.2074416 406.465596 62.2074416 396.991832 51.7787137 396.991832 61.9063828 394.741054 61.9063828 394.741054 46.3530105 394.800457 46.3530105 404.274874 56.7219254 404.274874 46.7138822"></polygon>
                                <polygon id="Fill-67" fill="#00005A" points="414.084165 48.8832331 410.176637 48.8832331 410.176637 46.712686 420.183721 46.712686 420.183721 48.8832331 416.33429 48.8832331 416.33429 61.904522 414.084165 61.904522"></polygon>
                                <path d="M76.8750278,59.7344401 L81.3752778,59.7344401 C82.6188194,59.7344401 83.6841528,58.7096441 83.6841528,57.4436024 C83.6841528,56.1775607 82.6188194,55.1527647 81.3752778,55.1527647 L80.8419583,55.1527647 C77.7628056,55.1527647 76.3423611,53.4048961 76.3423611,50.9326257 C76.3423611,48.4610198 77.9410139,46.7131512 80.8419583,46.7131512 L85.0465,46.7131512 L85.0465,48.8830337 L80.7832083,48.8830337 C79.5396667,48.8830337 78.5330833,49.6672485 78.5330833,50.9326257 C78.5330833,52.1986674 79.5396667,52.9822176 80.7832083,52.9822176 L81.315875,52.9822176 C84.4544306,52.9822176 85.8755278,54.911519 85.8755278,57.4436024 C85.8755278,59.9152082 84.2174722,61.9043226 81.315875,61.9043226 L76.8750278,61.9043226 L76.8750278,59.7344401 Z" id="Fill-68" fill="#00005A"></path>
                                <path d="M148.029437,59.7344401 L152.529687,59.7344401 C153.773229,59.7344401 154.839215,58.7096441 154.839215,57.4436024 C154.839215,56.1775607 153.773229,55.1527647 152.529687,55.1527647 L151.997021,55.1527647 C148.917868,55.1527647 147.496771,53.4048961 147.496771,50.9326257 C147.496771,48.4610198 149.095424,46.7131512 151.997021,46.7131512 L156.260312,46.7131512 L156.260312,48.8830337 L151.997021,48.8830337 C150.753479,48.8830337 149.746896,49.6672485 149.746896,50.9326257 C149.746896,52.1986674 150.753479,52.9822176 151.997021,52.9822176 L152.529687,52.9822176 C155.668243,52.9822176 157.08934,54.911519 157.08934,57.4436024 C157.08934,59.9152082 155.431285,61.9043226 152.529687,61.9043226 L148.08884,61.9043226 L148.08884,59.7344401 L148.029437,59.7344401 Z" id="Fill-69" fill="#00005A"></path>
                                <path d="M432.051547,59.7344401 L436.55245,59.7344401 C437.795339,59.7344401 438.861325,58.7096441 438.861325,57.4436024 C438.861325,56.1775607 437.795339,55.1527647 436.55245,55.1527647 L436.019131,55.1527647 C432.939978,55.1527647 431.518881,53.4048961 431.518881,50.9326257 C431.518881,48.4610198 433.117533,46.7131512 436.019131,46.7131512 L440.282422,46.7131512 L440.282422,48.8830337 L436.019131,48.8830337 C434.775589,48.8830337 433.769006,49.6672485 433.769006,50.9326257 C433.769006,52.1986674 434.775589,52.9822176 436.019131,52.9822176 L436.55245,52.9822176 C439.690353,52.9822176 441.11145,54.911519 441.11145,57.4436024 C441.11145,59.9152082 439.453394,61.9043226 436.55245,61.9043226 L432.11095,61.9043226 L432.051547,59.7344401 Z" id="Fill-70" fill="#00005A"></path>
                                <polygon id="Fill-71" fill="#00005A" points="447.920249 48.7625438 447.920249 53.163451 453.66404 53.163451 453.66404 55.3333335 447.920249 55.3333335 447.920249 59.7342407 453.782193 59.7342407 453.782193 61.9041232 445.670124 61.9041232 445.670124 46.7129518 453.782193 46.7129518 453.782193 48.8834989 447.920249 48.8834989"></polygon>
                                <path d="M461.045325,48.8754574 L461.045325,53.2584207 L463.709964,53.2584207 C465.012908,53.2584207 465.960089,52.3579029 465.960089,51.0367003 C465.960089,49.7759753 464.953506,48.8754574 463.709964,48.8754574 L461.045325,48.8754574 Z M466.255797,61.8442438 L461.045325,55.179747 L461.045325,61.9093735 L458.795853,61.9093735 L458.795853,46.7142145 L463.709964,46.7142145 C466.197047,46.7142145 468.210867,48.5750632 468.210867,51.0367003 C468.210867,53.4990019 466.255797,55.179747 463.769367,55.3000376 L468.979839,61.9040568 L466.255797,61.9040568 L466.255797,61.8442438 Z" id="Fill-72" fill="#00005A"></path>
                                <polygon id="Fill-73" fill="#00005A" points="484.474564 46.7139487 477.368425 62.1457013 477.309022 62.1457013 470.204189 46.7139487 472.631217 46.7139487 477.309022 57.0017837 481.986828 46.7139487"></polygon>
                                <polygon id="Fill-74" fill="#00005A" points="487.65209 61.9044555 489.901562 61.9044555 489.901562 46.7132841 487.65209 46.7132841"></polygon>
                                <path d="M494.027771,54.2788304 C494.027771,49.8353895 497.402632,46.7131512 502.021035,46.7131512 L504.27116,46.7131512 L504.27116,48.8743941 L502.021035,48.8743941 C498.586771,48.8743941 496.336646,51.0363015 496.336646,54.3386434 C496.336646,57.5811723 498.646174,59.7430797 502.021035,59.7430797 L504.27116,59.7430797 L504.27116,61.9043226 L502.021035,61.9043226 C497.402632,61.8445096 494.027771,58.7222713 494.027771,54.2788304" id="Fill-75" fill="#00005A"></path>
                                <polygon id="Fill-76" fill="#00005A" points="510.76545 48.7625438 510.76545 53.163451 516.509242 53.163451 516.509242 55.3333335 510.76545 55.3333335 510.76545 59.7342407 516.627394 59.7342407 516.627394 61.9041232 508.515325 61.9041232 508.515325 46.7129518 516.627394 46.7129518 516.627394 48.8834989 510.76545 48.8834989"></polygon>
                                <g id="Group" transform="translate(0.000000, 0.000266)">
                                    <g id="Group-3" transform="translate(0.000000, -0.000000)">
                                        <mask id="mask-6" fill="white">
                                            <use xlink:href="#path-5"></use>
                                        </mask>
                                        <use id="Combined-Shape" fill="#7EC13D" xlink:href="#path-5"></use>
                                        <g id="Group" mask="url(#mask-6)" fill="#95C23E">
                                            <g id="colors/6/blue">
                                                <rect id="Rectangle" x="0" y="0" width="62.8991098" height="64.4651163"></rect>
                                            </g>
                                        </g>
                                    </g>
                                </g>
                            </g>
                        </g>
                    </g>
                </g>
                <text id="Frizon" font-family="OpenSans-Semibold, Open Sans" font-size="14" font-weight="500" fill="#00005A">
                    <tspan x="50.7392578" y="43">Frizon</tspan>
                </text>
                <text id="Frizon" font-family="OpenSans-Semibold, Open Sans" font-size="14" font-weight="500" fill="#00005A">
                    <tspan x="571.739258" y="183">Frizon</tspan>
                </text>
                <g id="Group-6" transform="translate(28.000000, 12.000000)" stroke="#00005A">
                    <rect id="Rectangle" x="12.5" y="13.5" width="60" height="25"></rect>
                    <line x1="41.5" y1="51.5" x2="41.5" y2="39.5" id="Line-8" stroke-linecap="square"></line>
                    <line x1="41.5" y1="12.5" x2="41.5" y2="0.5" id="Line-8" stroke-linecap="square"></line>
                    <line x1="73.5" y1="25.5" x2="84.5" y2="25.5" id="Line-5" stroke-linecap="square"></line>
                    <line x1="0.5" y1="25.5" x2="11.5" y2="25.5" id="Line-5" stroke-linecap="square"></line>
                </g>
                <g id="Group-6" transform="translate(549.000000, 152.000000)" stroke="#00005A">
                    <rect id="Rectangle" x="12.5" y="13.5" width="60" height="25"></rect>
                    <line x1="41.5" y1="51.5" x2="41.5" y2="39.5" id="Line-8" stroke-linecap="square"></line>
                    <line x1="41.5" y1="12.5" x2="41.5" y2="0.5" id="Line-8" stroke-linecap="square"></line>
                    <line x1="73.5" y1="25.5" x2="84.5" y2="25.5" id="Line-5" stroke-linecap="square"></line>
                    <line x1="0.5" y1="25.5" x2="11.5" y2="25.5" id="Line-5" stroke-linecap="square"></line>
                </g>
            </g>
        </g>
    </g>
</svg>