<?xml version="1.0" encoding="UTF-8"?>
<svg width="925px" height="258px" viewBox="0 0 925 258" version="1.1" xmlns="http://www.w3.org/2000/svg" xmlns:xlink="http://www.w3.org/1999/xlink">
    <title>logo-secondary</title>
    <defs>
        <path d="M29.3352433,0 C60.6336036,0 86.0066421,25.708595 86.0066421,57.4229088 C86.0066421,68.5167681 82.8933527,78.8698217 77.5156894,87.6501443 L77.5156894,87.6501443 L66.0724176,79.9997097 C70.0211332,73.4172013 72.2953992,65.6893147 72.2953992,57.4229088 C72.2953992,33.3818097 53.0617097,13.8930654 29.3352433,13.8930654 L29.3352433,13.8930654 Z M29.3352433,27.698929 C45.5365782,27.698929 58.6704867,41.0070041 58.6704867,57.422271 C58.6704867,73.838449 45.5365782,87.1465241 29.3352433,87.1465241 C13.1339085,87.1465241 3.18323146e-12,73.838449 3.18323146e-12,57.422271 C3.18323146e-12,41.0070041 13.1339085,27.698929 29.3352433,27.698929 Z M29.3352433,41.5437009 C20.6797234,41.5437009 13.6644806,48.6528828 13.6644806,57.422271 C13.6644806,66.1925704 20.6797234,73.3017523 29.3352433,73.3017523 C37.9907633,73.3017523 45.006006,66.1925704 45.006006,57.422271 C45.006006,48.6528828 37.9907633,41.5437009 29.3352433,41.5437009 Z" id="path-1"></path>
    </defs>
    <g id="Page-1" stroke="none" stroke-width="1" fill="none" fill-rule="evenodd">
        <g id="Grafisk-manual---logotyp" transform="translate(-675.000000, -1152.000000)">
            <g id="logo-secondary" transform="translate(675.487688, 1152.669568)">
                <rect id="Rectangle" fill="#00005A" x="0" y="0" width="923" height="257"></rect>
                <g id="Logotypes/Arbetsförmedlingen/Secondary" transform="translate(85.333595, 61.438664)">
                    <g id="Symbol">
                        <mask id="mask-2" fill="white">
                            <use xlink:href="#path-1"></use>
                        </mask>
                        <use id="Main-Symbol" fill="#95C23E" xlink:href="#path-1"></use>
                    </g>
                    <g id="Ordbild" transform="translate(107.362885, 0.000000)" fill="#FFFFFF">
                        <path d="M370.628927,63.5830521 C377.014677,63.5830521 382.123277,68.4870641 382.123277,74.743907 C382.123277,80.916198 377.014677,85.9047619 370.628927,85.9047619 C364.243177,85.9047619 359.134577,80.916198 359.134577,74.743907 C359.134577,68.571616 364.243177,63.5830521 370.628927,63.5830521 Z M564.329157,64.0903637 L571.056331,78.6332958 L577.782655,64.0903637 L581.357823,64.0903637 L571.140623,85.9047619 L571.056331,85.9047619 L560.839132,64.0903637 L564.329157,64.0903637 Z M21.1155465,64.0903637 L27.8418697,78.6332958 L30.6515997,72.6301087 L26.6498631,64.0903637 L30.1407397,64.0903637 L32.3544664,68.9098238 L34.568193,64.0903637 L37.9739263,64.0903637 L33.9721897,72.5455568 L36.7819197,78.6332958 L43.5082429,64.0903637 L47.1694062,64.0903637 L36.9522063,85.9047619 L36.867063,85.9047619 L32.3544664,76.2658418 L27.8418697,85.9047619 L17.6246698,64.0903637 L21.1155465,64.0903637 Z M180.418722,64.0903637 L180.418722,78.8023997 C180.418722,81.0007499 182.121588,82.8608924 184.761032,82.8608924 C187.315332,82.8608924 189.103342,81.0007499 189.103342,78.8023997 L189.103342,64.0903637 L192.338788,64.0903637 L192.338788,78.8023997 C192.338788,82.8608924 189.443915,85.9047619 184.846175,85.9047619 C180.078148,85.9047619 177.183275,82.7763405 177.183275,78.8023997 L177.183275,64.0903637 L180.418722,64.0903637 Z M454.154536,63.5830521 L467.777469,78.1259843 L467.777469,64.0058118 L471.012916,64.0903637 L471.012916,85.82021 L470.927772,85.82021 L457.304839,71.1927259 L457.304839,85.3974503 L454.069393,85.3974503 L454.069393,63.5830521 L454.154536,63.5830521 Z M627.336074,64.2594676 L627.336074,67.3033371 L618.906884,67.3033371 L618.906884,73.3065242 L627.165788,73.3065242 L627.165788,76.3503937 L618.906884,76.3503937 L618.906884,82.5226847 L627.336074,82.5226847 L627.336074,85.5665542 L615.671438,85.5665542 L615.671438,64.2594676 L627.336074,64.2594676 Z M537.169285,64.2594676 L537.169285,67.3033371 L528.740095,67.3033371 L528.740095,73.3065242 L536.998998,73.3065242 L536.998998,76.3503937 L528.740095,76.3503937 L528.740095,82.5226847 L537.169285,82.5226847 L537.169285,85.5665542 L525.504649,85.5665542 L525.504649,64.2594676 L537.169285,64.2594676 Z M288.976471,64.2594676 L288.976471,67.3033371 L280.547281,67.3033371 L280.547281,73.3065242 L288.806184,73.3065242 L288.806184,76.3503937 L280.547281,76.3503937 L280.547281,82.5226847 L288.976471,82.5226847 L288.976471,85.5665542 L277.311834,85.5665542 L277.311834,64.2594676 L288.976471,64.2594676 Z M446.576779,64.2594676 L446.576779,67.3033371 L438.147589,67.3033371 L438.147589,73.3065242 L446.406493,73.3065242 L446.406493,76.3503937 L438.147589,76.3503937 L438.147589,82.5226847 L446.576779,82.5226847 L446.576779,85.5665542 L434.912143,85.5665542 L434.912143,64.2594676 L446.576779,64.2594676 Z M63.4317828,64.2594676 L63.4317828,67.3033371 L55.0025928,67.3033371 L55.0025928,73.3065242 L63.2614961,73.3065242 L63.2614961,76.3503937 L55.0025928,76.3503937 L55.0025928,82.5226847 L63.4317828,82.5226847 L63.4317828,85.5665542 L51.7671462,85.5665542 L51.7671462,64.2594676 L63.4317828,64.2594676 Z M347.640227,64.1749156 L347.640227,82.5226847 L355.813987,82.5226847 L355.813987,85.4820022 L344.40478,85.4820022 L344.40478,64.1749156 L347.640227,64.1749156 Z M13.3675032,64.1749156 L13.3675032,67.2187852 L7.23718327,67.2187852 C5.44917328,67.2187852 4.00173663,68.3179603 4.00173663,70.0935508 C4.00173663,71.8691414 5.44917328,72.9683165 7.23718327,72.9683165 L8.00347326,72.9683165 C12.5160699,72.9683165 14.5595099,75.6739783 14.5595099,79.2251594 C14.5595099,82.6917885 12.1754966,85.4820022 8.00347326,85.4820022 L1.61772332,85.4820022 L1.61772332,82.4381327 L8.08861659,82.4381327 C9.87662658,82.4381327 11.4092066,81.0007499 11.4092066,79.2251594 C11.4092066,77.4495688 9.87662658,76.012186 8.08861659,76.012186 L7.3223266,76.012186 C2.89487331,76.012186 0.851433326,73.56018 0.851433326,70.0935508 C0.851433326,66.6269216 3.1503033,64.1749156 7.3223266,64.1749156 L13.3675032,64.1749156 Z M332.655,64.0903637 C336.316164,64.0903637 339.211037,66.7114736 339.211037,70.1781027 C339.211037,73.7292838 336.316164,76.3503937 332.740144,76.3503937 L329.164124,76.3503937 L329.164124,85.3974503 L325.928677,85.4820022 L325.928677,64.1749156 L332.655,64.0903637 Z M115.624646,64.1749156 L115.624646,67.2187852 L109.494326,67.2187852 C107.706316,67.2187852 106.258879,68.3179603 106.258879,70.0935508 C106.258879,71.8691414 107.706316,72.9683165 109.494326,72.9683165 L110.260616,72.9683165 C114.773212,72.9683165 116.816652,75.6739783 116.816652,79.2251594 C116.816652,82.6917885 114.432639,85.4820022 110.260616,85.4820022 L103.874866,85.4820022 L103.874866,82.4381327 L110.260616,82.4381327 C112.048626,82.4381327 113.581206,81.0007499 113.581206,79.2251594 C113.581206,77.4495688 112.048626,76.012186 110.260616,76.012186 L109.494326,76.012186 C105.066872,76.012186 103.023432,73.56018 103.023432,70.0935508 C103.023432,66.6269216 105.322302,64.1749156 109.494326,64.1749156 L115.624646,64.1749156 Z M517.500324,64.1749156 L517.500324,67.2187852 L511.370855,67.2187852 C509.582845,67.2187852 508.134557,68.3179603 508.134557,70.0935508 C508.134557,71.8691414 509.582845,72.9683165 511.370855,72.9683165 L512.137145,72.9683165 C516.648891,72.9683165 518.693182,75.6739783 518.693182,79.2251594 C518.693182,82.6917885 516.309169,85.4820022 512.137145,85.4820022 L505.751395,85.4820022 L505.666252,82.4381327 L512.137145,82.4381327 C513.925155,82.4381327 515.457735,81.0007499 515.457735,79.2251594 C515.457735,77.4495688 513.925155,76.012186 512.137145,76.012186 L511.370855,76.012186 C506.943402,76.012186 504.899962,73.56018 504.899962,70.0935508 C504.899962,66.6269216 507.198832,64.1749156 511.370855,64.1749156 L517.500324,64.1749156 Z M260.198024,64.0903637 L260.198024,67.1342332 L256.962578,67.1342332 C252.024264,67.1342332 248.788818,70.1781027 248.788818,74.8284589 C248.788818,79.3942632 252.109408,82.4381327 256.962578,82.4381327 L260.198024,82.4381327 L260.198024,85.4820022 L256.962578,85.4820022 C250.321398,85.3974503 245.468228,81.0007499 245.468228,74.743907 C245.468228,68.4870641 250.321398,64.0903637 256.962578,64.0903637 L260.198024,64.0903637 Z M609.711404,64.0903637 L609.711404,67.1342332 L606.475106,67.1342332 C601.537645,67.1342332 598.302198,70.1781027 598.302198,74.8284589 C598.302198,79.3942632 601.622788,82.4381327 606.475106,82.4381327 L609.711404,82.4381327 L609.711404,85.4820022 L606.475106,85.4820022 C599.834778,85.3974503 594.980757,81.0007499 594.980757,74.743907 C594.980757,68.4870641 599.834778,64.0903637 606.475106,64.0903637 L609.711404,64.0903637 Z M206.132008,64.1749156 C209.708028,64.1749156 212.517758,66.7114736 212.517758,70.1781027 C212.517758,72.1227972 211.666325,73.6447319 210.304031,74.743907 C211.666325,75.6739783 212.858331,77.3650169 212.858331,79.3097113 C212.858331,83.1145482 210.048601,85.4820022 206.132008,85.4820022 L199.405685,85.4820022 L199.405685,64.1749156 L206.132008,64.1749156 Z M222.734958,64.1749156 L222.734958,82.5226847 L230.908718,82.5226847 L230.908718,85.4820022 L219.499511,85.4820022 L219.499511,64.1749156 L222.734958,64.1749156 Z M551.558508,64.0903637 C555.134528,64.0903637 558.029402,66.7114736 558.029402,70.1781027 C558.029402,73.6447319 555.219672,76.012186 551.643652,76.1812898 L559.136265,85.4820022 L555.219672,85.4820022 L555.219672,85.3974503 L547.727058,76.012186 L547.727058,85.3974503 L544.491612,85.3974503 L544.491612,64.0903637 L551.558508,64.0903637 Z M490.595882,64.0903637 L490.595882,67.1342332 L485.061566,67.1342332 L485.061566,85.3974503 L481.826119,85.3974503 L481.826119,67.1342332 L476.206659,67.1342332 L476.206659,64.0903637 L490.595882,64.0903637 Z M96.7228258,64.0903637 L96.7228258,85.3974503 L93.4873792,85.3974503 L93.4873792,64.0903637 L96.7228258,64.0903637 Z M405.282263,63.5830521 L416.010323,72.4610049 L426.822675,63.667604 L426.822675,85.3974503 L423.588079,85.3974503 L423.588079,70.1781027 L416.010323,76.4349456 L408.432566,70.1781027 L408.432566,85.3974503 L405.19712,85.3974503 L405.19712,63.5830521 L405.282263,63.5830521 Z M76.1181393,64.0903637 C82.7593193,64.0903637 87.6124892,68.4870641 87.6124892,74.743907 C87.6124892,81.0007499 82.7593193,85.3974503 76.1181393,85.3974503 L70.668966,85.3974503 L70.668966,64.0903637 L76.1181393,64.0903637 Z M239.763624,64.0903637 L239.763624,85.3974503 L236.528178,85.3974503 L236.528178,64.0903637 L239.763624,64.0903637 Z M165.092922,64.0903637 C168.754085,64.0903637 171.648958,66.7114736 171.648958,70.1781027 C171.648958,73.7292838 168.754085,76.3503937 165.178065,76.3503937 L161.602045,76.3503937 L161.602045,85.3974503 L158.366599,85.3974503 L158.366599,64.0903637 L165.092922,64.0903637 Z M296.554227,63.5830521 L307.282287,72.4610049 L318.010347,63.667604 L318.010347,85.3974503 L314.7749,85.3974503 L314.7749,70.1781027 L307.197144,76.4349456 L299.619387,70.1781027 L299.619387,85.3974503 L296.469084,85.3974503 L296.469084,63.5830521 L296.554227,63.5830521 Z M125.926989,64.0903637 L125.926989,73.2219723 L136.399619,73.2219723 L136.399619,64.0903637 L139.635065,64.0903637 L139.635065,85.3974503 L136.399619,85.3974503 L136.399619,76.2658418 L125.926989,76.2658418 L125.926989,85.3974503 L122.691542,85.3974503 L122.691542,64.0903637 L125.926989,64.0903637 Z M589.106718,64.0903637 L589.106718,85.3974503 L585.871271,85.3974503 L585.871271,64.0903637 L589.106718,64.0903637 Z M387.742736,64.0903637 L392.340476,71.7845894 L396.938216,64.0903637 L400.514236,64.0903637 L393.9582,75.0821147 L393.9582,85.3974503 L390.722753,85.3974503 L390.722753,75.0821147 L384.166717,64.0903637 L387.742736,64.0903637 Z M370.628075,66.6269216 C365.945192,66.6269216 362.370023,70.1781027 362.370023,74.743907 C362.370023,79.3942632 365.945192,82.8608924 370.628075,82.8608924 C375.31181,82.8608924 378.88783,79.3942632 378.88783,74.743907 C378.88783,70.0935508 375.310959,66.6269216 370.628075,66.6269216 Z M206.132008,76.1812898 L202.555988,76.1812898 L202.555988,82.4381327 L206.132008,82.4381327 C207.920018,82.4381327 209.622885,81.0853018 209.622885,79.3097113 C209.622885,77.5341207 208.005161,76.1812898 206.132008,76.1812898 Z M76.2032826,67.0496813 L73.989556,67.0496813 L73.989556,82.3535808 L76.2032826,82.3535808 C81.0564526,82.4381327 84.3770426,79.3097113 84.3770426,74.743907 C84.3770426,70.1781027 81.0564526,67.0496813 76.2032826,67.0496813 Z M332.740144,67.0496813 L329.164124,67.0496813 L329.164124,73.3065242 L332.740144,73.3065242 C334.613297,73.3065242 335.97559,72.0382452 335.97559,70.1781027 C335.97559,68.4025122 334.528154,67.0496813 332.740144,67.0496813 Z M551.557657,67.1342332 L547.726207,67.1342332 L547.726207,73.3065242 L551.557657,73.3065242 C553.431662,73.3065242 554.793955,72.0382452 554.793955,70.1781027 C554.793955,68.4025122 553.346518,67.1342332 551.557657,67.1342332 Z M165.263209,67.0496813 L161.687189,67.0496813 L161.687189,73.3065242 L165.263209,73.3065242 C167.051218,73.3065242 168.498655,72.0382452 168.498655,70.1781027 C168.498655,68.4025122 167.051218,67.0496813 165.263209,67.0496813 Z M206.132008,67.1342332 L202.555988,67.1342332 L202.555988,73.1374203 L206.132008,73.1374203 C208.005161,73.1374203 209.282311,71.9536933 209.282311,70.0935508 C209.282311,68.3179603 208.005161,67.1342332 206.132008,67.1342332 Z M255.685428,8.11698538 C265.817484,8.11698538 274.076388,15.980315 274.076388,25.8728909 C274.076388,35.7654668 265.902628,43.6287964 255.685428,43.6287964 C245.468228,43.6287964 237.294468,35.7654668 237.294468,25.8728909 C237.294468,15.980315 245.468228,8.11698538 255.685428,8.11698538 Z M599.409061,8.20153731 L621.290898,29.5931759 L621.290898,8.87795276 L627.335223,8.87795276 L627.335223,43.6287964 L627.250931,43.6287964 L605.454238,22.1526059 L605.454238,42.952381 L599.323918,42.952381 L599.323918,8.20153731 L599.409061,8.20153731 Z M490.085022,8.20153731 L511.881715,29.5931759 L511.881715,8.87795276 L518.012035,8.87795276 L518.012035,43.6287964 L517.926892,43.6287964 L496.130199,22.1526059 L496.130199,42.952381 L489.999879,42.952381 L489.999879,8.20153731 L490.085022,8.20153731 Z M53.9808728,8.87795276 C59.8557628,8.87795276 64.5386461,13.1055493 64.5386461,18.8550806 C64.5386461,24.6046119 60.2814795,27.8175853 55.0877362,28.4094488 L66.8375161,42.952381 L59.0894728,42.952381 L47.8505529,28.5785527 L47.8505529,42.952381 L41.720233,42.952381 L41.720233,8.87795276 L53.9808728,8.87795276 Z M296.979944,8.87795276 C302.854834,8.87795276 307.537717,13.1055493 307.537717,18.8550806 C307.537717,24.6046119 303.280551,27.8175853 298.086807,28.4094488 L309.836587,42.952381 L302.088544,42.952381 L290.849624,28.5785527 L290.849624,42.952381 L284.719304,42.952381 L284.719304,8.87795276 L296.979944,8.87795276 Z M16.6029498,7.86332958 L33.035613,42.952381 L26.3944331,42.952381 L22.6481265,34.6662917 L10.3874866,34.6662917 L6.47089327,42.952381 L0,42.952381 L16.4326632,7.86332958 L16.6029498,7.86332958 Z M476.462089,8.79340082 L476.462089,42.952381 L470.331769,42.952381 L470.331769,8.79340082 L476.462089,8.79340082 Z M194.807945,8.96250469 L194.807945,14.6274841 L184.931318,14.6274841 C182.462162,14.6274841 180.503865,16.1494188 180.503865,18.6859768 C180.503865,21.1379828 182.462162,22.4062617 184.931318,22.4062617 L186.463898,22.4908136 C192.934792,22.4908136 196.766242,25.9574428 196.766242,32.7215973 C196.766242,39.0629921 191.998215,42.952381 186.208468,42.952381 L175.395265,42.952381 L175.395265,37.2028496 L186.208468,37.2028496 C188.677625,37.2028496 190.635922,35.1736033 190.635922,32.7215973 C190.635922,30.2695913 188.677625,28.3248969 186.208468,28.3248969 L184.675888,28.240345 C178.460425,28.240345 174.373545,25.0273716 174.373545,18.6859768 C174.373545,12.26003 179.141572,8.96250469 184.931318,8.96250469 L194.807945,8.96250469 Z M320.90522,8.11698538 L338.52989,23.0826772 L356.069417,8.11698538 L356.324847,8.11698538 L356.324847,42.952381 L350.193675,42.952381 L350.193675,20.799775 L338.615034,30.8614548 L326.950397,20.7152231 L326.950397,42.952381 L320.819226,42.952381 L320.819226,8.11698538 L320.90522,8.11698538 Z M165.859212,8.87795276 L165.859212,14.5429321 L157.089449,14.5429321 L157.089449,42.952381 L150.959129,42.952381 L150.959129,14.5429321 L142.189365,14.5429321 L142.189365,8.87795276 L165.859212,8.87795276 Z M411.8383,8.87795276 C422.396073,8.87795276 430.144116,15.895763 430.144116,25.9574428 C430.144116,35.9345707 422.396073,42.952381 411.8383,42.952381 L402.727963,42.952381 L402.727963,8.87795276 L411.8383,8.87795276 Z M89.0599259,8.87795276 C94.9348158,8.87795276 99.4474124,13.1055493 99.4474124,18.8550806 C99.4474124,21.8143982 98.3405491,24.1818523 96.2119658,25.788339 C98.5959791,27.2257218 100.128559,30.0159355 100.128559,32.9752531 C100.128559,38.6402325 95.5308191,42.952381 89.0599259,42.952381 L77.821006,42.952381 L77.821006,8.87795276 L89.0599259,8.87795276 Z M553.431662,8.87795276 L553.431662,14.5429321 L547.556772,14.5429321 C540.319588,14.5429321 535.466418,19.1087364 535.466418,25.8728909 C535.466418,32.6370454 540.319588,37.2028496 547.556772,37.2028496 L549.940785,37.2028496 L549.940785,28.7476565 L544.74619,28.7476565 L544.74619,23.0826772 L555.985962,23.0826772 L555.985962,42.952381 L547.556772,42.952381 C536.913855,42.952381 529.250955,35.8500187 529.250955,25.9574428 C529.250955,15.980315 536.998998,8.87795276 547.556772,8.87795276 L553.431662,8.87795276 Z M446.661923,8.79340082 L446.661923,37.2028496 L459.518566,37.2028496 L459.518566,42.867829 L440.531603,42.867829 L440.531603,8.79340082 L446.661923,8.79340082 Z M226.992125,8.79340082 L226.992125,14.4583802 L213.880051,14.5429321 L213.880051,22.9981252 L226.651551,22.9981252 L226.651551,28.6631046 L213.880051,28.6631046 L213.880051,42.867829 L208.005161,42.867829 L208.005161,8.79340082 L226.992125,8.79340082 Z M587.233565,8.70884889 L587.233565,14.3738283 L574.291778,14.3738283 L574.291778,22.9981252 L586.807848,22.9981252 L586.807848,28.6631046 L574.291778,28.6631046 L574.291778,37.1182977 L587.233565,37.1182977 L587.233565,42.7832771 L568.246602,42.7832771 L568.246602,8.70884889 L587.233565,8.70884889 Z M388.934743,8.70884889 L388.934743,14.3738283 L375.992957,14.3738283 L375.992957,22.9981252 L388.509026,22.9981252 L388.509026,28.6631046 L375.992957,28.6631046 L375.992957,37.1182977 L388.934743,37.1182977 L388.934743,42.7832771 L369.94778,42.7832771 L369.94778,8.70884889 L388.934743,8.70884889 Z M131.887022,8.70884889 L131.887022,14.3738283 L118.945236,14.3738283 L118.945236,22.9981252 L131.461305,22.9981252 L131.461305,28.6631046 L118.945236,28.6631046 L118.945236,37.1182977 L131.887022,37.1182977 L131.887022,42.7832771 L112.900059,42.7832771 L112.900059,8.70884889 L131.887022,8.70884889 Z M255.685428,13.8665167 C248.788818,13.8665167 243.509931,19.1087364 243.509931,25.8728909 C243.509931,32.7215973 248.788818,37.8792651 255.685428,37.8792651 C262.496894,37.963817 267.860924,32.7215973 267.860924,25.8728909 C267.860924,19.0241845 262.582038,13.8665167 255.685428,13.8665167 Z M89.0599259,28.5785527 L83.8661826,28.5785527 L83.8661826,37.2028496 L89.0599259,37.2028496 C91.5290825,37.2028496 93.7428092,35.511811 93.7428092,32.9752531 C93.7428092,30.5232471 91.5290825,28.5785527 89.0599259,28.5785527 Z M411.8383,14.6274841 L408.77314,14.6274841 L408.77314,37.2028496 L411.8383,37.2028496 C419.075483,37.2028496 423.928653,32.6370454 423.928653,25.9574428 C423.928653,19.1932883 419.075483,14.6274841 411.8383,14.6274841 Z M16.5178065,20.0388076 L12.6863566,29.2549681 L20.2641131,29.2549681 L16.5178065,20.0388076 Z M53.9808728,14.5429321 L47.8505529,14.5429321 L47.8505529,23.336333 L53.8105862,23.336333 C56.2797428,23.336333 58.4083261,21.3916385 58.4083261,18.9396325 C58.4083261,16.4876265 56.4500295,14.5429321 53.9808728,14.5429321 Z M296.979944,14.5429321 L290.849624,14.5429321 L290.849624,23.336333 L296.809657,23.336333 C299.278814,23.336333 301.407397,21.3916385 301.407397,18.9396325 C301.407397,16.4876265 299.449101,14.5429321 296.979944,14.5429321 Z M89.0599259,14.5429321 L83.8661826,14.5429321 L83.8661826,22.9135733 L89.0599259,22.9135733 C91.5290825,22.9135733 93.3170925,21.3070866 93.3170925,18.7705287 C93.3170925,16.3185227 91.5290825,14.5429321 89.0599259,14.5429321 Z M245.297941,0.084551931 C247.171094,0.084551931 248.873961,1.60648669 248.873961,3.5511811 C248.873961,5.49587552 247.171094,7.01781027 245.297941,7.01781027 C243.424788,7.01781027 241.721921,5.49587552 241.721921,3.5511811 C241.721921,1.60648669 243.424788,0.084551931 245.297941,0.084551931 Z M266.158058,0 C268.031211,0 269.734078,1.52193476 269.734078,3.46662917 C269.734078,5.41132358 268.031211,6.93325834 266.158058,6.93325834 C264.284904,6.93325834 262.582038,5.49587552 262.582038,3.46662917 C262.582038,1.52193476 264.284904,0 266.158058,0 Z" id="🟢-COLOR"></path>
                    </g>
                </g>
                <text id="Sekundär" font-family="OpenSans-Semibold, Open Sans" font-size="14" font-weight="500" fill="#FFFFFF">
                    <tspan x="430.681279" y="209.538921">Sekundär</tspan>
                </text>
                <rect id="Rectangle" stroke="#FFFFFF" x="413.666844" y="192.813817" width="95" height="26"></rect>
                <line x1="194.012312" y1="205.830432" x2="413.012312" y2="205.830432" id="Line-7" stroke="#FFFFFF" stroke-linecap="square"></line>
                <line x1="509.012312" y1="205.830432" x2="728.012312" y2="205.830432" id="Line-7" stroke="#FFFFFF" stroke-linecap="square"></line>
            </g>
        </g>
    </g>
</svg>