<?xml version="1.0" encoding="UTF-8"?>
<svg width="624px" height="285px" viewBox="0 0 624 285" version="1.1" xmlns="http://www.w3.org/2000/svg" xmlns:xlink="http://www.w3.org/1999/xlink">
    <title>Group 2</title>
    <g id="Page-1" stroke="none" stroke-width="1" fill="none" fill-rule="evenodd">
        <g id="Grid-designmönstersida-placeholder" transform="translate(-1069.000000, -1022.000000)">
            <g id="Group-2" transform="translate(1069.000000, 1022.000000)">
                <rect id="Rectangle-Copy-4" fill="#E0EDF5" x="0" y="0" width="32" height="285"></rect>
                <rect id="Rectangle-Copy-5" fill="#1616B2" x="32" y="0" width="22" height="285"></rect>
                <rect id="Rectangle-Copy-6" fill="#1616B2" x="86" y="0" width="22" height="285"></rect>
                <rect id="Rectangle-Copy-7" fill="#1616B2" x="140" y="0" width="22" height="285"></rect>
                <rect id="Rectangle-Copy-8" fill="#1616B2" x="193" y="0" width="22" height="285"></rect>
                <rect id="Rectangle-Copy-9" fill="#1616B2" x="247" y="0" width="22" height="285"></rect>
                <rect id="Rectangle-Copy-10" fill="#1616B2" x="301" y="0" width="22" height="285"></rect>
                <rect id="Rectangle-Copy-11" fill="#1616B2" x="355" y="0" width="22" height="285"></rect>
                <rect id="Rectangle-Copy-12" fill="#1616B2" x="408" y="0" width="22" height="285"></rect>
                <rect id="Rectangle-Copy-13" fill="#1616B2" x="462" y="0" width="22" height="285"></rect>
                <rect id="Rectangle-Copy-14" fill="#1616B2" x="516" y="0" width="22" height="285"></rect>
                <rect id="Rectangle-Copy-15" fill="#1616B2" x="570" y="0" width="22" height="285"></rect>
                <rect id="Rectangle-Copy-78" fill="#E0EDF5" x="54" y="0" width="32" height="285"></rect>
                <rect id="Rectangle-Copy-79" fill="#E0EDF5" x="108" y="0" width="32" height="285"></rect>
                <rect id="Rectangle-Copy-80" fill="#E0EDF5" x="161" y="0" width="32" height="285"></rect>
                <rect id="Rectangle-Copy-81" fill="#E0EDF5" x="215" y="0" width="32" height="285"></rect>
                <rect id="Rectangle-Copy-82" fill="#E0EDF5" x="269" y="0" width="32" height="285"></rect>
                <rect id="Rectangle-Copy-83" fill="#E0EDF5" x="323" y="0" width="32" height="285"></rect>
                <rect id="Rectangle-Copy-84" fill="#E0EDF5" x="377" y="0" width="32" height="285"></rect>
                <rect id="Rectangle-Copy-85" fill="#E0EDF5" x="430" y="0" width="32" height="285"></rect>
                <rect id="Rectangle-Copy-86" fill="#E0EDF5" x="484" y="0" width="32" height="285"></rect>
                <rect id="Rectangle-Copy-87" fill="#E0EDF5" x="538" y="0" width="32" height="285"></rect>
                <rect id="Rectangle-Copy-88" fill="#E0EDF5" x="592" y="0" width="32" height="285"></rect>
            </g>
        </g>
    </g>
</svg>