<?xml version="1.0" encoding="UTF-8"?>
<svg width="630px" height="289px" viewBox="0 0 630 289" version="1.1" xmlns="http://www.w3.org/2000/svg" xmlns:xlink="http://www.w3.org/1999/xlink">
    <title>Group 8</title>
    <g id="Page-1" stroke="none" stroke-width="1" fill="none" fill-rule="evenodd">
        <g id="Grid-designmönstersida-placeholder" transform="translate(-1059.000000, -544.000000)">
            <g id="Group-8" transform="translate(1059.000000, 544.000000)">
                <rect id="Rectangle-Copy-19" fill="#FFFFFF" x="0" y="1" width="630" height="288"></rect>
                <g id="Group-3" transform="translate(1.000000, 0.000000)">
                    <rect id="Rectangle-Copy-2" fill="#E0EDF5" x="10" y="0" width="31" height="289"></rect>
                    <rect id="Rectangle-Copy-38" fill="#E0EDF5" x="63" y="0" width="31" height="289"></rect>
                    <rect id="Rectangle-Copy-40" fill="#E0EDF5" x="115" y="0" width="31" height="289"></rect>
                    <rect id="Rectangle-Copy-52" fill="#E0EDF5" x="167" y="0" width="31" height="289"></rect>
                    <rect id="Rectangle-Copy-53" fill="#E0EDF5" x="221" y="0" width="31" height="289"></rect>
                    <rect id="Rectangle-Copy-54" fill="#E0EDF5" x="273" y="0" width="31" height="289"></rect>
                    <rect id="Rectangle-Copy-55" fill="#E0EDF5" x="325" y="0" width="31" height="289"></rect>
                    <rect id="Rectangle-Copy-56" fill="#E0EDF5" x="378" y="0" width="31" height="289"></rect>
                    <rect id="Rectangle-Copy-57" fill="#E0EDF5" x="431" y="0" width="31" height="289"></rect>
                    <rect id="Rectangle-Copy-58" fill="#E0EDF5" x="484" y="0" width="31" height="289"></rect>
                    <rect id="Rectangle-Copy-59" fill="#E0EDF5" x="536" y="0" width="31" height="289"></rect>
                    <rect id="Rectangle-Copy-60" fill="#E0EDF5" x="588" y="0" width="31" height="289"></rect>
                    <rect id="Rectangle-Copy-63" fill="#1616B2" transform="translate(624.500000, 144.500000) scale(-1, 1) translate(-624.500000, -144.500000) " x="620" y="0" width="9" height="289"></rect>
                    <rect id="Rectangle-Copy-89" fill="#1616B2" transform="translate(4.500000, 144.500000) scale(-1, 1) translate(-4.500000, -144.500000) " x="0" y="0" width="9" height="289"></rect>
                </g>
            </g>
        </g>
    </g>
</svg>