{
	"name": "arbetsformedlingen-playground-angular-e2e",
	"$schema": "../../../../node_modules/nx/schemas/project-schema.json",
	"sourceRoot": "apps/arbetsformedlingen/playground/angular-e2e/src",
	"projectType": "application",
	"targets": {
		"e2e": {
			"executor": "@nx/cypress:cypress",
			"options": {
				"cypressConfig": "apps/arbetsformedlingen/playground/angular-e2e/cypress.json",
				"devServerTarget": "arbetsformedlingen-playground-angular:serve:development"
			},
			"configurations": {
				"production": {
					"devServerTarget": "arbetsformedlingen-playground-angular:serve:production"
				}
			}
		},
		"lint": {
			"executor": "@nx/linter:eslint",
			"outputs": ["{options.outputFile}"],
			"options": {
				"lintFilePatterns": [
					"apps/arbetsformedlingen/playground/angular-e2e/**/*.{js,ts}"
				]
			}
		}
	},
	"tags": [],
	"implicitDependencies": ["arbetsformedlingen-playground-angular"]
}
