{
	"name": "skolverket-playground-react",
	"$schema": "../../../../node_modules/nx/schemas/project-schema.json",
	"sourceRoot": "apps/skolverket/playground/react/src",
	"projectType": "application",
	"targets": {
		"build": {
			"executor": "@nx/webpack:webpack",
			"outputs": ["{options.outputPath}"],
			"defaultConfiguration": "production",
			"options": {
				"compiler": "babel",
				"outputPath": "dist/apps/skolverket/playground/react",
				"index": "apps/skolverket/playground/react/src/index.html",
				"baseHref": "/",
				"main": "apps/skolverket/playground/react/src/main.tsx",
				"polyfills": "apps/skolverket/playground/react/src/polyfills.ts",
				"tsConfig": "apps/skolverket/playground/react/tsconfig.app.json",
				"assets": [
					"apps/skolverket/playground/react/src/favicon.ico",
					"apps/skolverket/playground/react/src/assets"
				],
				"styles": ["apps/skolverket/playground/react/src/styles.scss"],
				"scripts": [],
				"webpackConfig": "@nx/react/plugins/webpack"
			},
			"configurations": {
				"production": {
					"fileReplacements": [
						{
							"replace": "apps/skolverket/playground/react/src/environments/environment.ts",
							"with": "apps/skolverket/playground/react/src/environments/environment.prod.ts"
						}
					],
					"optimization": true,
					"outputHashing": "all",
					"sourceMap": false,
					"namedChunks": false,
					"extractLicenses": true,
					"vendorChunk": false
				},
				"development": {
					"extractLicenses": false,
					"optimization": false,
					"sourceMap": true,
					"vendorChunk": true
				}
			}
		},
		"serve": {
			"executor": "@nx/webpack:dev-server",
			"options": {
				"buildTarget": "skolverket-playground-react:build",
				"hmr": true
			},
			"configurations": {
				"production": {
					"buildTarget": "skolverket-playground-react:build:production",
					"hmr": false
				},
				"development": {
					"buildTarget": "skolverket-playground-react:build:development"
				}
			},
			"defaultConfiguration": "development"
		},
		"lint": {
			"executor": "@nx/linter:eslint",
			"outputs": ["{options.outputFile}"],
			"options": {
				"lintFilePatterns": [
					"apps/skolverket/playground/react/**/*.{ts,tsx,js,jsx}"
				]
			}
		},
		"test": {
			"executor": "@nx/jest:jest",
			"outputs": ["{workspaceRoot}/coverage/apps/skolverket/playground/react"],
			"options": {
				"jestConfig": "apps/skolverket/playground/react/jest.config.ts",
				"passWithNoTests": true
			}
		}
	},
	"tags": []
}
