{
 "@animation-duration-base": ".3s",
 "@animation-duration-small": ".2s",
 "@animation-duration-large": ".5s",
 "@animation-duration-reduced": ".01s",
 "@animation-duration-sweep": "4s",
 "@animation-rotation-45": "0deg",
 "@animation-rotation-90": "45deg",
 "@animation-rotation-135": "90deg",
 "@animation-rotation-180": "135deg",
 "@animation-rotation-225": "180deg",
 "@animation-rotation-270": "225deg",
 "@animation-rotation-315": "270deg",
 "@animation-rotation-360": "315deg",
 "@global-animation-duration-base": ".3s",
 "@global-animation-duration-short": ".2s",
 "@global-animation-duration-shorter": ".1s",
 "@global-animation-duration-shortest": ".01s",
 "@global-animation-duration-long": ".4s",
 "@global-animation-duration-longer": ".5s",
 "@global-animation-duration-longest": "4s",
 "@global-animation-rotation-smallest-2": "0deg",
 "@global-animation-rotation-smallest": "45deg",
 "@global-animation-rotation-smaller": "90deg",
 "@global-animation-rotation-small": "135deg",
 "@global-animation-rotation-base": "180deg",
 "@global-animation-rotation-large": "225deg",
 "@global-animation-rotation-larger": "270deg",
 "@global-animation-rotation-largest": "315deg",
 "@global-animation-rotation-largest-2": "360deg",
 "@global-border-radius-base": "0.375rem",
 "@global-border-radius-small": "0.25rem",
 "@global-border-radius-smaller": "0.1875rem",
 "@global-border-radius-smallest": "0.125rem",
 "@global-border-radius-smallest-2": "0.0625rem",
 "@global-border-radius-smallest-3": "0rem",
 "@global-border-radius-large": "0.5rem",
 "@global-border-radius-larger": "1rem",
 "@global-border-radius-largest": "2rem",
 "@global-border-radius-largest-2": "4rem",
 "@global-border-width-base": "0.125rem",
 "@global-border-width-small": "0.0625rem",
 "@global-border-width-smaller": "0rem",
 "@global-border-width-large": "0.25rem",
 "@global-border-width-larger": "0.375rem",
 "@global-border-width-largest": "0.5rem",
 "@global-border-width-largest-2": "0.625rem",
 "@global-border-style-solid": "solid",
 "@global-border-style-none": "none",
 "@global-border-style-dashed": "dashed",
 "@global-color-profile-blue-base": "#00005A",
 "@global-color-profile-blue-dark": "#000048",
 "@global-color-profile-blue-light": "#33337B",
 "@global-color-profile-blue-lighter": "#DDDDE9",
 "@global-color-profile-green-base": "#95C23E",
 "@global-color-profile-green-dark": "#779B32",
 "@global-color-profile-green-light": "#AACE65",
 "@global-color-profile-green-lighter": "#DDEBC1",
 "@global-color-profile-green-lightest": "#F1F7E5",
 "@global-color-profile-white-base": "#FFFFFF",
 "@global-color-profile-white-dark": "#FCFCFC",
 "@global-color-profile-white-darker": "#FAFAFA",
 "@global-color-profile-white-darkest": "#F8F8F8",
 "@global-color-profile-white-darkest-2": "#F4F4F4",
 "@global-color-profile-white-darkest-3": "#F1F1F1",
 "@global-color-complementary-turqouise-base": "#058470",
 "@global-color-complementary-turqouise-dark": "#046A5A",
 "@global-color-complementary-turqouise-darker": "#035548",
 "@global-color-complementary-turqouise-darkest": "#02362E",
 "@global-color-complementary-turqouise-light": "#379D8D",
 "@global-color-complementary-turqouise-lighter": "#7FC1B6",
 "@global-color-complementary-turqouise-lightest": "#BDDFDA",
 "@global-color-complementary-turqouise-lightest-2": "#DDEEEC",
 "@global-color-complementary-cerise-base": "#D43372",
 "@global-color-complementary-cerise-dark": "#AA295B",
 "@global-color-complementary-cerise-darker": "#882149",
 "@global-color-complementary-cerise-darkest": "#57162E",
 "@global-color-complementary-cerise-light": "#DD5C8E",
 "@global-color-complementary-cerise-lighter": "#E997B7",
 "@global-color-complementary-cerise-lightest": "#F4CADA",
 "@global-color-complementary-cerise-lightest-2": "#F9E4EC",
 "@global-color-cta-green-base": "#9FD33C",
 "@global-color-cta-green-dark": "#92BE3B",
 "@global-color-cta-green-light": "#B7EE4A",
 "@global-color-cta-green-lighter": "#DAF6A2",
 "@global-color-cta-blue-base": "#F1F8FE",
 "@global-color-cta-blue-dark": "#BDD3E7",
 "@global-color-cta-blue-darker": "#0058A3",
 "@global-color-cta-link-base": "#1616B2",
 "@global-color-cta-hover-base": "#424AE0",
 "@global-color-cta-visited-base": "#822998",
 "@global-color-neutral-grayscale-base": "#D5D5D5",
 "@global-color-neutral-grayscale-dark": "#CACACA",
 "@global-color-neutral-grayscale-darker": "#BDBDBD",
 "@global-color-neutral-grayscale-darkest": "#ACACAC",
 "@global-color-neutral-grayscale-darkest-2": "#979797",
 "@global-color-neutral-grayscale-darkest-3": "#757575",
 "@global-color-neutral-grayscale-darkest-4": "#5C5C5C",
 "@global-color-neutral-grayscale-darkest-5": "#333333",
 "@global-color-neutral-grayscale-darkest-6": "#000000",
 "@global-color-neutral-grayscale-light": "#DDDDDD",
 "@global-color-neutral-grayscale-lighter": "#E4E4E4",
 "@global-color-neutral-grayscale-lightest": "#E9E9E9",
 "@global-color-neutral-grayscale-lightest-2": "#EDEDED",
 "@global-color-neutral-grayscale-lightest-3": "#F1F1F1",
 "@global-color-neutral-grayscale-lightest-4": "#F4F4F4",
 "@global-color-neutral-grayscale-lightest-5": "#F8F8F8",
 "@global-color-neutral-grayscale-lightest-6": "#FFFFFF",
 "@global-color-function-info-base": "#0000FF",
 "@global-color-function-info-dark": "#0058A3",
 "@global-color-function-info-darker": "#0000A3",
 "@global-color-function-info-darkest": "#000082",
 "@global-color-function-info-darkest-2": "#000068",
 "@global-color-function-info-light": "#3333FF",
 "@global-color-function-info-lighter": "#5C5CFF",
 "@global-color-function-info-lightest": "#7D7DFF",
 "@global-color-function-info-lightest-2": "#E9E9FF",
 "@global-color-function-info-lightest-3": "#DDDDFF",
 "@global-color-function-success-base": "#009322",
 "@global-color-function-success-dark": "#02703C",
 "@global-color-function-success-darker": "#005E16",
 "@global-color-function-success-darkest": "#004B12",
 "@global-color-function-success-darkest-2": "#003C0E",
 "@global-color-function-success-light": "#33A94E",
 "@global-color-function-success-lighter": "#5CBA71",
 "@global-color-function-success-lightest": "#7DC88D",
 "@global-color-function-success-lightest-2": "#E9F6EC",
 "@global-color-function-success-lightest-3": "#DDF1E1",
 "@global-color-function-warning-base": "#FFE200",
 "@global-color-function-warning-dark": "#FFC108",
 "@global-color-function-warning-darker": "#A39100",
 "@global-color-function-warning-darkest": "#827400",
 "@global-color-function-warning-darkest-2": "#685B00",
 "@global-color-function-warning-light": "#FFE833",
 "@global-color-function-warning-lighter": "#FFF17D",
 "@global-color-function-warning-lightest": "#FFF6AC",
 "@global-color-function-warning-lightest-2": "#FFFDED",
 "@global-color-function-warning-lightest-3": "#FFFBDD",
 "@global-color-function-danger-base": "#DA0000",
 "@global-color-function-danger-dark": "#C7311A",
 "@global-color-function-danger-darker": "#8B0000",
 "@global-color-function-danger-darkest": "#6F0000",
 "@global-color-function-danger-darkest-2": "#590000",
 "@global-color-function-danger-light": "#E84973",
 "@global-color-function-danger-lighter": "#E75C5C",
 "@global-color-function-danger-lightest": "#F09797",
 "@global-color-function-danger-lightest-2": "#FDEDED",
 "@global-color-function-danger-lightest-3": "#FADDDD",
 "@global-spacing-base": "1rem",
 "@global-spacing-small": "0.875rem",
 "@global-spacing-smaller": "0.75rem",
 "@global-spacing-smallest": "0.625rem",
 "@global-spacing-smallest-2": "0.5rem",
 "@global-spacing-smallest-3": "0.375rem",
 "@global-spacing-smallest-4": "0.25rem",
 "@global-spacing-smallest-5": "0.1875rem",
 "@global-spacing-smallest-6": "0.125rem",
 "@global-spacing-smallest-7": "0.0625rem",
 "@global-spacing-large": "1.125rem",
 "@global-spacing-larger": "1.25rem",
 "@global-spacing-largest": "1.375rem",
 "@global-spacing-largest-2": "1.5rem",
 "@global-spacing-largest-3": "1.75rem",
 "@global-spacing-largest-3-5": "1.875rem",
 "@global-spacing-largest-4": "2rem",
 "@global-spacing-largest-5": "2.5rem",
 "@global-spacing-largest-6": "3rem",
 "@global-spacing-largest-7": "3.5rem",
 "@global-spacing-largest-8": "4rem",
 "@global-spacing-largest-9": "4.5rem",
 "@global-spacing-largest-10": "5rem",
 "@global-breakpoint-smallest-3": "23.375rem",
 "@global-breakpoint-smallest-2": "23.4375rem",
 "@global-breakpoint-smallest": "35.9375rem",
 "@global-breakpoint-smaller": "36rem",
 "@global-breakpoint-small": "47.9375rem",
 "@global-breakpoint-medium": "48rem",
 "@global-breakpoint-large": "61.9375rem",
 "@global-breakpoint-larger": "62rem",
 "@global-breakpoint-largest": "74.9375rem",
 "@global-breakpoint-largest-2": "75rem",
 "@global-breakpoint-largest-3": "87.4375rem",
 "@global-breakpoint-largest-4": "87.5rem",
 "@global-size-smaller": "auto",
 "@global-size-small": "36rem",
 "@global-size-base": "48rem",
 "@global-size-large": "62rem",
 "@global-size-larger": "75rem",
 "@global-size-largest": "87.5rem",
 "@global-text-width-small": "31rem",
 "@global-text-width-base": "35rem",
 "@global-text-width-large": "40rem",
 "@global-text-width-larger": "44rem",
 "@global-text-width-largest": "48rem",
 "@global-text-width-largest-2": "53rem",
 "@global-text-width-largest-3": "61rem",
 "@global-text-width-largest-4": "70rem",
 "@global-typography-line-height-base": "1.5",
 "@global-typography-line-height-small": "1",
 "@global-typography-line-height-large": "2",
 "@global-typography-font-size-base": "1rem",
 "@global-typography-font-size-small": "0.875rem",
 "@global-typography-font-size-smaller": "0.75rem",
 "@global-typography-font-size-large": "1.125rem",
 "@global-typography-font-size-larger": "1.25rem",
 "@global-typography-font-size-largest": "1.375rem",
 "@global-typography-font-size-largest-2": "1.5rem",
 "@global-typography-font-size-largest-3": "1.75rem",
 "@global-typography-font-size-largest-4": "2rem",
 "@global-typography-font-size-largest-5": "2.25rem",
 "@global-typography-font-size-largest-6": "2.5rem",
 "@global-typography-font-size-interaction-small": "0.875rem",
 "@global-typography-font-size-interaction-medium": "1rem",
 "@global-typography-font-size-interaction-large": "1.125rem",
 "@global-typography-font-weight-regular": "400",
 "@global-typography-font-weight-light": "300",
 "@global-typography-font-weight-semibold": "600",
 "@global-typography-font-weight-bold": "700",
 "@global-typography-font-family-default": "\"Open Sans\"",
 "@global-typography-font-family-mono": "Consolas, Monaco, 'Andale Mono', 'Ubuntu Mono', monospace",
 "@global-typography-text-decoration-default": "none",
 "@global-typography-text-decoration-link": "underline",
 "@border-radius-primary": "0rem",
 "@border-radius-secondary": "0.375rem",
 "@border-radius-tertiary": "0.1875rem",
 "@border-radius-complementary-1": "2rem",
 "@border-radius-complementary-2": "4rem",
 "@border-radius-complementary-3": "1rem",
 "@border-radius-button": "0.375rem",
 "@border-radius-input": "0rem",
 "@border-radius-input-search": "0.375rem",
 "@border-width-primary": "0.0625rem",
 "@border-width-secondary": "0.125rem",
 "@border-width-tertiary": "0rem",
 "@border-width-complementary-1": "0.5rem",
 "@border-width-complementary-2": "0.625rem",
 "@border-width-input-regular": "0.0625rem",
 "@border-width-input-validation": "0.125rem",
 "@border-style-primary": "solid",
 "@border-style-secondary": "none",
 "@border-style-complementary": "dashed",
 "@color-text-primary": "#333333",
 "@color-text-secondary": "#00005A",
 "@color-text-inverted": "#FFFFFF",
 "@color-text-link": "#1616B2",
 "@color-text-link-hover": "#424AE0",
 "@color-text-link-visited": "#822998",
 "@color-text-neutral": "#5C5C5C",
 "@color-text-danger": "#DA0000",
 "@color-background-primary": "#FFFFFF",
 "@color-background-secondary": "#F4F4F4",
 "@color-background-tertiary": "#FFFFFF",
 "@color-background-inverted-1": "#00005A",
 "@color-background-inverted-2": "#1616B2",
 "@color-background-inverted-3": "#333333",
 "@color-background-inverted-4": "#B7EE4A",
 "@color-background-inverted-5": "#BDD3E7",
 "@color-background-inverted-6": "#0058A3",
 "@color-background-complementary-1": "#058470",
 "@color-background-complementary-2": "#D43372",
 "@color-background-neutral-1": "#F1F8FE",
 "@color-background-neutral-2": "#9FD33C",
 "@color-background-neutral-3": "#D5D5D5",
 "@color-background-neutral-4": "#5C5C5C",
 "@color-background-neutral-5": "#F1F7E5",
 "@color-background-neutral-6": "#EDEDED",
 "@color-background-neutral-7": "#DDEBC1",
 "@color-background-neutral-8": "#FAFAFA",
 "@color-background-informative": "#0000FF",
 "@color-background-success-1": "#009322",
 "@color-background-success-2": "#DDF1E1",
 "@color-background-success-3": "#7DC88D",
 "@color-background-warning-1": "#FFE200",
 "@color-background-warning-2": "#FFFBDD",
 "@color-background-warning-3": "#FFFDED",
 "@color-background-danger-1": "#DA0000",
 "@color-background-danger-2": "#FADDDD",
 "@color-background-danger-3": "#F09797",
 "@color-background-danger-4": "#C7311A",
 "@color-background-input": "#FFFFFF",
 "@color-background-input-empty": "#FFFFFF",
 "@color-background-radio-primary": "#058470",
 "@color-background-radio-secondary": "#00005A",
 "@color-background-radio-marker": "#FFFFFF",
 "@color-background-checkbox-primary": "#058470",
 "@color-background-checkbox-secondary": "#00005A",
 "@color-background-checkbox-marker": "#FFFFFF",
 "@color-border-primary": "#333333",
 "@color-border-secondary": "#00005A",
 "@color-border-tertiary": "#95C23E",
 "@color-border-success": "#058470",
 "@color-border-warning": "#FFE200",
 "@color-border-danger": "#DA0000",
 "@color-border-informative": "#1616B2",
 "@color-border-inverted": "#FFFFFF",
 "@color-border-inverted-2": "#0058A3",
 "@color-border-inverted-3": "#33337B",
 "@color-border-neutral-1": "#F1F7E5",
 "@color-border-neutral-2": "#DDDDDD",
 "@color-border-neutral-3": "#5C5C5C",
 "@color-border-neutral-4": "#EDEDED",
 "@color-border-neutral-5": "#757575",
 "@color-border-checkbox-primary": "#058470",
 "@color-border-checkbox-secondary": "#333333",
 "@color-border-checkbox-focus": "#1616B2",
 "@color-icons-primary": "#333333",
 "@color-icons-secondary": "#00005A",
 "@color-icons-inverted": "#FFFFFF",
 "@color-icons-complementary-1": "#1616B2",
 "@color-icons-complementary-2": "#424AE0",
 "@color-icons-complementary-3": "#822998",
 "@color-icons-success": "#058470",
 "@color-icons-warning": "#FFE200",
 "@color-icons-danger": "#DA0000",
 "@color-icons-informative": "#0000FF",
 "@padding-medium": "1rem",
 "@padding-smaller": "0.5rem",
 "@padding-small": "0.75rem",
 "@padding-large": "1.5rem",
 "@padding-larger": "1.75rem",
 "@padding-largest": "2rem",
 "@padding-largest-2": "2.5rem",
 "@padding-largest-3": "3rem",
 "@margin-smaller": "0.5rem",
 "@margin-small": "0.625rem",
 "@margin-medium": "1rem",
 "@margin-large": "1.5rem",
 "@margin-larger": "1.75rem",
 "@margin-largest": "2rem",
 "@margin-h1-small": "1rem",
 "@margin-h1-medium": "1.5rem",
 "@margin-h1-large": "2rem",
 "@margin-h2-small": "1rem",
 "@margin-h2-large": "1rem",
 "@margin-h3-small": "0.5rem",
 "@margin-h3-large": "0.5rem",
 "@margin-h4-h6-small": "0.5rem",
 "@margin-h4-h6-large": "0.5rem",
 "@margin-text-small": "1.5rem",
 "@margin-text-large": "1.5rem",
 "@gutter-largest-3": "1.5rem",
 "@gutter-largest-2": "1.25rem",
 "@gutter-largest": "1rem",
 "@gutter-larger": "0.75rem",
 "@gutter-large": "0.625rem",
 "@gutter-medium": "0.5rem",
 "@gutter-small": "0.375rem",
 "@gutter-smaller": "0.25rem",
 "@gutter-smallest": "0.1875rem",
 "@gutter-smallest-2": "0.125rem",
 "@gutter-smallest-3": "0.0625rem",
 "@gutter-button-block-small": "0.375rem",
 "@gutter-button-block-medium": "0.5rem",
 "@gutter-button-block-large": "0.625rem",
 "@gutter-button-inline-small": "0.5rem",
 "@gutter-button-inline-medium": "1rem",
 "@gutter-button-inline-large": "1.5rem",
 "@gutter-icon": "0.625rem",
 "@breakpoint-small-below": "35.9375rem",
 "@breakpoint-small": "36rem",
 "@breakpoint-medium-below": "47.9375rem",
 "@breakpoint-medium": "48rem",
 "@breakpoint-large-below": "61.9375rem",
 "@breakpoint-large": "62rem",
 "@breakpoint-x-large-below": "74.9375rem",
 "@breakpoint-x-large": "75rem",
 "@breakpoint-xx-large-below": "87.4375rem",
 "@breakpoint-xx-large": "87.5rem",
 "@container-width-smaller": "auto",
 "@container-width-small": "36rem",
 "@container-width-base": "48rem",
 "@container-width-medium": "48rem",
 "@container-width-large": "62rem",
 "@container-width-larger": "75rem",
 "@container-width-largest": "87.5rem",
 "@container-gutter-smaller": "1rem",
 "@container-gutter-small": "1.125rem",
 "@container-gutter-base": "1rem",
 "@container-gutter-medium": "1.5rem",
 "@container-gutter-large": "1rem",
 "@container-gutter-larger": "1.875rem",
 "@container-gutter-largest": "2.5rem",
 "@paragraph-width-medium": "35rem",
 "@paragraph-width-large": "40rem",
 "@input-height-small": "2rem",
 "@input-height-medium": "2.5rem",
 "@input-height-large": "3rem",
 "@shadow-input-focus": "0 0 0.125rem #1616B2",
 "@typography-body-font-size-desktop": "1rem",
 "@typography-body-font-size-desktop-large": "1.125rem",
 "@typography-body-font-size-mobile": "1rem",
 "@typography-body-font-weight-desktop": "400",
 "@typography-body-font-weight-desktop-large": "400",
 "@typography-body-font-weight-mobile": "400",
 "@typography-body-line-height-desktop": "1.5",
 "@typography-body-line-height-desktop-large": "1.5",
 "@typography-body-line-height-mobile": "1.5",
 "@typography-body-text-decoration-desktop": "none",
 "@typography-body-text-decoration-desktop-large": "none",
 "@typography-body-text-decoration-mobile": "none",
 "@typography-description-font-size-desktop": "1rem",
 "@typography-description-font-size-desktop-large": "1.125rem",
 "@typography-description-font-size-mobile": "1rem",
 "@typography-description-font-weight-desktop": "600",
 "@typography-description-font-weight-desktop-large": "600",
 "@typography-description-font-weight-mobile": "600",
 "@typography-description-line-height-desktop": "1.5",
 "@typography-description-line-height-desktop-large": "1.5",
 "@typography-description-line-height-mobile": "1.5",
 "@typography-description-text-decoration-desktop": "none",
 "@typography-description-text-decoration-desktop-large": "none",
 "@typography-description-text-decoration-mobile": "none",
 "@typography-heading-1-font-size-desktop": "2rem",
 "@typography-heading-1-font-size-desktop-large": "2.5rem",
 "@typography-heading-1-font-size-mobile": "1.75rem",
 "@typography-heading-1-font-weight-desktop": "600",
 "@typography-heading-1-font-weight-desktop-large": "600",
 "@typography-heading-1-font-weight-mobile": "600",
 "@typography-heading-1-line-height-desktop": "1.5",
 "@typography-heading-1-line-height-desktop-large": "1.5",
 "@typography-heading-1-line-height-mobile": "1.5",
 "@typography-heading-1-text-decoration-desktop": "none",
 "@typography-heading-1-text-decoration-desktop-large": "none",
 "@typography-heading-1-text-decoration-mobile": "none",
 "@typography-heading-2-font-size-desktop": "1.5rem",
 "@typography-heading-2-font-size-desktop-large": "1.75rem",
 "@typography-heading-2-font-size-mobile": "1.375rem",
 "@typography-heading-2-font-weight-desktop": "600",
 "@typography-heading-2-font-weight-desktop-large": "600",
 "@typography-heading-2-font-weight-mobile": "600",
 "@typography-heading-2-line-height-desktop": "1.5",
 "@typography-heading-2-line-height-desktop-large": "1.5",
 "@typography-heading-2-line-height-mobile": "1.5",
 "@typography-heading-2-text-decoration-desktop": "none",
 "@typography-heading-2-text-decoration-desktop-large": "none",
 "@typography-heading-2-text-decoration-mobile": "none",
 "@typography-heading-3-font-size-desktop": "1.25rem",
 "@typography-heading-3-font-size-desktop-large": "1.375rem",
 "@typography-heading-3-font-size-mobile": "1.125rem",
 "@typography-heading-3-font-weight-desktop": "600",
 "@typography-heading-3-font-weight-desktop-large": "600",
 "@typography-heading-3-font-weight-mobile": "600",
 "@typography-heading-3-line-height-desktop": "1.5",
 "@typography-heading-3-line-height-desktop-large": "1.5",
 "@typography-heading-3-line-height-mobile": "1.5",
 "@typography-heading-3-text-decoration-desktop": "none",
 "@typography-heading-3-text-decoration-desktop-large": "none",
 "@typography-heading-3-text-decoration-mobile": "none",
 "@typography-heading-4-font-size-desktop": "1rem",
 "@typography-heading-4-font-size-desktop-large": "1.125rem",
 "@typography-heading-4-font-size-mobile": "1rem",
 "@typography-heading-4-font-weight-desktop": "600",
 "@typography-heading-4-font-weight-desktop-large": "600",
 "@typography-heading-4-font-weight-mobile": "600",
 "@typography-heading-4-line-height-desktop": "1.5",
 "@typography-heading-4-line-height-desktop-large": "1.5",
 "@typography-heading-4-line-height-mobile": "1.5",
 "@typography-heading-4-text-decoration-desktop": "none",
 "@typography-heading-4-text-decoration-desktop-large": "none",
 "@typography-heading-4-text-decoration-mobile": "none",
 "@typography-heading-jumbo-font-size-desktop": "2rem",
 "@typography-heading-jumbo-font-size-desktop-large": "2.5rem",
 "@typography-heading-jumbo-font-size-mobile": "1.75rem",
 "@typography-heading-jumbo-font-weight-desktop": "600",
 "@typography-heading-jumbo-font-weight-desktop-large": "600",
 "@typography-heading-jumbo-font-weight-mobile": "600",
 "@typography-heading-jumbo-line-height-desktop": "1.5",
 "@typography-heading-jumbo-line-height-desktop-large": "1.5",
 "@typography-heading-jumbo-line-height-mobile": "1.5",
 "@typography-heading-jumbo-text-decoration-desktop": "none",
 "@typography-heading-jumbo-text-decoration-desktop-large": "none",
 "@typography-heading-jumbo-text-decoration-mobile": "none",
 "@typography-input-font-size-desktop": "1rem",
 "@typography-input-font-size-desktop-large": "1.125rem",
 "@typography-input-font-size-mobile": "1rem",
 "@typography-input-font-weight-desktop": "400",
 "@typography-input-font-weight-desktop-large": "400",
 "@typography-input-font-weight-mobile": "400",
 "@typography-input-line-height-desktop": "1.5",
 "@typography-input-line-height-desktop-large": "1.5",
 "@typography-input-line-height-mobile": "1.5",
 "@typography-input-text-decoration-desktop": "none",
 "@typography-input-text-decoration-desktop-large": "none",
 "@typography-input-text-decoration-mobile": "none",
 "@typography-label-font-size-desktop": "1rem",
 "@typography-label-font-size-desktop-large": "1.125rem",
 "@typography-label-font-size-mobile": "1rem",
 "@typography-label-font-weight-desktop": "600",
 "@typography-label-font-weight-desktop-large": "600",
 "@typography-label-font-weight-mobile": "600",
 "@typography-label-line-height-desktop": "1.5",
 "@typography-label-line-height-desktop-large": "1.5",
 "@typography-label-line-height-mobile": "1.5",
 "@typography-label-text-decoration-desktop": "none",
 "@typography-label-text-decoration-desktop-large": "none",
 "@typography-label-text-decoration-mobile": "none",
 "@typography-label-description-font-size-desktop": "1rem",
 "@typography-label-description-font-size-desktop-large": "1.125rem",
 "@typography-label-description-font-size-mobile": "1rem",
 "@typography-label-description-font-weight-desktop": "600",
 "@typography-label-description-font-weight-desktop-large": "600",
 "@typography-label-description-font-weight-mobile": "600",
 "@typography-label-description-line-height-desktop": "1.5",
 "@typography-label-description-line-height-desktop-large": "1.5",
 "@typography-label-description-line-height-mobile": "1.5",
 "@typography-label-description-text-decoration-desktop": "none",
 "@typography-label-description-text-decoration-desktop-large": "none",
 "@typography-label-description-text-decoration-mobile": "none",
 "@typography-link-font-size-desktop": "1rem",
 "@typography-link-font-size-desktop-large": "1.125rem",
 "@typography-link-font-size-mobile": "1rem",
 "@typography-link-font-weight-desktop": "400",
 "@typography-link-font-weight-desktop-large": "400",
 "@typography-link-font-weight-mobile": "400",
 "@typography-link-line-height-desktop": "1.5",
 "@typography-link-line-height-desktop-large": "1.5",
 "@typography-link-line-height-mobile": "1.5",
 "@typography-link-text-decoration-desktop": "underline",
 "@typography-link-text-decoration-desktop-large": "underline",
 "@typography-link-text-decoration-mobile": "underline",
 "@typography-link-bold-font-size-desktop": "1rem",
 "@typography-link-bold-font-size-desktop-large": "1.125rem",
 "@typography-link-bold-font-size-mobile": "1rem",
 "@typography-link-bold-font-weight-desktop": "600",
 "@typography-link-bold-font-weight-desktop-large": "600",
 "@typography-link-bold-font-weight-mobile": "600",
 "@typography-link-bold-line-height-desktop": "1.5",
 "@typography-link-bold-line-height-desktop-large": "1.5",
 "@typography-link-bold-line-height-mobile": "1.5",
 "@typography-link-bold-text-decoration-desktop": "underline",
 "@typography-link-bold-text-decoration-desktop-large": "underline",
 "@typography-link-bold-text-decoration-mobile": "underline",
 "@typography-placeholder-font-size-desktop": "1rem",
 "@typography-placeholder-font-size-desktop-large": "1.125rem",
 "@typography-placeholder-font-size-mobile": "1rem",
 "@typography-placeholder-font-weight-desktop": "400",
 "@typography-placeholder-font-weight-desktop-large": "400",
 "@typography-placeholder-font-weight-mobile": "400",
 "@typography-placeholder-line-height-desktop": "1.5",
 "@typography-placeholder-line-height-desktop-large": "1.5",
 "@typography-placeholder-line-height-mobile": "1.5",
 "@typography-placeholder-text-decoration-desktop": "none",
 "@typography-placeholder-text-decoration-desktop-large": "none",
 "@typography-placeholder-text-decoration-mobile": "none",
 "@typography-preamble-font-size-desktop": "1rem",
 "@typography-preamble-font-size-desktop-large": "1.125rem",
 "@typography-preamble-font-size-mobile": "1rem",
 "@typography-preamble-font-weight-desktop": "600",
 "@typography-preamble-font-weight-desktop-large": "600",
 "@typography-preamble-font-weight-mobile": "600",
 "@typography-preamble-line-height-desktop": "1.5",
 "@typography-preamble-line-height-desktop-large": "1.5",
 "@typography-preamble-line-height-mobile": "1.5",
 "@typography-preamble-text-decoration-desktop": "none",
 "@typography-preamble-text-decoration-desktop-large": "none",
 "@typography-preamble-text-decoration-mobile": "none",
 "@typography-accordion-font-size-desktop": "1rem",
 "@typography-accordion-font-size-desktop-large": "1.125rem",
 "@typography-accordion-font-size-mobile": "1rem",
 "@typography-accordion-font-weight-desktop": "600",
 "@typography-accordion-font-weight-desktop-large": "600",
 "@typography-accordion-font-weight-mobile": "600",
 "@typography-accordion-line-height-desktop": "1.5",
 "@typography-accordion-line-height-desktop-large": "1.5",
 "@typography-accordion-line-height-mobile": "1.5",
 "@typography-accordion-text-decoration-desktop": "none",
 "@typography-accordion-text-decoration-desktop-large": "none",
 "@typography-accordion-text-decoration-mobile": "none",
 "@typography-tag-font-size-desktop": "0.875rem",
 "@typography-tag-font-size-desktop-large": "0.875rem",
 "@typography-tag-font-size-mobile": "0.875rem",
 "@typography-tag-font-weight-desktop": "400",
 "@typography-tag-font-weight-desktop-large": "400",
 "@typography-tag-font-weight-mobile": "400",
 "@typography-tag-line-height-desktop": "1.5",
 "@typography-tag-line-height-desktop-large": "1.5",
 "@typography-tag-line-height-mobile": "1.5",
 "@typography-tag-text-decoration-desktop": "none",
 "@typography-tag-text-decoration-desktop-large": "none",
 "@typography-tag-text-decoration-mobile": "none",
 "@typography-breadcrumbs-font-size-desktop": "0.875rem",
 "@typography-breadcrumbs-font-size-desktop-large": "0.875rem",
 "@typography-breadcrumbs-font-size-mobile": "0.875rem",
 "@typography-breadcrumbs-font-weight-desktop": "400",
 "@typography-breadcrumbs-font-weight-desktop-large": "400",
 "@typography-breadcrumbs-font-weight-mobile": "400",
 "@typography-breadcrumbs-line-height-desktop": "1.5",
 "@typography-breadcrumbs-line-height-desktop-large": "1.5",
 "@typography-breadcrumbs-line-height-mobile": "1.5",
 "@typography-breadcrumbs-text-decoration-desktop": "none",
 "@typography-breadcrumbs-text-decoration-desktop-large": "none",
 "@typography-breadcrumbs-text-decoration-mobile": "none",
 "@typography-title-logo-font-size-desktop": "2.25rem",
 "@typography-title-logo-font-size-desktop-large": "2.25rem",
 "@typography-title-logo-font-size-mobile": "1.75rem",
 "@typography-title-logo-font-weight-desktop": "700",
 "@typography-title-logo-font-weight-desktop-large": "700",
 "@typography-title-logo-font-weight-mobile": "700",
 "@typography-title-logo-line-height-desktop": "1",
 "@typography-title-logo-line-height-desktop-large": "1",
 "@typography-title-logo-line-height-mobile": "1",
 "@typography-title-logo-text-decoration-desktop": "none",
 "@typography-title-logo-text-decoration-desktop-large": "none",
 "@typography-title-logo-text-decoration-mobile": "none",
 "@typography-vertical-menu-level-1-font-size-desktop": "1.125rem",
 "@typography-vertical-menu-level-1-font-size-desktop-large": "1.25rem",
 "@typography-vertical-menu-level-1-font-size-mobile": "1.125rem",
 "@typography-vertical-menu-level-1-font-weight-desktop": "700",
 "@typography-vertical-menu-level-1-font-weight-desktop-large": "700",
 "@typography-vertical-menu-level-1-font-weight-mobile": "700",
 "@typography-vertical-menu-level-1-line-height-desktop": "1.5",
 "@typography-vertical-menu-level-1-line-height-desktop-large": "1.5",
 "@typography-vertical-menu-level-1-line-height-mobile": "1.5",
 "@typography-vertical-menu-level-1-text-decoration-desktop": "none",
 "@typography-vertical-menu-level-1-text-decoration-desktop-large": "none",
 "@typography-vertical-menu-level-1-text-decoration-mobile": "none",
 "@typography-vertical-menu-level-2-font-size-desktop": "1rem",
 "@typography-vertical-menu-level-2-font-size-desktop-large": "1.125rem",
 "@typography-vertical-menu-level-2-font-size-mobile": "1rem",
 "@typography-vertical-menu-level-2-font-weight-desktop": "400",
 "@typography-vertical-menu-level-2-font-weight-desktop-large": "400",
 "@typography-vertical-menu-level-2-font-weight-mobile": "400",
 "@typography-vertical-menu-level-2-line-height-desktop": "1.5",
 "@typography-vertical-menu-level-2-line-height-desktop-large": "1.5",
 "@typography-vertical-menu-level-2-line-height-mobile": "1.5",
 "@typography-vertical-menu-level-2-text-decoration-desktop": "none",
 "@typography-vertical-menu-level-2-text-decoration-desktop-large": "none",
 "@typography-vertical-menu-level-2-text-decoration-mobile": "none",
 "@typography-vertical-menu-level-3-font-size-desktop": "1rem",
 "@typography-vertical-menu-level-3-font-size-desktop-large": "1.125rem",
 "@typography-vertical-menu-level-3-font-size-mobile": "1rem",
 "@typography-vertical-menu-level-3-font-weight-desktop": "400",
 "@typography-vertical-menu-level-3-font-weight-desktop-large": "400",
 "@typography-vertical-menu-level-3-font-weight-mobile": "400",
 "@typography-vertical-menu-level-3-line-height-desktop": "1.5",
 "@typography-vertical-menu-level-3-line-height-desktop-large": "1.5",
 "@typography-vertical-menu-level-3-line-height-mobile": "1.5",
 "@typography-vertical-menu-level-3-text-decoration-desktop": "none",
 "@typography-vertical-menu-level-3-text-decoration-desktop-large": "none",
 "@typography-vertical-menu-level-3-text-decoration-mobile": "none",
 "@typography-vertical-menu-level-4-font-size-desktop": "1rem",
 "@typography-vertical-menu-level-4-font-size-desktop-large": "1.125rem",
 "@typography-vertical-menu-level-4-font-size-mobile": "1rem",
 "@typography-vertical-menu-level-4-font-weight-desktop": "400",
 "@typography-vertical-menu-level-4-font-weight-desktop-large": "400",
 "@typography-vertical-menu-level-4-font-weight-mobile": "400",
 "@typography-vertical-menu-level-4-line-height-desktop": "1.5",
 "@typography-vertical-menu-level-4-line-height-desktop-large": "1.5",
 "@typography-vertical-menu-level-4-line-height-mobile": "1.5",
 "@typography-vertical-menu-level-4-text-decoration-desktop": "none",
 "@typography-vertical-menu-level-4-text-decoration-desktop-large": "none",
 "@typography-vertical-menu-level-4-text-decoration-mobile": "none",
 "@typography-button-font-size-desktop": "1rem",
 "@typography-button-font-size-desktop-large": "1.125rem",
 "@typography-button-font-size-mobile": "1rem",
 "@typography-button-font-weight-desktop": "600",
 "@typography-button-font-weight-desktop-large": "600",
 "@typography-button-font-weight-mobile": "600",
 "@typography-button-line-height-desktop": "1.5",
 "@typography-button-line-height-desktop-large": "1.5",
 "@typography-button-line-height-mobile": "1.5",
 "@typography-button-text-decoration-desktop": "none",
 "@typography-button-text-decoration-desktop-large": "none",
 "@typography-button-text-decoration-mobile": "none"
}