<?xml version="1.0" encoding="UTF-8"?>
<svg width="455px" height="275px" viewBox="0 0 455 275" version="1.1" xmlns="http://www.w3.org/2000/svg" xmlns:xlink="http://www.w3.org/1999/xlink">
    <title>felmeddelsdr</title>
    <defs>
        <rect id="path-1" x="0" y="0" width="455" height="275"></rect>
        <path d="M0,19.74 C0,30.641 8.852,39.478 19.77,39.478 L19.77,39.478 C30.689,39.478 39.541,30.641 39.541,19.74 L39.541,19.74 C39.541,8.838 30.689,0 19.77,0 L19.77,0 C8.852,0 0,8.838 0,19.74 L0,19.74 Z" id="path-3"></path>
        <path d="M0,19.74 C0,30.641 8.851,39.478 19.77,39.478 L19.77,39.478 C30.69,39.478 39.541,30.641 39.541,19.74 L39.541,19.74 C39.541,8.838 30.69,0 19.77,0 L19.77,0 C8.851,0 0,8.838 0,19.74 L0,19.74 Z" id="path-5"></path>
        <polygon id="path-7" points="0 0 58.1326 0 58.1326 77.899 0 77.899"></polygon>
    </defs>
    <g id="Page-1" stroke="none" stroke-width="1" fill="none" fill-rule="evenodd">
        <g id="Designmönster-intropuffar-18-aug" transform="translate(-872.000000, -1540.000000)">
            <g id="felmeddelsdr" transform="translate(872.000000, 1540.000000)">
                <g id="Group-6-Copy-34">
                    <mask id="mask-2" fill="white">
                        <use xlink:href="#path-1"></use>
                    </mask>
                    <use id="Mask" fill="#FFFFFF" xlink:href="#path-1"></use>
                </g>
                <g id="felmedd-vektor" transform="translate(30.000000, 48.000000)">
                    <g id="Group-3" transform="translate(284.534000, 60.302700)">
                        <mask id="mask-4" fill="white">
                            <use xlink:href="#path-3"></use>
                        </mask>
                        <g id="Clip-2"></g>
                        <polygon id="Fill-1" fill="#95C23F" mask="url(#mask-4)" points="-0.503 39.981 40.043 39.981 40.043 -0.502 -0.503 -0.502"></polygon>
                    </g>
                    <g id="Group-6" transform="translate(208.928000, 60.302700)">
                        <mask id="mask-6" fill="white">
                            <use xlink:href="#path-5"></use>
                        </mask>
                        <g id="Clip-5"></g>
                        <polygon id="Fill-4" fill="#95C23F" mask="url(#mask-6)" points="-0.502 39.981 40.043 39.981 40.043 -0.502 -0.502 -0.502"></polygon>
                    </g>
                    <g id="Group-58">
                        <path d="M242.8202,147.937 C242.7252,149.072 239.9832,175.984 239.9832,175.984 L201.1062,182.861" id="Stroke-7" stroke="#3B3735" stroke-width="2" stroke-linecap="round" stroke-linejoin="round"></path>
                        <path d="M290.6176,147.0694 C290.5646,147.1254 293.8586,175.8234 293.8586,175.8234 L328.4196,181.9934" id="Stroke-9" stroke="#3B3735" stroke-width="2" stroke-linecap="round" stroke-linejoin="round"></path>
                        <path d="M233.4781,178.9283 C237.2581,183.8573 274.5941,196.3653 299.9591,178.7393" id="Stroke-11" stroke="#3B3735" stroke-width="2" stroke-linecap="round" stroke-linejoin="round"></path>
                        <path d="M141.578,147.1148 L141.578,130.2938 C141.578,118.3078 147.809,100.3268 164.72,83.0118 C181.631,65.6978 209.669,38.3938 209.669,38.3938 C209.669,38.3938 213.674,40.6138 213.674,44.6098 C213.674,51.7128 187.086,88.8428 184.969,92.7798 C180.074,101.8808 185.637,108.9838 191.422,108.9838 L220.127,108.9838 C223.687,108.9838 233.478,113.6458 233.478,124.0788 C226.135,123.8568 200.367,124.0788 200.367,124.0788 C200.367,124.0788 193.87,140.2838 176.514,140.2838 C176.514,157.1538 176.291,150.9408 176.291,150.9408" id="Stroke-13" stroke="#3B3735" stroke-width="2" stroke-linecap="round" stroke-linejoin="round"></path>
                        <path d="M391.2074,147.1148 L391.2074,130.2938 C391.2074,118.3078 384.9764,100.3268 368.0654,83.0118 C351.1544,65.6978 323.1164,38.3938 323.1164,38.3938 C323.1164,38.3938 319.1114,40.6138 319.1114,44.6098 C319.1114,51.7128 345.6984,88.8428 347.8164,92.7798 C352.7114,101.8808 347.1484,108.9838 341.3634,108.9838 L312.6584,108.9838 C309.0984,108.9838 299.3074,113.6458 299.3074,124.0788 C306.6504,123.8568 332.4184,124.0788 332.4184,124.0788 C332.4184,124.0788 338.9154,140.2838 356.2724,140.2838 C356.2724,157.1538 356.4944,150.9408 356.4944,150.9408" id="Stroke-15" stroke="#3B3735" stroke-width="2" stroke-linecap="round" stroke-linejoin="round"></path>
                        <path d="M323.2057,33.405 C323.2057,24.707 316.0667,17.59 307.3407,17.59 L305.2707,17.59 L305.2707,16.702 L305.2707,15.41 C305.2707,6.934 298.3147,0 289.8127,0 L252.2397,0 C234.5137,0 218.9637,11.676 214.4837,27.923 C213.8697,30.15 213.7077,32.731 213.7077,32.731" id="Stroke-17" stroke="#3B3735" stroke-width="2" stroke-linejoin="round"></path>
                        <path d="M304.087,132.9698 C299.994,138.0258 284.102,154.8788 277.36,154.8788 L266.284,154.8788 L255.208,154.8788 C248.466,154.8788 232.574,138.0258 228.481,132.9698" id="Stroke-19" stroke="#3B3735" stroke-width="2" stroke-linecap="square" stroke-linejoin="round"></path>
                        <path d="M276.4952,56.3981 C276.4952,61.9091 272.0212,66.3761 266.5012,66.3761 C260.9822,66.3761 256.5072,61.9091 256.5072,56.3981 C256.5072,50.8871 260.9822,46.4201 266.5012,46.4201 C272.0212,46.4201 276.4952,50.8871 276.4952,56.3981 Z" id="Stroke-21" stroke="#3B3735" stroke-width="1.736" stroke-linecap="round"></path>
                        <path d="M248.4689,80.0421 C248.4689,90.9441 239.6179,99.7811 228.6989,99.7811 C217.7799,99.7811 208.9279,90.9441 208.9279,80.0421 C208.9279,69.1401 217.7799,60.3031 228.6989,60.3031 C239.6179,60.3031 248.4689,69.1401 248.4689,80.0421 Z" id="Stroke-23" stroke="#3B3735" stroke-width="1.736" stroke-linecap="round" stroke-linejoin="round"></path>
                        <path d="M257.5938,79.9336 C257.5938,95.4476 244.7058,108.0246 228.8068,108.0246 C212.9088,108.0246 200.0208,95.4476 200.0208,79.9336 C200.0208,64.4196 212.9088,51.8426 228.8068,51.8426 C244.7058,51.8426 257.5938,64.4196 257.5938,79.9336 Z" id="Stroke-25" stroke="#3B3735" stroke-width="1.736" stroke-linecap="round"></path>
                        <line x1="256.2902" y1="56.3982" x2="249.9902" y2="60.5192" id="Stroke-27" stroke="#3B3735" stroke-width="1.736" stroke-linecap="round"></line>
                        <line x1="261.5044" y1="65.2918" x2="255.2044" y2="69.4128" id="Stroke-29" stroke="#3B3735" stroke-width="1.736" stroke-linecap="round"></line>
                        <path d="M284.5337,80.0421 C284.5337,90.9441 293.3857,99.7811 304.3037,99.7811 C315.2227,99.7811 324.0747,90.9441 324.0747,80.0421 C324.0747,69.1401 315.2227,60.3031 304.3037,60.3031 C293.3857,60.3031 284.5337,69.1401 284.5337,80.0421 Z" id="Stroke-31" stroke="#3B3735" stroke-width="1.736" stroke-linecap="round" stroke-linejoin="round"></path>
                        <path d="M288.4444,91.766 C292.0344,96.627 297.8224,99.781 304.3504,99.781 C315.2434,99.781 324.0744,90.998 324.0744,80.162 C324.0744,77.917 323.6954,75.76 322.9974,73.751" id="Stroke-33" stroke="#3B3735" stroke-width="1.736" stroke-linecap="round" stroke-linejoin="round"></path>
                        <path d="M275.6262,79.9336 C275.6262,95.4476 288.5142,108.0246 304.4132,108.0246 C320.3112,108.0246 333.1992,95.4476 333.1992,79.9336 C333.1992,64.4196 320.3112,51.8426 304.4132,51.8426 C288.5142,51.8426 275.6262,64.4196 275.6262,79.9336 Z" id="Stroke-35" stroke="#3B3735" stroke-width="1.736" stroke-linecap="round"></path>
                        <line x1="276.4952" y1="56.3982" x2="282.7952" y2="60.5192" id="Stroke-37" stroke="#3B3735" stroke-width="1.736" stroke-linecap="round"></line>
                        <line x1="271.281" y1="65.2918" x2="277.581" y2="69.4128" id="Stroke-39" stroke="#3B3735" stroke-width="1.736" stroke-linecap="round"></line>
                        <line x1="288.2271" y1="91.5387" x2="298.0041" y2="81.5607" id="Stroke-41" stroke="#3B3735" stroke-width="1.736" stroke-linecap="round" stroke-linejoin="round"></line>
                        <line x1="322.7711" y1="73.5346" x2="317.1221" y2="79.1746" id="Stroke-43" stroke="#3B3735" stroke-width="1.736" stroke-linecap="round" stroke-linejoin="round"></line>
                        <line x1="232.6091" y1="60.7365" x2="217.4011" y2="75.2695" id="Stroke-45" stroke="#3B3735" stroke-width="1.736" stroke-linecap="round" stroke-linejoin="round"></line>
                        <line x1="238.9096" y1="63.1226" x2="234.1296" y2="67.8946" id="Stroke-47" stroke="#3B3735" stroke-width="1.736" stroke-linecap="round" stroke-linejoin="round"></line>
                        <path d="M232.6091,60.7365 C234.8721,61.1765 236.9971,61.9955 238.9091,63.1225" id="Stroke-49" stroke="#3B3735" stroke-width="1.736" stroke-linecap="round" stroke-linejoin="round"></path>
                        <g id="Group-53" transform="translate(0.000000, 18.296100)">
                            <mask id="mask-8" fill="white">
                                <use xlink:href="#path-7"></use>
                            </mask>
                            <g id="Clip-52"></g>
                            <path d="M35.4956,50.587 L35.4956,31.086 C35.4956,24.143 35.6726,18.457 36.0266,14.028 L35.6016,14.028 C34.6096,16.366 33.0516,19.201 30.9256,22.53 L11.6376,50.587 L35.4956,50.587 Z M58.1326,60.948 L47.6636,60.948 L47.6636,77.899 L35.4956,77.899 L35.4956,60.948 L-0.0004,60.948 L-0.0004,51.331 L35.4956,0 L47.6636,0 L47.6636,50.587 L58.1326,50.587 L58.1326,60.948 Z" id="Fill-51" fill="#D4E4B2" mask="url(#mask-8)"></path>
                        </g>
                        <path d="M77.3677,57.3529 C77.3677,67.9449 78.4567,75.5079 80.6357,80.0419 C82.8137,84.5769 86.2947,86.8429 91.0767,86.8429 C95.8597,86.8429 99.3577,84.5409 101.5717,79.9359 C103.7847,75.3319 104.8927,67.8029 104.8927,57.3529 C104.8927,46.9379 103.7847,39.4009 101.5717,34.7429 C99.3577,30.0839 95.8597,27.7549 91.0767,27.7549 C86.2947,27.7549 82.8137,30.0409 80.6357,34.6099 C78.4567,39.1789 77.3677,46.7609 77.3677,57.3529 M117.4867,57.3529 C117.4867,70.8489 115.3157,80.8739 110.9767,87.4279 C106.6377,93.9819 100.0037,97.2579 91.0767,97.2579 C82.4327,97.2579 75.8797,93.8759 71.4167,87.1089 C66.9527,80.3429 64.7217,70.4239 64.7217,57.3529 C64.7217,43.6429 66.8907,33.5389 71.2307,27.0379 C75.5697,20.5379 82.1847,17.2879 91.0767,17.2879 C99.7557,17.2879 106.3267,20.6879 110.7907,27.4899 C115.2547,34.2909 117.4867,44.2459 117.4867,57.3529" id="Fill-54" fill="#D4E4B2"></path>
                        <path d="M159.7305,68.8831 L159.7305,49.3821 C159.7305,42.4391 159.9075,36.7531 160.2615,32.3241 L159.8365,32.3241 C158.8445,34.6621 157.2865,37.4971 155.1605,40.8261 L135.8725,68.8831 L159.7305,68.8831 Z M182.3675,79.2441 L171.8985,79.2441 L171.8985,96.1951 L159.7305,96.1951 L159.7305,79.2441 L124.2345,79.2441 L124.2345,69.6271 L159.7305,18.2961 L171.8985,18.2961 L171.8985,68.8831 L182.3675,68.8831 L182.3675,79.2441 Z" id="Fill-56" fill="#D4E4B2"></path>
                    </g>
                </g>
            </g>
        </g>
    </g>
</svg>