{
	"name": "skolverket-angular",
	"$schema": "../../../node_modules/nx/schemas/project-schema.json",
	"projectType": "library",
	"sourceRoot": "libs/skolverket/angular/src",
	"prefix": "digi",
	"targets": {
		"prepare": {
			"executor": "nx:run-commands",
			"options": {
				"commands": ["npm run generate:components-list"],
				"cwd": "libs/skolverket/angular",
				"parallel": true
			},
			"configurations": {
				"production": {}
			},
			"defaultConfiguration": "production"
		},
		"build": {
			"executor": "@nx/angular:package",
			"outputs": ["{workspaceRoot}/dist/libs/skolverket-angular"],
			"options": {
				"project": "libs/skolverket/angular/ng-package.json",
				"updateBuildableProjectDepsInPackageJson": true
			},
			"configurations": {
				"production": {
					"tsConfig": "libs/skolverket/angular/tsconfig.lib.prod.json"
				},
				"development": {
					"tsConfig": "libs/skolverket/angular/tsconfig.lib.json"
				}
			},
			"defaultConfiguration": "production",
			"dependsOn": [
				{
					"target": "prepare"
				},
				{
					"target": "build",
					"dependencies": true
				}
			]
		},
		"test": {
			"executor": "@nx/jest:jest",
			"outputs": ["{workspaceRoot}/coverage/libs/skolverket/angular"],
			"options": {
				"jestConfig": "libs/skolverket/angular/jest.config.ts",
				"passWithNoTests": true
			}
		},
		"lint": {
			"executor": "@nx/linter:eslint",
			"options": {
				"lintFilePatterns": [
					"libs/skolverket/angular/src/**/*.ts",
					"libs/skolverket/angular/src/**/*.html"
				]
			}
		},
		"publish": {
			"executor": "nx:run-commands",
			"options": {
				"commands": ["npm publish"],
				"cwd": "dist/libs/skolverket-angular",
				"parallel": false
			}
		}
	},
	"tags": [],
	"implicitDependencies": ["skolverket"]
}
