{
	"global": {
		"typography": {
			"line-height": {
				"base": {
					"value": "2rem",
					"name": "",
					"comment": ""
				},
				"small": {
					"value": "1.75rem",
					"name": "",
					"comment": ""
				},
				"smaller": {
					"value": "1.5rem",
					"name": "",
					"comment": ""
				},
				"large": {
					"value": "2.25rem",
					"name": "",
					"comment": ""
				},
				"larger": {
					"value": "2.5rem",
					"name": "",
					"comment": ""
				},
				"largest": {
					"value": "2.75rem",
					"name": "",
					"comment": ""
				},
				"largest-2": {
					"value": "3.5rem",
					"name": "",
					"comment": ""
				}
			},
			"font-size": {
				"base": {
					"value": "1.25rem",
					"name": "",
					"comment": ""
				},
				"small": {
					"value": "1.125rem",
					"name": "",
					"comment": ""
				},
				"smaller": {
					"value": "1rem",
					"name": "",
					"comment": ""
				},
				"smallest": {
					"value": ".75rem",
					"name": "",
					"comment": ""
				},
				"smallest-2": {
					"value": ".875rem",
					"name": "",
					"comment": ""
				},
				"large": {
					"value": "1.3125rem",
					"name": "",
					"comment": ""
				},
				"larger": {
					"value": "1.5625rem",
					"name": "",
					"comment": ""
				},
				"largest": {
					"value": "1.625rem",
					"name": "",
					"comment": ""
				},
				"largest-2": {
					"value": "2.125rem",
					"name": "",
					"comment": ""
				},
				"largest-3": {
					"value": "2.25rem",
					"name": "",
					"comment": ""
				},
				"largest-4": {
					"value": "2.8125rem",
					"name": "",
					"comment": ""
				},
				"largest-5": {
					"value": "2.5rem",
					"name": "",
					"comment": ""
				},
				"interaction-small": {
					"value": "1.125rem",
					"name": "",
					"comment": ""
				},
				"interaction-medium": {
					"value": "1.125rem",
					"name": "",
					"comment": ""
				},
				"interaction-large": {
					"value": "1.125rem",
					"name": "",
					"comment": ""
				}
			},
			"font-weight": {
				"regular": {
					"value": "400",
					"name": "",
					"comment": ""
				},
				"light": {
					"value": "300",
					"name": "",
					"comment": ""
				},
				"semibold": {
					"value": "600",
					"name": "",
					"comment": ""
				},
				"bold": {
					"value": "700",
					"name": "",
					"comment": ""
				}
			},
			"font-family": {
				"default": {
					"value": "\"Source Sans Pro\"",
					"name": "",
					"comment": ""
				},
				"mono": {
					"value": "'Roboto Mono', monospace",
					"name": "",
					"comment": ""
				}
			},
			"text-decoration": {
				"default": {
					"value": "none",
					"name": "",
					"comment": ""
				},
				"link": {
					"value": "underline",
					"name": "",
					"comment": ""
				}
			}
		}
	}
}
