<?xml version="1.0" encoding="UTF-8"?>
<svg width="271px" height="230px" viewBox="0 0 271 230" version="1.1" xmlns="http://www.w3.org/2000/svg" xmlns:xlink="http://www.w3.org/1999/xlink">
    <title>Group 9Ikoner</title>
    <defs>
        <polygon id="path-1" points="0 0 176.642 0 176.642 152.7346 0 152.7346"></polygon>
        <polygon id="path-3" points="0 0 164.233563 0 164.233563 71.7955 0 71.7955"></polygon>
    </defs>
    <g id="Page-1" stroke="none" stroke-width="1" fill="none" fill-rule="evenodd">
        <g id="Group-9" transform="translate(0, -0)">
            <g id="Group-3" transform="translate(93.418, 0)">
                <mask id="mask-2" fill="white">
                    <use xlink:href="#path-1"></use>
                </mask>
                <g id="Clip-2"></g>
                <path d="M88.321,152.7346 L166.938,74.8406 C173.021,66.9886 176.642,57.1316 176.642,46.4296 C176.642,20.7866 155.855,-0.0004 130.212,-0.0004 C111.749,-0.0004 99.653,11.4746 88.321,26.3836 C76.989,11.4746 64.893,-0.0004 46.43,-0.0004 C20.787,-0.0004 0,20.7866 0,46.4296 C0,57.1316 3.621,66.9886 9.704,74.8406 L88.321,152.7346 Z" id="Fill-1" fill="#DEE8B6" mask="url(#mask-2)"></path>
            </g>
            <path d="M96.0842,87.4586 L173.1912,163.8566 L250.2982,87.4586 C256.3202,79.6406 259.5022,70.2796 259.5022,60.3816 C259.5022,35.8886 239.5752,15.9616 215.0822,15.9616 C196.7682,15.9616 184.8942,28.2606 174.7922,41.5516 C174.4112,42.0516 173.8192,42.3456 173.1912,42.3456 C172.5632,42.3456 171.9712,42.0516 171.5912,41.5516 C154.4952,19.0616 142.1232,15.9616 131.3002,15.9616 C106.8062,15.9616 86.8802,35.8886 86.8802,60.3816 C86.8802,70.2796 90.0622,79.6406 96.0842,87.4586 M173.1912,168.6966 C172.6792,168.6966 172.1682,168.5026 171.7762,168.1146 L93.1602,90.2206 C93.0982,90.1586 93.0392,90.0926 92.9862,90.0236 C86.3612,81.4736 82.8602,71.2236 82.8602,60.3816 C82.8602,33.6716 104.5902,11.9416 131.3002,11.9416 C150.3782,11.9416 162.7932,23.7486 173.1912,37.0426 C183.5892,23.7486 196.0042,11.9416 215.0822,11.9416 C241.7922,11.9416 263.5222,33.6716 263.5222,60.3816 C263.5222,71.2226 260.0212,81.4726 253.3972,90.0236 C253.3432,90.0926 253.2852,90.1586 253.2222,90.2206 L174.6062,168.1146 C174.2142,168.5026 173.7032,168.6966 173.1912,168.6966" id="Fill-4" fill="#3B3735"></path>
            <g id="Group-8" transform="translate(0, 157.7835)">
                <mask id="mask-4" fill="white">
                    <use xlink:href="#path-3"></use>
                </mask>
                <g id="Clip-7"></g>
                <path d="M108.9573,1.494 C108.9363,1.494 108.9153,1.493 108.8943,1.491 C107.8263,1.392 106.7213,1.341 105.6103,1.34 C105.2403,1.34 104.9413,1.04 104.9413,0.67 C104.9413,0.3 105.2413,0 105.6113,0 L105.6113,0 C106.7623,0.001 107.9093,0.054 109.0193,0.157 C109.3873,0.191 109.6583,0.518 109.6243,0.886 C109.5913,1.234 109.2993,1.494 108.9573,1.494 M98.9773,2.148 C98.6773,2.148 98.4043,1.945 98.3283,1.641 C98.2393,1.281 98.4563,0.918 98.8163,0.828 C99.9213,0.552 101.0563,0.343 102.1893,0.205 C102.5583,0.162 102.8903,0.423 102.9353,0.789 C102.9803,1.157 102.7183,1.491 102.3513,1.536 C101.2723,1.667 100.1923,1.866 99.1403,2.129 C99.0863,2.142 99.0313,2.148 98.9773,2.148 M115.5153,2.798 C115.4483,2.798 115.3803,2.788 115.3123,2.767 C114.2943,2.444 113.2273,2.173 112.1413,1.959 C111.7783,1.887 111.5423,1.535 111.6133,1.171 C111.6843,0.808 112.0373,0.574 112.4003,0.643 C113.5353,0.867 114.6513,1.152 115.7173,1.489 C116.0693,1.601 116.2653,1.978 116.1533,2.33 C116.0633,2.616 115.7993,2.798 115.5153,2.798 M92.7483,4.553 C92.5093,4.553 92.2783,4.425 92.1573,4.2 C91.9823,3.873 92.1053,3.467 92.4313,3.292 C93.4363,2.754 94.4843,2.273 95.5463,1.863 C95.8923,1.729 96.2803,1.902 96.4123,2.246 C96.5463,2.592 96.3743,2.98 96.0293,3.113 C95.0183,3.503 94.0203,3.961 93.0643,4.474 C92.9633,4.527 92.8553,4.553 92.7483,4.553 M121.5793,5.597 C121.4573,5.597 121.3333,5.563 121.2223,5.493 C120.3173,4.919 119.3533,4.397 118.3583,3.941 C118.0213,3.786 117.8733,3.388 118.0283,3.052 C118.1823,2.715 118.5813,2.568 118.9163,2.722 C119.9673,3.204 120.9833,3.755 121.9393,4.361 C122.2513,4.559 122.3443,4.972 122.1463,5.285 C122.0193,5.487 121.8013,5.597 121.5793,5.597 M87.2903,8.406 C87.1093,8.406 86.9273,8.332 86.7943,8.186 C86.5463,7.912 86.5663,7.488 86.8403,7.24 C87.6843,6.473 88.5843,5.751 89.5153,5.094 C89.8173,4.881 90.2353,4.953 90.4483,5.254 C90.6623,5.557 90.5903,5.975 90.2883,6.188 C89.4013,6.814 88.5453,7.502 87.7413,8.232 C87.6123,8.348 87.4513,8.406 87.2903,8.406 M0.8643,9.034 C0.5193,9.034 0.2263,8.769 0.1963,8.419 C0.1043,7.298 0.0373,6.163 0.0003,5.044 C-0.0127,4.674 0.2773,4.365 0.6473,4.352 C1.0153,4.315 1.3273,4.629 1.3393,4.999 C1.3763,6.095 1.4413,7.209 1.5323,8.309 C1.5633,8.678 1.2893,9.002 0.9193,9.032 C0.9013,9.034 0.8823,9.034 0.8643,9.034 M126.6423,9.941 C126.4553,9.941 126.2683,9.863 126.1363,9.71 C125.4283,8.895 124.6543,8.126 123.8343,7.423 C123.5523,7.182 123.5203,6.759 123.7603,6.478 C124.0023,6.196 124.4253,6.166 124.7053,6.405 C125.5753,7.151 126.3973,7.967 127.1483,8.832 C127.3913,9.112 127.3603,9.535 127.0813,9.778 C126.9543,9.888 126.7983,9.941 126.6423,9.941 M82.9263,13.467 C82.7993,13.467 82.6693,13.43 82.5553,13.354 C82.2473,13.148 82.1643,12.732 82.3703,12.424 C83.0033,11.477 83.7023,10.558 84.4463,9.694 C84.6883,9.413 85.1113,9.383 85.3923,9.624 C85.6723,9.866 85.7033,10.289 85.4623,10.569 C84.7523,11.392 84.0873,12.267 83.4843,13.169 C83.3553,13.362 83.1433,13.467 82.9263,13.467 M130.2383,15.562 C129.9843,15.562 129.7413,15.417 129.6283,15.17 C129.1733,14.174 128.6513,13.213 128.0773,12.313 C127.8783,12.001 127.9693,11.587 128.2813,11.388 C128.5933,11.188 129.0073,11.28 129.2063,11.592 C129.8143,12.544 130.3663,13.561 130.8473,14.614 C131.0003,14.95 130.8533,15.347 130.5163,15.501 C130.4263,15.542 130.3313,15.562 130.2383,15.562 M1.7413,15.672 C1.4233,15.672 1.1413,15.445 1.0823,15.122 C0.8813,14.019 0.7043,12.895 0.5583,11.781 C0.5093,11.414 0.7673,11.078 1.1343,11.029 C1.5093,10.98 1.8373,11.239 1.8863,11.606 C2.0303,12.698 2.2033,13.8 2.4003,14.881 C2.4673,15.246 2.2253,15.595 1.8623,15.661 C1.8213,15.669 1.7813,15.672 1.7413,15.672 M79.9263,19.439 C79.8523,19.439 79.7763,19.427 79.7013,19.401 C79.3533,19.276 79.1713,18.893 79.2953,18.544 C79.6773,17.471 80.1323,16.409 80.6443,15.389 C80.8093,15.059 81.2113,14.925 81.5443,15.091 C81.8743,15.258 82.0073,15.661 81.8413,15.991 C81.3533,16.961 80.9213,17.972 80.5583,18.994 C80.4593,19.269 80.2023,19.439 79.9263,19.439 M132.2313,21.936 C131.9163,21.936 131.6343,21.713 131.5743,21.391 C131.3663,20.299 131.1023,19.231 130.7883,18.217 C130.6783,17.864 130.8753,17.488 131.2293,17.379 C131.5853,17.27 131.9583,17.468 132.0683,17.821 C132.3973,18.882 132.6743,20 132.8903,21.141 C132.9593,21.505 132.7203,21.856 132.3573,21.925 C132.3143,21.932 132.2723,21.936 132.2313,21.936 M3.2653,22.191 C2.9733,22.191 2.7053,22 2.6213,21.706 C2.3143,20.634 2.0283,19.532 1.7713,18.433 C1.6863,18.073 1.9103,17.713 2.2713,17.628 C2.6313,17.546 2.9923,17.768 3.0753,18.128 C3.3283,19.206 3.6083,20.285 3.9093,21.337 C4.0113,21.693 3.8053,22.064 3.4503,22.165 C3.3883,22.183 3.3263,22.191 3.2653,22.191 M78.4813,25.965 C78.4603,25.965 78.4383,25.964 78.4173,25.962 C78.0483,25.927 77.7783,25.6 77.8133,25.231 C77.9213,24.093 78.1013,22.952 78.3473,21.843 C78.4273,21.482 78.7883,21.26 79.1463,21.334 C79.5073,21.415 79.7353,21.773 79.6553,22.134 C79.4213,23.189 79.2503,24.274 79.1473,25.358 C79.1143,25.705 78.8223,25.965 78.4813,25.965 M161.6343,27.542 C161.4963,27.542 161.3563,27.499 161.2373,27.41 C160.9393,27.19 160.8763,26.771 161.0973,26.473 C161.7553,25.582 162.3983,24.669 163.0073,23.759 C163.2123,23.452 163.6283,23.369 163.9363,23.575 C164.2433,23.78 164.3263,24.196 164.1203,24.504 C163.5013,25.432 162.8463,26.362 162.1743,27.27 C162.0423,27.448 161.8403,27.542 161.6343,27.542 M5.4223,28.531 C5.1563,28.531 4.9033,28.37 4.7993,28.107 C4.3833,27.059 3.9903,25.991 3.6313,24.934 C3.5113,24.583 3.6993,24.203 4.0493,24.084 C4.4033,23.963 4.7803,24.152 4.8993,24.502 C5.2523,25.539 5.6373,26.586 6.0453,27.614 C6.1813,27.957 6.0133,28.347 5.6693,28.483 C5.5873,28.515 5.5043,28.531 5.4223,28.531 M132.8243,28.585 C132.4543,28.585 132.1543,28.297 132.1543,27.927 C132.1543,26.795 132.1083,25.697 132.0163,24.641 C131.9843,24.272 132.2573,23.947 132.6253,23.915 C133.0103,23.876 133.3193,24.156 133.3513,24.524 C133.4463,25.619 133.4943,26.756 133.4943,27.903 C133.4943,28.273 133.1943,28.585 132.8243,28.585 M78.6593,32.644 C78.3323,32.644 78.0463,32.406 77.9973,32.074 C77.8283,30.95 77.7283,29.801 77.6973,28.657 C77.6873,28.288 77.9793,27.98 78.3493,27.97 L78.3683,27.97 C78.7293,27.97 79.0273,28.258 79.0373,28.622 C79.0663,29.711 79.1623,30.805 79.3223,31.875 C79.3773,32.241 79.1253,32.582 78.7593,32.637 C78.7253,32.642 78.6913,32.644 78.6593,32.644 M157.3983,32.728 C157.2373,32.728 157.0773,32.671 156.9493,32.556 C156.6743,32.308 156.6523,31.885 156.9003,31.61 C157.6333,30.796 158.3603,29.948 159.0603,29.091 C159.2933,28.805 159.7153,28.762 160.0033,28.996 C160.2893,29.231 160.3323,29.653 160.0973,29.939 C159.3843,30.813 158.6433,31.677 157.8963,32.506 C157.7633,32.653 157.5813,32.728 157.3983,32.728 M8.1863,34.615 C7.9423,34.615 7.7083,34.483 7.5893,34.252 C7.0793,33.259 6.5843,32.237 6.1193,31.214 C5.9663,30.877 6.1143,30.48 6.4513,30.327 C6.7913,30.171 7.1863,30.323 7.3383,30.659 C7.7943,31.663 8.2803,32.665 8.7813,33.638 C8.9503,33.967 8.8203,34.372 8.4923,34.541 C8.3943,34.592 8.2893,34.615 8.1863,34.615 M131.5013,35.112 C131.4213,35.112 131.3393,35.098 131.2603,35.068 C130.9153,34.935 130.7433,34.547 130.8753,34.202 C131.2813,33.149 131.5943,32.106 131.8053,31.103 C131.8823,30.741 132.2373,30.509 132.5993,30.586 C132.9613,30.662 133.1933,31.018 133.1163,31.379 C132.8903,32.452 132.5573,33.564 132.1263,34.683 C132.0243,34.949 131.7703,35.112 131.5013,35.112 M152.6843,37.486 C152.5033,37.486 152.3223,37.412 152.1903,37.268 C151.9403,36.995 151.9583,36.572 152.2313,36.322 C153.0403,35.58 153.8453,34.805 154.6223,34.021 C154.8823,33.759 155.3063,33.756 155.5703,34.017 C155.8323,34.277 155.8343,34.701 155.5733,34.964 C154.7823,35.764 153.9623,36.553 153.1373,37.31 C153.0083,37.427 152.8463,37.486 152.6843,37.486 M80.4573,39.078 C80.1953,39.078 79.9463,38.924 79.8383,38.667 C79.3983,37.614 79.0193,36.524 78.7133,35.426 C78.6143,35.07 78.8223,34.701 79.1783,34.601 C79.5323,34.502 79.9043,34.709 80.0033,35.067 C80.2953,36.11 80.6563,37.148 81.0753,38.15 C81.2183,38.491 81.0573,38.883 80.7153,39.027 C80.6313,39.062 80.5433,39.078 80.4573,39.078 M11.5333,40.404 C11.3133,40.404 11.0983,40.296 10.9703,40.097 C10.3613,39.153 9.7683,38.184 9.2083,37.215 C9.0233,36.895 9.1333,36.484 9.4533,36.299 C9.7723,36.114 10.1833,36.223 10.3693,36.545 C10.9173,37.494 11.4993,38.445 12.0953,39.371 C12.2963,39.681 12.2073,40.096 11.8963,40.297 C11.7843,40.369 11.6583,40.404 11.5333,40.404 M128.3753,41.023 C128.2483,41.023 128.1193,40.987 128.0043,40.911 C127.6973,40.705 127.6133,40.29 127.8183,39.982 C128.4453,39.042 129.0143,38.095 129.5103,37.166 C129.6843,36.84 130.0903,36.718 130.4173,36.891 C130.7433,37.066 130.8663,37.472 130.6923,37.798 C130.1753,38.764 129.5843,39.749 128.9333,40.725 C128.8053,40.919 128.5923,41.023 128.3753,41.023 M147.5393,41.771 C147.3363,41.771 147.1353,41.68 147.0033,41.505 C146.7813,41.209 146.8403,40.789 147.1353,40.566 C148.0113,39.906 148.8853,39.212 149.7333,38.505 C150.0193,38.269 150.4403,38.307 150.6773,38.591 C150.9143,38.875 150.8753,39.297 150.5913,39.535 C149.7263,40.255 148.8353,40.963 147.9423,41.637 C147.8213,41.728 147.6793,41.771 147.5393,41.771 M83.7743,44.875 C83.5703,44.875 83.3683,44.783 83.2373,44.607 C82.5533,43.693 81.9203,42.729 81.3553,41.741 C81.1713,41.419 81.2833,41.01 81.6043,40.827 C81.9253,40.642 82.3353,40.754 82.5193,41.076 C83.0563,42.016 83.6593,42.934 84.3103,43.804 C84.5323,44.1 84.4713,44.52 84.1753,44.742 C84.0543,44.832 83.9143,44.875 83.7743,44.875 M142.0073,45.545 C141.7823,45.545 141.5623,45.432 141.4363,45.226 C141.2423,44.91 141.3413,44.498 141.6573,44.304 C142.5893,43.732 143.5253,43.126 144.4403,42.502 C144.7453,42.295 145.1633,42.371 145.3713,42.678 C145.5803,42.983 145.5013,43.4 145.1953,43.609 C144.2633,44.245 143.3083,44.863 142.3573,45.447 C142.2483,45.513 142.1273,45.545 142.0073,45.545 M15.4313,45.842 C15.2333,45.842 15.0383,45.755 14.9063,45.588 C14.2113,44.714 13.5273,43.806 12.8713,42.891 C12.6553,42.59 12.7243,42.171 13.0243,41.956 C13.3273,41.739 13.7443,41.809 13.9593,42.11 C14.6033,43.007 15.2753,43.898 15.9553,44.756 C16.1853,45.046 16.1363,45.467 15.8463,45.697 C15.7233,45.795 15.5773,45.842 15.4313,45.842 M124.2473,46.297 C124.0883,46.297 123.9273,46.24 123.7993,46.125 C123.5243,45.878 123.5023,45.454 123.7493,45.179 C124.5033,44.342 125.2203,43.49 125.8803,42.65 C126.1093,42.36 126.5293,42.307 126.8213,42.538 C127.1123,42.766 127.1633,43.187 126.9343,43.478 C126.2553,44.342 125.5193,45.216 124.7453,46.075 C124.6133,46.223 124.4303,46.297 124.2473,46.297 M136.1423,48.771 C135.8943,48.771 135.6563,48.633 135.5393,48.395 C135.3773,48.062 135.5153,47.661 135.8473,47.499 C136.8343,47.016 137.8243,46.503 138.7913,45.971 C139.1133,45.794 139.5223,45.911 139.7003,46.236 C139.8793,46.56 139.7603,46.967 139.4363,47.145 C138.4513,47.687 137.4423,48.211 136.4363,48.703 C136.3413,48.749 136.2413,48.771 136.1423,48.771 M88.4003,49.697 C88.2513,49.697 88.1013,49.647 87.9773,49.546 C87.0923,48.825 86.2443,48.043 85.4563,47.221 C85.2003,46.954 85.2083,46.53 85.4753,46.274 C85.7433,46.019 86.1673,46.026 86.4233,46.293 C87.1733,47.076 87.9813,47.821 88.8243,48.507 C89.1103,48.741 89.1533,49.163 88.9203,49.45 C88.7873,49.612 88.5953,49.697 88.4003,49.697 M19.8403,50.878 C19.6643,50.878 19.4893,50.81 19.3583,50.673 C18.5763,49.864 17.8063,49.026 17.0693,48.184 C16.8253,47.906 16.8533,47.482 17.1323,47.238 C17.4103,46.994 17.8323,47.022 18.0783,47.302 C18.8003,48.128 19.5553,48.949 20.3223,49.743 C20.5793,50.009 20.5713,50.433 20.3053,50.69 C20.1753,50.816 20.0073,50.878 19.8403,50.878 M119.4933,51.022 C119.3093,51.022 119.1263,50.947 118.9943,50.799 C118.7473,50.524 118.7703,50.1 119.0463,49.853 C119.8833,49.102 120.6963,48.337 121.4623,47.578 C121.7243,47.317 122.1483,47.318 122.4093,47.582 C122.6703,47.845 122.6683,48.269 122.4053,48.529 C121.6243,49.305 120.7943,50.085 119.9403,50.851 C119.8123,50.966 119.6533,51.022 119.4933,51.022 M129.9933,51.415 C129.7213,51.415 129.4663,51.249 129.3653,50.98 C129.2363,50.633 129.4123,50.247 129.7583,50.118 C130.7903,49.732 131.8253,49.316 132.8343,48.882 C133.1713,48.738 133.5683,48.893 133.7153,49.233 C133.8603,49.573 133.7033,49.967 133.3633,50.113 C132.3353,50.556 131.2803,50.979 130.2283,51.373 C130.1503,51.402 130.0713,51.415 129.9933,51.415 M94.0593,53.252 C93.9643,53.252 93.8673,53.232 93.7753,53.189 C92.7413,52.705 91.7273,52.152 90.7643,51.546 C90.4503371,51.349 90.3563,50.934 90.5533,50.622 C90.7513,50.308 91.1653,50.215 91.4773,50.411 C92.3953,50.988 93.3593,51.515 94.3433,51.975 C94.6783,52.132 94.8233,52.531 94.6673,52.866 C94.5533,53.109 94.3113,53.252 94.0593,53.252 M123.6183,53.452 C123.3223,53.452 123.0513,53.255 122.9713,52.955 C122.8763,52.598 123.0883,52.23 123.4463,52.135 C124.5083,51.852 125.5773,51.538 126.6263,51.203 C126.9803,51.089 127.3553,51.285 127.4683,51.637 C127.5813,51.989 127.3873,52.366 127.0343,52.479 C125.9653,52.821 124.8743,53.141 123.7913,53.429 C123.7343,53.445 123.6753,53.452 123.6183,53.452 M117.0783,54.864 C116.7563,54.864 116.4733,54.632 116.4183,54.304 C116.3573,53.939 116.6053,53.594 116.9693,53.533 C118.0493,53.354 119.1453,53.145 120.2243,52.913 C120.5863,52.833 120.9423,53.064 121.0203,53.426 C121.0983,53.788 120.8683,54.145 120.5063,54.222 C119.4063,54.46 118.2903,54.673 117.1893,54.855 C117.1523,54.862 117.1143,54.864 117.0783,54.864 M100.4163,55.315 C100.3743,55.315 100.3323,55.311 100.2893,55.303 C99.1683,55.087 98.0513,54.8 96.9673,54.448 C96.6153,54.334 96.4223,53.956 96.5373,53.604 C96.6513,53.252 97.0303,53.06 97.3813,53.174 C98.4123,53.509 99.4763,53.782 100.5423,53.987 C100.9063,54.057 101.1433,54.408 101.0743,54.771 C101.0123,55.092 100.7313,55.315 100.4163,55.315 M24.7203,55.465 C24.5663,55.465 24.4123,55.413 24.2853,55.305 C23.4333,54.579 22.5853,53.82 21.7653,53.049 C21.4953,52.795 21.4823,52.371 21.7353,52.102 C21.9893,51.832 22.4133,51.818 22.6823,52.072 C23.4883,52.829 24.3193,53.573 25.1543,54.285 C25.4363,54.525 25.4703,54.948 25.2293,55.229 C25.0973,55.385 24.9093,55.465 24.7203,55.465 M110.4283,55.641 C110.0793,55.641 109.7843,55.37 109.7603,55.017 C109.7353,54.648 110.0143,54.328 110.3833,54.302 C111.4773,54.228 112.5893,54.125 113.6863,53.997 C113.7813,53.984 113.8693,53.995 113.9533,54.019 C114.8303,53.362 115.6943,52.687 116.5223,52.011 C116.8083,51.776 117.2313,51.819 117.4643,52.106 C117.6993,52.392 117.6563,52.814 117.3703,53.049 C116.5113,53.749 115.6153,54.45 114.7053,55.13 C114.5283,55.263 114.3083,55.295 114.1113,55.235 C114.0313,55.284 113.9403,55.316 113.8423,55.328 C112.7233,55.458 111.5903,55.563 110.4743,55.64 C110.4593,55.64 110.4433,55.641 110.4283,55.641 M105.5913,55.807 C104.9583,55.807 104.3193,55.785 103.6903,55.743 C103.3213,55.718 103.0413,55.399 103.0663,55.029 C103.0923,54.66 103.4003,54.396 103.7803,54.406 C104.8693,54.48 105.9803,54.474 107.0693,54.451 L107.0833,54.451 C107.4473,54.451 107.7453,54.741 107.7533,55.106 C107.7613,55.477 107.4673,55.783 107.0973,55.791 C106.5963,55.801 106.0943,55.807 105.5913,55.807 M108.7803,59.063 C108.5593,59.063 108.3413,58.953 108.2143,58.752 C108.0153,58.439 108.1093,58.025 108.4213,57.827 C109.3613,57.232 110.2963,56.616 111.1993,55.995 C111.5043,55.786 111.9213,55.863 112.1313,56.168 C112.3403,56.473 112.2633,56.89 111.9583,57.099 C111.0413,57.73 110.0923,58.356 109.1383,58.959 C109.0273,59.03 108.9033,59.063 108.7803,59.063 M30.0243,59.558 C29.8913,59.558 29.7583,59.519 29.6423,59.437 C28.7203,58.795 27.8023,58.122 26.9133,57.436 C26.6203,57.21 26.5663,56.789 26.7913,56.497 C27.0173,56.204 27.4373,56.147 27.7313,56.375 C28.6033,57.048 29.5043,57.709 30.4073,58.338 C30.7113,58.549 30.7853,58.967 30.5743,59.271 C30.4443,59.458 30.2363,59.558 30.0243,59.558 M102.9843,62.432 C102.7443,62.432 102.5133,62.303 102.3923,62.077 C102.2173,61.75 102.3413,61.345 102.6683,61.17 C103.6473,60.648 104.6253,60.103 105.5763,59.551 C105.8983,59.368 106.3073,59.475 106.4923,59.795 C106.6783,60.115 106.5693,60.525 106.2493,60.711 C105.2843,61.27 104.2923,61.823 103.2983,62.353 C103.1983,62.406 103.0903,62.432 102.9843,62.432 M35.7043,63.115 C35.5933,63.115 35.4813,63.088 35.3773,63.03 C34.3953,62.479 33.4153,61.899 32.4653,61.304 C32.1513,61.108 32.0563,60.694 32.2523,60.381 C32.4493,60.067 32.8633,59.972 33.1763,60.168 C34.1083,60.752 35.0693,61.321 36.0323,61.861 C36.3553,62.042 36.4703,62.45 36.2893,62.773 C36.1663,62.992 35.9393,63.115 35.7043,63.115 M96.9613,65.359 C96.7033,65.359 96.4583,65.21 96.3473,64.96 C96.1983,64.621 96.3513,64.226 96.6893,64.076 C97.7053,63.628 98.7193,63.157 99.7073,62.678 C100.0433,62.516 100.4413,62.655 100.6033,62.987 C100.7643,63.32 100.6263,63.721 100.2933,63.883 C99.2913,64.37 98.2613,64.847 97.2313,65.302 C97.1433,65.341 97.0513,65.359 96.9613,65.359 M41.7093,66.101 C41.6203,66.101 41.5283,66.083 41.4413,66.045 C40.4073,65.593 39.3743,65.111 38.3713,64.612 C38.0403,64.447 37.9043,64.044 38.0693,63.713 C38.2343,63.382 38.6363,63.247 38.9683,63.412 C39.9513,63.901 40.9643,64.374 41.9773,64.817 C42.3163,64.965 42.4713,65.36 42.3233,65.699 C42.2133,65.951 41.9673,66.101 41.7093,66.101 M90.7203,67.826 C90.4433,67.826 90.1853,67.653 90.0883,67.378 C89.9653,67.028 90.1493,66.646 90.4983,66.524 C91.5383,66.159 92.5883,65.767 93.6183,65.36 C93.9623,65.224 94.3523,65.392 94.4883,65.736 C94.6243,66.08 94.4563,66.469 94.1123,66.605 C93.0643,67.02 91.9983,67.417 90.9423,67.788 C90.8683,67.814 90.7933,67.826 90.7203,67.826 M47.9833,68.483 C47.9143,68.483 47.8453,68.473 47.7763,68.451 C46.7033,68.103 45.6273,67.724 44.5783,67.325 C44.2323,67.194 44.0593,66.807 44.1903,66.461 C44.3213,66.115 44.7093,65.94 45.0553,66.073 C46.0833,66.463 47.1373,66.834 48.1903,67.176 C48.5423,67.29 48.7353,67.668 48.6203,68.02 C48.5293,68.303 48.2653,68.483 47.9833,68.483 M84.3053,69.772 C84.0073,69.772 83.7353,69.571 83.6573,69.269 C83.5653,68.91 83.7813,68.545 84.1393,68.453 C85.2033,68.18 86.2793,67.878 87.3383,67.556 C87.6973,67.448 88.0673,67.648 88.1743,68.002 C88.2823,68.357 88.0823,68.731 87.7283,68.839 C86.6493,69.166 85.5553,69.473 84.4733,69.751 C84.4173,69.765 84.3613,69.772 84.3053,69.772 M54.4463,70.232 C54.3993,70.232 54.3513,70.228 54.3033,70.217 C53.2003,69.977 52.0953,69.706 51.0173,69.414 C50.6603,69.317 50.4493,68.949 50.5463,68.592 C50.6423,68.234 51.0093,68.019 51.3683,68.121 C52.4243,68.407 53.5073,68.672 54.5883,68.908 C54.9503,68.987 55.1793,69.344 55.1003,69.705 C55.0323,70.018 54.7543,70.232 54.4463,70.232 M77.7433,71.124 C77.4173,71.124 77.1323,70.887 77.0813,70.556 C77.0253,70.191 77.2753,69.848 77.6413,69.792 C78.7203,69.625 79.8193,69.427 80.9063,69.202 C81.2663,69.129 81.6223,69.36 81.6973,69.723 C81.7723,70.084 81.5393,70.439 81.1763,70.514 C80.0683,70.743 78.9473,70.946 77.8453,71.116 C77.8113,71.122 77.7773,71.124 77.7433,71.124 M61.0503,71.338 C61.0243,71.338 60.9983,71.337 60.9713,71.334 C59.8613,71.203 58.7353,71.043 57.6243,70.857 C57.2583,70.796 57.0123,70.451 57.0733,70.086 C57.1353,69.721 57.4803,69.471 57.8453,69.536 C58.9343,69.717 60.0393,69.874 61.1283,70.003 C61.4953,70.046 61.7583,70.379 61.7153,70.747 C61.6753,71.088 61.3853,71.338 61.0503,71.338 M71.0763,71.773 C70.7183,71.773 70.4213,71.489 70.4083,71.128 C70.3933,70.758 70.6823,70.447 71.0523,70.433 C72.1353,70.392 73.2463,70.316 74.3543,70.208 C74.7273,70.172 75.0503,70.441 75.0863,70.809 C75.1223,71.177 74.8533,71.505 74.4853,71.541 C73.3513,71.652 72.2123,71.73 71.1033,71.772 C71.0943,71.773 71.0853,71.773 71.0763,71.773 M67.7283,71.796 L67.7153,71.796 C66.5963,71.773 65.4603,71.723 64.3373,71.646 C63.9683,71.621 63.6893,71.301 63.7143,70.932 C63.7403,70.563 64.0623,70.297 64.4293,70.309 C65.5303,70.385 66.6453,70.434 67.7413,70.456 C68.1123,70.463 68.4053,70.769 68.3983,71.139 C68.3913,71.504 68.0923,71.796 67.7283,71.796" id="Fill-6" fill="#3B3735" mask="url(#mask-4)"></path>
            </g>
        </g>
    </g>
</svg>