<?xml version="1.0" encoding="UTF-8"?>
<svg width="250px" height="471px" viewBox="0 0 250 471" version="1.1" xmlns="http://www.w3.org/2000/svg" xmlns:xlink="http://www.w3.org/1999/xlink">
    <title>Group 44Ikoner</title>
    <defs>
        <polygon id="path-1" points="0 0 249.996 0 249.996 470.3595 0 470.3595"></polygon>
    </defs>
    <g id="Page-1" stroke="none" stroke-width="1" fill="none" fill-rule="evenodd">
        <g id="Group-44">
            <path d="M100.4565,409.8141 C100.4565,417.0311 106.3065,422.8811 113.5235,422.8811 C120.7405,422.8811 126.5905,417.0311 126.5905,409.8141 C126.5905,402.5971 120.7405,396.7471 113.5235,396.7471 C106.3065,396.7471 100.4565,402.5971 100.4565,409.8141" id="Fill-1" fill="#DEE8B6"></path>
            <path d="M47.1384,422.8813 C47.1384,429.1543 52.2244,434.2403 58.4974,434.2403 C64.7714,434.2403 69.8564,429.1543 69.8564,422.8813 C69.8564,416.6083 64.7714,411.5223 58.4974,411.5223 C52.2244,411.5223 47.1384,416.6083 47.1384,422.8813" id="Fill-3" fill="#9CBF1E"></path>
            <polyline id="Fill-5" fill="#9CBF1E" points="152.7861 201.2709 164.2401 220.6549 174.5411 202.0239"></polyline>
            <polyline id="Fill-7" fill="#DEE8B6" points="118.6159 189.8011 120.0109 211.5671 137.5119 197.9321"></polyline>
            <polyline id="Fill-9" fill="#9CBF1E" points="92.5744 169.1099 85.9914 188.7159 107.3494 182.7149"></polyline>
            <polyline id="Fill-11" fill="#DEE8B6" points="220.23 412.476 200.827 430.799 194.755 404.733"></polyline>
            <polyline id="Fill-13" fill="#9CBF1E" points="176.2659 394.4146 152.2569 403.5256 156.4799 377.0646"></polyline>
            <polyline id="Fill-15" fill="#DEE8B6" points="146.1385 363.7333 119.6215 363.7333 134.4695 340.7713"></polyline>
            <path d="M138.3755,294.0503 C138.3755,307.1793 143.9325,317.8223 150.7875,317.8223 C157.6425,317.8223 163.1995,307.1793 163.1995,294.0503 C163.1995,280.9213 157.6425,270.2783 150.7875,270.2783 C143.9325,270.2783 138.3755,280.9213 138.3755,294.0503" id="Fill-17" fill="#DEE8B6"></path>
            <path d="M83.947,273.7515 C83.947,284.7635 88.608,293.6915 94.358,293.6915 C100.108,293.6915 104.769,284.7635 104.769,273.7515 C104.769,262.7395 100.108,253.8115 94.358,253.8115 C88.608,253.8115 83.947,262.7395 83.947,273.7515" id="Fill-19" fill="#DEE8B6"></path>
            <path d="M118.8353,166.7969 C118.8353,173.0699 123.9213,178.1559 130.1943,178.1559 C136.4683,178.1559 141.5533,173.0699 141.5533,166.7969 C141.5533,160.5239 136.4683,155.4379 130.1943,155.4379 C123.9213,155.4379 118.8353,160.5239 118.8353,166.7969" id="Fill-21" fill="#9CBF1E"></path>
            <path d="M108.2652,323.2362 C108.2652,330.4532 114.1152,336.3032 121.3322,336.3032 C128.5492,336.3032 134.3992,330.4532 134.3992,323.2362 C134.3992,316.0192 128.5492,310.1692 121.3322,310.1692 C114.1152,310.1692 108.2652,316.0192 108.2652,323.2362" id="Fill-23" fill="#DEE8B6"></path>
            <path d="M100.0673,96.6428 C100.0673,107.0068 108.4683,115.4078 118.8323,115.4078 C129.1953,115.4078 137.5973,107.0068 137.5973,96.6428 C137.5973,86.2788 129.1953,77.8778 118.8323,77.8778 C108.4683,77.8778 100.0673,86.2788 100.0673,96.6428" id="Fill-25" fill="#9CBF1E"></path>
            <polygon id="Fill-27" fill="#DEE8B6" points="118.8321 45.9162 102.1001 56.0642 105.4831 36.0292 89.3511 21.4582 112.5081 19.1162 118.8321 1.1632 125.1561 19.1162 148.3131 21.4582 132.1811 36.0292 135.5641 56.0642"></polygon>
            <path d="M107.7855,409.8136 C107.7855,403.2496 113.1245,397.9106 119.6885,397.9106 C126.2525,397.9106 131.5935,403.2496 131.5935,409.8136 C131.5935,416.3776 126.2525,421.7176 119.6885,421.7176 C113.1245,421.7176 107.7855,416.3776 107.7855,409.8136 L107.7855,409.8136 Z M125.9675,397.0626 C124.0705,396.1256 121.9445,395.5836 119.6885,395.5836 C117.4715,395.5836 115.3805,396.1076 113.5075,397.0156 L113.5075,392.6296 C113.5075,390.2846 115.4165,388.3756 117.7625,388.3756 L121.7135,388.3756 C124.0595,388.3756 125.9675,390.2846 125.9675,392.6296 L125.9675,397.0626 Z M105.4585,409.8136 C105.4585,417.6606 111.8425,424.0446 119.6885,424.0446 C127.5355,424.0446 133.9195,417.6606 133.9195,409.8136 C133.9195,405.2026 131.7055,401.1086 128.2945,398.5066 L128.2945,392.6296 C128.2945,389.9656 126.6995,387.6706 124.4165,386.6366 L127.3725,375.9686 C127.5125,375.3566 127.5765,374.7806 127.5765,374.2026 C127.5765,369.9196 124.0905,366.4346 119.8085,366.4346 C118.3185,366.4346 116.8715,366.8566 115.6245,367.6566 L116.8805,369.6156 C117.7515,369.0566 118.7645,368.7606 119.8085,368.7606 C122.8085,368.7606 125.2495,371.2026 125.2495,374.2026 C125.2495,374.6096 125.2055,375.0126 125.1165,375.4036 L122.1595,386.0716 C122.0115,386.0616 121.8635,386.0486 121.7135,386.0486 L117.7625,386.0486 C117.6605,386.0486 117.5615,386.0596 117.4605,386.0646 L115.7325,379.8486 L113.4895,380.4706 L115.1865,386.5746 C112.8345,387.5796 111.1815,389.9156 111.1815,392.6296 L111.1815,398.4336 C107.7155,401.0316 105.4585,405.1586 105.4585,409.8136 L105.4585,409.8136 Z" id="Fill-29" fill="#3B3735"></path>
            <path d="M52.1405,422.8814 C52.1405,417.2594 56.7145,412.6854 62.3365,412.6854 C67.9585,412.6854 72.5325,417.2594 72.5325,422.8814 C72.5325,428.5034 67.9585,433.0774 62.3365,433.0774 C56.7145,433.0774 52.1405,428.5034 52.1405,422.8814 L52.1405,422.8814 Z M68.9355,412.2594 C67.0165,411.0624 64.7595,410.3594 62.3365,410.3594 C60.2195,410.3594 58.2255,410.8914 56.4755,411.8224 L56.4755,408.1694 C56.4755,405.8244 58.3845,403.9154 60.7305,403.9154 L64.6815,403.9154 C67.0275,403.9154 68.9355,405.8244 68.9355,408.1694 L68.9355,412.2594 Z M49.8135,422.8814 C49.8135,429.7864 55.4315,435.4034 62.3365,435.4034 C69.2415,435.4034 74.8585,429.7864 74.8585,422.8814 C74.8585,419.4694 73.4835,416.3744 71.2625,414.1134 L71.2625,408.1694 C71.2625,405.5054 69.6675,403.2104 67.3845,402.1764 L70.3405,391.5084 C70.4805,390.8964 70.5445,390.3204 70.5445,389.7424 C70.5445,385.4594 67.0585,381.9744 62.7765,381.9744 C58.4925,381.9744 55.0065,385.4594 55.0065,389.7424 L57.3335,389.7424 C57.3335,386.7424 59.7745,384.3004 62.7765,384.3004 C65.7765,384.3004 68.2175,386.7424 68.2175,389.7424 C68.2175,390.1494 68.1735,390.5524 68.0845,390.9434 L65.1275,401.6114 C64.9795,401.6014 64.8315,401.5884 64.6815,401.5884 L60.7305,401.5884 C60.6285,401.5884 60.5285,401.5994 60.4285,401.6044 L59.3545,397.7414 L57.1115,398.3634 L58.1545,402.1144 C55.8025,403.1194 54.1495,405.4554 54.1495,408.1694 L54.1495,413.4284 C51.4995,415.7254 49.8135,419.1074 49.8135,422.8814 L49.8135,422.8814 Z" id="Fill-31" fill="#3B3735"></path>
            <path d="M155.317,271.4417 C161.414,271.4417 166.566,281.7957 166.566,294.0497 C166.566,306.3057 161.414,316.6587 155.317,316.6587 C149.22,316.6587 144.068,306.3057 144.068,294.0497 C144.068,281.7957 149.22,271.4417 155.317,271.4417 L155.317,271.4417 Z M161.423,271.7197 C159.595,270.0637 157.53,269.1147 155.317,269.1147 C153.005,269.1147 150.85,270.1377 148.963,271.9357 L148.963,268.9797 C148.963,266.6337 150.872,264.7257 153.218,264.7257 L157.169,264.7257 C159.515,264.7257 161.423,266.6337 161.423,268.9797 L161.423,271.7197 Z M146.637,274.7367 C143.629,279.2747 141.741,286.1827 141.741,294.0497 C141.741,308.0317 147.704,318.9857 155.317,318.9857 C162.93,318.9857 168.893,308.0317 168.893,294.0497 C168.893,285.9747 166.897,278.9267 163.75,274.3987 L163.75,268.9797 C163.75,266.2647 162.096,263.9297 159.744,262.9247 L160.787,259.1737 L158.544,258.5507 L157.47,262.4147 C157.37,262.4097 157.271,262.3987 157.169,262.3987 L153.218,262.3987 C153.067,262.3987 152.92,262.4117 152.772,262.4217 L149.8,251.6997 C149.725,251.3627 149.681,250.9577 149.681,250.5527 C149.681,247.5517 152.122,245.1107 155.123,245.1107 C158.124,245.1107 160.565,247.5517 160.565,250.5527 L162.892,250.5527 C162.892,246.2697 159.407,242.7837 155.123,242.7837 C150.84,242.7837 147.355,246.2697 147.355,250.5527 C147.355,251.1297 147.418,251.7067 147.544,252.2657 L150.514,262.9867 C148.232,264.0207 146.637,266.3157 146.637,268.9797 L146.637,274.7367 Z" id="Fill-33" fill="#3B3735"></path>
            <path d="M98.1577,254.9749 C103.1697,254.9749 107.4047,263.5739 107.4047,273.7509 C107.4047,283.9289 103.1697,292.5279 98.1577,292.5279 C93.1447,292.5279 88.9097,283.9289 88.9097,273.7509 C88.9097,263.5739 93.1447,254.9749 98.1577,254.9749 L98.1577,254.9749 Z M104.3907,255.8979 C102.6007,253.8439 100.4717,252.6479 98.1577,252.6479 C95.8467,252.6479 93.7197,253.8409 91.9307,255.8899 L91.9307,253.4399 C91.9307,251.0939 93.8397,249.1859 96.1857,249.1859 L100.1367,249.1859 C102.4827,249.1859 104.3907,251.0939 104.3907,253.4399 L104.3907,255.8979 Z M89.6047,259.4299 C87.7257,263.1669 86.5827,268.1659 86.5827,273.7509 C86.5827,285.5839 91.6677,294.8539 98.1577,294.8539 C102.7057,294.8539 106.5547,290.2939 108.4557,283.4989 C113.3537,286.5119 118.5397,289.0629 123.9227,291.0409 L124.7247,288.8569 C119.2477,286.8439 113.9727,284.2329 109.0167,281.1209 C109.4717,278.8329 109.7317,276.3599 109.7317,273.7509 C109.7317,268.1729 108.5917,263.1809 106.7177,259.4439 L106.7177,253.4399 C106.7177,250.7249 105.0647,248.3899 102.7117,247.3849 L104.4097,241.2809 L102.1667,240.6589 L100.4387,246.8749 C100.3377,246.8699 100.2387,246.8589 100.1367,246.8589 L96.1857,246.8589 C96.0347,246.8589 95.8877,246.8719 95.7397,246.8819 L92.7687,236.1599 C92.6937,235.8229 92.6487,235.4179 92.6487,235.0129 C92.6487,232.0119 95.0907,229.5709 98.0907,229.5709 C99.1327,229.5709 100.1457,229.8659 101.0207,230.4269 L102.2747,228.4659 C101.0237,227.6669 99.5777,227.2449 98.0907,227.2449 C93.8077,227.2449 90.3227,230.7299 90.3227,235.0129 C90.3227,235.5899 90.3857,236.1669 90.5127,236.7259 L93.4817,247.4469 C91.1997,248.4809 89.6047,250.7759 89.6047,253.4399 L89.6047,259.4299 Z" id="Fill-35" fill="#3B3735"></path>
            <path d="M131.4842,379.0192 C139.1022,380.5292 147.0732,380.9822 154.8432,380.3622 L155.0292,382.6822 C152.7112,382.8672 150.3492,382.9612 148.0112,382.9612 C142.2992,382.9612 136.5862,382.4022 131.0322,381.3002 L131.4842,379.0192 Z" id="Fill-37" fill="#3B3735"></path>
            <path d="M144.2294,166.7974 C144.2294,172.4194 139.6554,176.9934 134.0334,176.9934 C128.4114,176.9934 123.8374,172.4194 123.8374,166.7974 C123.8374,161.1754 128.4114,156.6014 134.0334,156.6014 C139.6554,156.6014 144.2294,161.1754 144.2294,166.7974 L144.2294,166.7974 Z M140.6314,156.1744 C138.7124,154.9784 136.4564,154.2754 134.0334,154.2754 C131.9164,154.2754 129.9234,154.8074 128.1724,155.7384 L128.1724,152.0844 C128.1724,149.7384 130.0814,147.8304 132.4264,147.8304 L136.3784,147.8304 C138.7234,147.8304 140.6314,149.7384 140.6314,152.0844 L140.6314,156.1744 Z M146.5564,166.7974 C146.5564,163.3844 145.1804,160.2894 142.9584,158.0284 L142.9584,152.0844 C142.9584,149.4204 141.3644,147.1254 139.0824,146.0914 L142.0384,135.4244 C142.1774,134.8114 142.2414,134.2354 142.2414,133.6584 C142.2414,129.3744 138.7564,125.8894 134.4724,125.8894 C130.1894,125.8894 126.7034,129.3744 126.7034,133.6584 L129.0304,133.6584 C129.0304,130.6564 131.4714,128.2154 134.4724,128.2154 C137.4734,128.2154 139.9144,130.6564 139.9144,133.6584 C139.9144,134.0634 139.8704,134.4674 139.7814,134.8594 L136.8244,145.5264 C136.6764,145.5164 136.5284,145.5034 136.3784,145.5034 L132.4264,145.5034 C132.3244,145.5034 132.2254,145.5144 132.1244,145.5194 L131.0514,141.6564 L128.8094,142.2784 L129.8504,146.0294 C127.4984,147.0344 125.8464,149.3694 125.8464,152.0844 L125.8464,157.3444 C123.1964,159.6424 121.5114,163.0234 121.5114,166.7974 C121.5114,173.7024 127.1284,179.3194 134.0334,179.3194 C140.9384,179.3194 146.5564,173.7024 146.5564,166.7974 L146.5564,166.7974 Z" id="Fill-39" fill="#3B3735"></path>
            <g id="Group-43">
                <mask id="mask-2" fill="white">
                    <use xlink:href="#path-1"></use>
                </mask>
                <g id="Clip-42"></g>
                <path d="M124.0353,308.816 C121.8183,308.816 119.7263,309.34 117.8543,310.248 L117.8543,305.862 C117.8543,303.516 119.7623,301.608 122.1083,301.608 L126.0593,301.608 C128.4053,301.608 130.3143,303.516 130.3143,305.862 L130.3143,310.295 C128.4173,309.357 126.2903,308.816 124.0353,308.816 L124.0353,308.816 Z M135.9393,323.046 C135.9393,328.642 132.0533,333.336 126.8403,334.603 C125.2993,334.95 124.2073,334.942 124.2073,334.942 C124.1493,334.942 124.0933,334.95 124.0353,334.95 C117.4713,334.95 112.1323,329.61 112.1323,323.046 C112.1323,316.482 117.4713,311.143 124.0353,311.143 C130.5993,311.143 135.9393,316.482 135.9393,323.046 L135.9393,323.046 Z M124.7013,363.641 L137.1443,344.396 C139.8123,351.167 143.1083,357.602 146.9513,363.641 L124.7013,363.641 Z M156.6633,402.795 L160.1973,380.654 C165.2503,386.012 170.8123,390.869 176.7943,395.157 L156.6633,402.795 Z M204.4423,429.633 L199.3393,407.731 C206.1783,410.583 213.3393,412.774 220.7333,414.248 L204.4423,429.633 Z M3.1413,443.029 L28.2883,397.785 C30.8983,397.996 33.5453,398.109 36.1653,398.109 C45.3363,398.109 54.4113,396.823 63.1353,394.286 L62.4853,392.053 C53.9733,394.527 45.1173,395.783 36.1653,395.783 C33.9623,395.783 31.7423,395.686 29.5393,395.534 L63.4883,334.455 C63.6883,334.095 63.6833,333.656 63.4743,333.301 C63.2653,332.945 62.8843,332.727 62.4713,332.727 L28.6493,332.727 L78.3253,243.353 C81.1963,243.075 84.0673,242.668 86.8673,242.111 L86.4133,239.829 C84.2153,240.266 81.9693,240.588 79.7163,240.849 L87.6743,226.531 C87.8743,226.171 87.8693,225.732 87.6603,225.377 C87.4513,225.021 87.0703,224.803 86.6573,224.803 L54.4703,224.803 L88.3593,163.833 C90.0243,166.04 91.7733,168.168 93.5983,170.216 L87.2253,189.197 C87.0883,189.606 87.1893,190.057 87.4853,190.369 C87.7083,190.603 88.0153,190.73 88.3283,190.73 C88.4333,190.73 88.5403,190.717 88.6433,190.687 L89.4153,190.47 C93.9513,205.449 101.9793,218.885 112.6513,229.823 C108.3253,232.37 103.7633,234.543 99.0073,236.291 L99.8093,238.474 C104.8863,236.608 109.7453,234.264 114.3443,231.513 C122.5343,239.499 132.1743,246.061 142.9183,250.79 L143.8543,248.661 C133.5553,244.128 124.3163,237.849 116.4173,230.243 C127.8773,222.947 137.5573,212.996 144.5653,201.169 C147.7973,201.991 151.0743,202.666 154.3893,203.168 L165.5753,222.097 C165.7853,222.452 166.1663,222.669 166.5773,222.669 L166.5943,222.669 C167.0113,222.663 167.3933,222.433 167.5953,222.068 L177.5983,203.975 C179.5093,203.824 181.4113,203.621 183.2973,203.365 L195.2133,224.803 L163.0263,224.803 C162.6133,224.803 162.2323,225.021 162.0233,225.377 C161.8143,225.732 161.8093,226.171 162.0093,226.531 L179.0063,257.112 C170.3343,256.847 162.5513,254.938 155.4133,252.864 L154.7633,255.098 C162.4283,257.325 170.8273,259.376 180.3193,259.474 L221.0343,332.727 L187.5233,332.727 C187.1113,332.727 186.7293,332.945 186.5203,333.301 C186.3113,333.656 186.3063,334.095 186.5063,334.455 L230.3833,413.395 C185.1613,408.291 147.1843,375.725 135.3743,331.609 C137.1813,329.223 138.2663,326.262 138.2663,323.046 C138.2663,318.435 136.0513,314.341 132.6403,311.739 L132.6403,305.862 C132.6403,303.198 131.0463,300.903 128.7633,299.869 L131.7193,289.202 C131.8593,288.589 131.9223,288.012 131.9223,287.435 C131.9223,283.152 128.4373,279.667 124.1543,279.667 C122.6653,279.667 121.2183,280.089 119.9703,280.889 L121.2243,282.847 C122.0983,282.289 123.1103,281.993 124.1543,281.993 C127.1553,281.993 129.5963,284.435 129.5963,287.435 C129.5963,287.84 129.5523,288.245 129.4633,288.637 L126.5053,299.304 C126.3573,299.294 126.2103,299.281 126.0593,299.281 L122.1083,299.281 C122.0063,299.281 121.9073,299.292 121.8063,299.297 L120.0783,293.081 L117.8363,293.703 L119.5333,299.807 C117.1803,300.812 115.5273,303.147 115.5273,305.862 L115.5273,311.666 C112.0623,314.264 109.8053,318.391 109.8053,323.046 C109.8053,330.648 115.8013,336.859 123.3103,337.24 C118.6313,348.718 111.7913,359.074 103.2043,367.774 C90.3993,359.763 79.8993,348.428 72.8653,334.737 L70.7953,335.8 C77.9333,349.692 88.5443,361.222 101.4783,369.435 C93.5793,377.04 84.3413,383.318 74.0433,387.851 L74.9813,389.98 C85.7163,385.255 95.3483,378.7 103.5323,370.724 C108.1243,373.462 112.9923,375.79 118.0893,377.663 L118.8913,375.479 C114.1193,373.726 109.5593,371.553 105.2413,369.019 C114.1053,359.935 121.1463,349.128 125.8773,337.144 C128.8003,336.763 131.4403,335.495 133.5303,333.616 C134.3003,336.35 135.1663,339.04 136.1293,341.681 L121.5863,364.172 C121.3543,364.53 121.3373,364.986 121.5413,365.36 C121.7453,365.735 122.1373,365.967 122.5633,365.967 L148.4893,365.967 C151.4403,370.362 154.6813,374.535 158.1923,378.457 L154.0493,404.413 C153.9833,404.822 154.1413,405.237 154.4643,405.498 C154.6743,405.669 154.9343,405.759 155.1973,405.759 C155.3363,405.759 155.4763,405.734 155.6103,405.683 L179.1093,396.766 C184.6483,400.534 190.5273,403.816 196.6813,406.569 L202.6363,432.132 C202.7303,432.538 203.0353,432.863 203.4333,432.982 C203.5433,433.016 203.6563,433.032 203.7683,433.032 C204.0623,433.032 204.3483,432.922 204.5673,432.715 L223.5543,414.785 C226.2643,415.254 229.0043,415.617 231.7693,415.888 L246.8553,443.029 L3.1413,443.029 Z M91.2583,468.032 L158.7373,468.032 L158.7373,445.355 L91.2583,445.355 L91.2583,468.032 Z M169.4893,204.306 C171.2733,204.306 173.0603,204.243 174.8433,204.15 L166.5433,219.162 L157.3293,203.568 C161.3423,204.056 165.4023,204.306 169.4893,204.306 L169.4893,204.306 Z M90.1313,187.851 L95.3943,172.18 C99.0963,176.121 103.0923,179.741 107.3333,183.018 L90.1313,187.851 Z M123.3683,210.147 L122.2433,192.593 C127.1513,195.173 132.2643,197.356 137.5353,199.11 L123.3683,210.147 Z M140.2233,199.965 C140.8873,200.166 141.5543,200.36 142.2233,200.547 C135.3313,211.973 125.8643,221.564 114.6853,228.577 C104.0973,217.847 96.1423,204.611 91.6613,189.839 L109.6793,184.776 C112.9353,187.145 116.3243,189.317 119.8283,191.282 L121.1873,212.491 C121.2143,212.921 121.4783,213.301 121.8713,213.478 C122.0243,213.546 122.1873,213.58 122.3483,213.58 C122.6023,213.58 122.8553,213.496 123.0633,213.335 L140.2233,199.965 Z M182.0793,201.172 C177.9273,201.698 173.7033,201.979 169.4893,201.979 C138.0513,201.979 108.2713,186.901 89.5983,161.604 L100.6383,141.741 C103.0273,141.919 105.4483,142.024 107.8623,142.024 C117.0323,142.024 126.1063,140.738 134.8323,138.202 L134.1823,135.969 C125.6693,138.443 116.8133,139.697 107.8623,139.697 C105.8683,139.697 103.8723,139.614 101.8893,139.49 L115.8693,114.338 C118.6083,115.756 121.7073,116.571 124.9973,116.571 C128.1913,116.571 131.2023,115.797 133.8813,114.456 L182.0793,201.172 Z M124.9973,114.245 C115.2923,114.245 107.3963,106.348 107.3963,96.643 C107.3963,86.938 115.2923,79.041 124.9973,79.041 C134.7023,79.041 142.5993,86.938 142.5993,96.643 C142.5993,106.348 134.7023,114.245 124.9973,114.245 L124.9973,114.245 Z M140.1603,53.751 L125.6003,44.921 C125.2303,44.696 124.7643,44.696 124.3943,44.921 L109.8363,53.751 L112.7953,36.222 C112.8613,35.83 112.7223,35.433 112.4273,35.166 L98.2413,22.352 L118.7903,20.274 C119.2393,20.229 119.6203,19.928 119.7703,19.503 L124.9973,4.664 L130.2243,19.503 C130.3743,19.928 130.7563,20.229 131.2043,20.274 L151.7533,22.352 L137.5673,35.166 C137.2723,35.433 137.1333,35.83 137.1993,36.223 L140.1603,53.751 Z M0.1603,444.782 C0.3693,445.137 0.7513,445.355 1.1633,445.355 L88.9323,445.355 L88.9323,469.196 C88.9323,469.839 89.4523,470.36 90.0953,470.36 L159.9013,470.36 C160.5443,470.36 161.0643,469.839 161.0643,469.196 L161.0643,445.355 L248.8323,445.355 C249.2453,445.355 249.6273,445.137 249.8363,444.782 C250.0453,444.426 250.0493,443.988 249.8493,443.628 L189.5013,335.054 L223.0123,335.054 C223.4243,335.054 223.8063,334.836 224.0153,334.48 C224.2243,334.124 224.2283,333.686 224.0283,333.326 L165.0043,227.13 L197.1913,227.13 C197.6033,227.13 197.9853,226.912 198.1943,226.556 C198.4033,226.2 198.4073,225.762 198.2083,225.402 L135.9013,113.303 C141.3293,109.739 144.9253,103.607 144.9253,96.643 C144.9253,86.047 136.6073,77.381 126.1613,76.774 L126.1613,47.982 L141.1273,57.059 C141.5143,57.294 142.0073,57.283 142.3833,57.026 C142.7603,56.771 142.9523,56.32 142.8773,55.871 L139.6003,36.464 L155.2583,22.322 C155.6003,22.014 155.7273,21.533 155.5843,21.096 C155.4413,20.658 155.0533,20.347 154.5953,20.301 L132.1743,18.034 L126.0953,0.777 C125.9313,0.311 125.4903,0 124.9973,0 C124.5043,0 124.0633,0.311 123.9003,0.777 L117.8213,18.034 L95.3993,20.301 C94.9413,20.347 94.5543,20.658 94.4113,21.096 C94.2683,21.533 94.3953,22.014 94.7373,22.322 L110.3953,36.464 L107.1183,55.871 C107.0433,56.32 107.2353,56.771 107.6133,57.026 C107.8093,57.16 108.0373,57.227 108.2663,57.227 C108.4753,57.227 108.6843,57.172 108.8693,57.059 L123.8343,47.982 L123.8343,76.774 C113.3873,77.381 105.0693,86.047 105.0693,96.643 C105.0693,103.511 108.5613,109.578 113.8623,113.163 L51.4763,225.402 C51.2763,225.762 51.2803,226.2 51.4893,226.556 C51.6983,226.912 52.0803,227.13 52.4923,227.13 L84.6793,227.13 L25.6553,333.326 C25.4553,333.686 25.4593,334.124 25.6683,334.48 C25.8773,334.836 26.2593,335.054 26.6723,335.054 L60.4933,335.054 L0.1463,443.628 C-0.0537,443.988 -0.0487,444.426 0.1603,444.782 L0.1603,444.782 Z" id="Fill-41" fill="#3B3735" mask="url(#mask-2)"></path>
            </g>
        </g>
    </g>
</svg>