<?xml version="1.0" encoding="UTF-8"?>
<svg width="161px" height="287px" viewBox="0 0 161 287" version="1.1" xmlns="http://www.w3.org/2000/svg" xmlns:xlink="http://www.w3.org/1999/xlink">
    <title>Group 5Ikoner</title>
    <g id="Page-1" stroke="none" stroke-width="1" fill="none" fill-rule="evenodd">
        <g id="Group-5">
            <path d="M26.3065339,154.069476 L38.0175339,204.317476 L38.0165339,204.305476 C33.6225339,200.627476 27.6125339,198.986476 21.6015339,200.387476 C11.4485339,202.753476 5.13553392,212.903476 7.50153392,223.057476 C9.86853392,233.210476 20.0175339,239.523476 30.1715339,237.157476 C36.1815339,235.756476 40.8455339,231.629476 43.1615339,226.388476 L51.5225339,262.263476 L99.1605339,251.160476 L99.1585339,251.157476 C93.3025339,255.503476 90.2595339,263.056476 92.0195339,270.610476 C94.3865339,280.764476 104.535534,287.077476 114.689534,284.710476 C124.843534,282.344476 131.156534,272.194476 128.789534,262.041476 C127.014534,254.425476 120.862534,248.970476 113.612534,247.717476 L113.790534,247.751476 L159.716534,237.047476 L150.154534,196.021476 C147.990534,201.682476 143.144534,206.201476 136.798534,207.680476 C126.644534,210.046476 116.495534,203.733476 114.128534,193.580476 C111.762534,183.426476 118.075534,173.276476 128.228534,170.910476 C134.453534,169.459476 140.841534,171.109476 145.271534,175.068476 L134.500534,128.853476 L95.0975339,138.037476 L95.0985339,138.042476 C97.1745339,134.148476 97.9035339,129.514476 96.8235339,124.879476 C94.4565339,114.725476 84.3065339,108.413476 74.1535339,110.779476 C63.9995339,113.145476 57.6865339,123.295476 60.0535339,133.449476 C61.1335339,138.083476 63.8345339,141.918476 67.4185339,144.492476 L67.4175339,144.488476 L26.3065339,154.069476 Z" id="Fill-1" fill="#D5E5B3"></path>
            <path d="M97.0682339,136.440176 L133.186234,128.022176 L123.219234,85.2551757 C123.080234,84.8661757 123.167234,84.4141757 123.478234,84.1011757 C123.762234,83.8161757 124.181234,83.7051757 124.569234,83.8151757 C124.792234,83.8781757 124.987234,84.0081757 125.129234,84.1821757 C129.504234,88.5031757 135.675234,90.2481757 141.661234,88.8531757 C151.204234,86.6291757 157.158234,77.0561757 154.934234,67.5141757 C152.710234,57.9711757 143.137234,52.0171757 133.594234,54.2411757 C127.611234,55.6351757 122.850234,59.9261757 120.834234,65.7311757 C120.786234,65.9501757 120.672234,66.1531757 120.502234,66.3111757 C120.208234,66.5801757 119.792234,66.6721757 119.412234,66.5501757 C119.130234,66.4591757 118.892234,66.2571757 118.758234,65.9921757 C118.703234,65.8831757 118.667234,65.7671757 118.649234,65.6481757 L108.474234,21.9861757 L69.4202339,31.0881757 C68.9852339,31.1891757 68.5312339,31.0191757 68.2702339,30.6571757 C68.0092339,30.2941757 67.9912339,29.8101757 68.2252339,29.4291757 L68.2572339,29.3771757 C70.7672339,25.3431757 71.5542339,20.5771757 70.4772339,15.9541757 C68.2532339,6.41117573 58.6802339,0.457175727 49.1372339,2.68117573 C39.5952339,4.90517573 33.6402339,14.4781757 35.8642339,24.0211757 C36.9792339,28.8051757 39.7332339,32.6361757 43.8272339,35.0991757 C44.2142339,35.3311757 44.4212339,35.7751757 44.3512339,36.2211757 C44.2812339,36.6661757 43.9472339,37.0251757 43.5082339,37.1271757 L2.43823392,46.6991757 L11.9752339,87.6201757 C14.6272339,82.4241757 19.4682339,78.5641757 25.2512339,77.2161757 C35.9832339,74.7151757 46.7502339,81.4111757 49.2512339,92.1441757 C51.7522339,102.876176 45.0562339,113.643176 34.3232339,116.144176 C28.5412339,117.492176 22.4922339,116.170176 17.8162339,112.682176 L27.1502339,152.735176 L64.9772339,143.919176 C62.0082339,141.209176 59.9122339,137.652176 58.9912339,133.697176 C56.4892339,122.964176 63.1862339,112.198176 73.9182339,109.697176 C84.6512339,107.195176 95.4172339,113.892176 97.9182339,124.624176 C98.8402339,128.579176 98.5332339,132.697176 97.0682339,136.440176 M99.7672339,252.093176 C94.1242339,256.324176 91.5132339,263.482176 93.1152339,270.355176 C95.3392339,279.898176 104.912234,285.852176 114.455234,283.628176 C123.997234,281.404176 129.951234,271.831176 127.727234,262.288176 C126.120234,255.391176 120.613234,250.137176 113.665234,248.846176 C113.644234,248.843176 113.624234,248.840176 113.604234,248.836176 L113.426234,248.803176 C112.828234,248.691176 112.431234,248.117176 112.539234,247.518176 C112.644234,246.931176 113.193234,246.536176 113.779234,246.616176 L158.402234,236.216176 L149.808234,199.339176 C147.061234,204.062176 142.479234,207.493176 137.067234,208.755176 C126.334234,211.256176 115.568234,204.560176 113.067234,193.827176 C110.565234,183.095176 117.262234,172.329176 127.994234,169.827176 C133.429234,168.561176 139.029234,169.504176 143.516234,172.344176 L133.689234,130.180176 L95.4692339,139.087176 C95.3142339,139.140176 95.1432339,139.159176 94.9702339,139.136176 C94.5132339,139.076176 94.1412339,138.739176 94.0362339,138.289176 C93.9682339,137.997176 94.0222339,137.703176 94.1662339,137.463176 C96.1672339,133.680176 96.7342339,129.302176 95.7612339,125.127176 C93.5372339,115.584176 83.9642339,109.630176 74.4212339,111.854176 C64.8782339,114.078176 58.9242339,123.651176 61.1482339,133.194176 C62.1192339,137.361176 64.5572339,141.033176 68.0162339,143.542176 C68.2582339,143.691176 68.4432339,143.933176 68.5132339,144.232176 C68.6172339,144.682176 68.4332339,145.151176 68.0492339,145.407176 C67.9142339,145.498176 67.7652339,145.555176 67.6082339,145.581176 L27.6532339,154.893176 L39.0962339,203.990176 C39.1172339,204.061176 39.1312339,204.136176 39.1372339,204.211176 C39.1842339,204.790176 38.7792339,205.305176 38.2052339,205.402176 C37.8342339,205.460176 37.4752339,205.329176 37.2322339,205.076176 C32.9152339,201.508176 27.3232339,200.191176 21.8702339,201.462176 C12.3272339,203.686176 6.37323392,213.259176 8.59723392,222.802176 C10.8212339,232.345176 20.3942339,238.299176 29.9362339,236.075176 C35.4262339,234.795176 39.8832339,231.100176 42.1642339,225.937176 C42.3572339,225.501176 42.8092339,225.237176 43.2812339,225.282176 C43.7562339,225.326176 44.1482339,225.669176 44.2562339,226.133176 L52.3662339,260.929176 L98.8362339,250.099176 C99.2532339,249.962176 99.7312339,250.089176 100.027234,250.446176 C100.273234,250.742176 100.348234,251.145176 100.226234,251.508176 C100.143234,251.753176 99.9802339,251.959176 99.7672339,252.093176 M114.957234,285.785176 C104.225234,288.287176 93.4592339,281.590176 90.9572339,270.858176 C89.4802339,264.518176 91.1902339,257.963176 95.3542339,253.185176 L51.7902339,263.338176 C51.1942339,263.477176 50.5992339,263.107176 50.4602339,262.511176 L42.7672339,229.503176 C39.9822339,233.905176 35.6192339,237.025176 30.4392339,238.232176 C19.7072339,240.733176 8.94123392,234.037176 6.44023392,223.305176 C3.93823392,212.572176 10.6352339,201.806176 21.3672339,199.305176 C26.5472339,198.097176 31.8392339,198.967176 36.2842339,201.684176 L14.8812339,109.851176 C14.8412339,109.727176 14.8232339,109.595176 14.8282339,109.462176 C14.8412339,109.166176 14.9722339,108.888176 15.1912339,108.689176 C15.4822339,108.427176 15.8922339,108.334176 16.2672339,108.452176 C16.4832339,108.519176 16.6692339,108.649176 16.8062339,108.820176 C21.1402339,113.445176 27.6512339,115.424176 33.8212339,113.986176 C43.3632339,111.762176 49.3172339,102.190176 47.0932339,92.6471757 C44.8692339,83.1041757 35.2972339,77.1501757 25.7542339,79.3741757 C19.5962339,80.8091757 14.6382339,85.4481757 12.7872339,91.4951757 C12.7462339,91.7261757 12.6332339,91.9421757 12.4572339,92.1081757 C12.1722339,92.3791757 11.7642339,92.4781757 11.3862339,92.3671757 C11.1032339,92.2851757 10.8602339,92.0921757 10.7202339,91.8331757 C10.6542339,91.7131757 10.6122339,91.5831757 10.5932339,91.4511757 L0.0292339187,46.1231757 C-0.109766081,45.5271757 0.260233919,44.9321757 0.856233919,44.7931757 L40.5802339,35.5351757 C37.1492339,32.7981757 34.7432339,28.9681757 33.7072339,24.5241757 C31.2062339,13.7911757 37.9022339,3.02517573 48.6342339,0.524175727 C59.3672339,-1.97782427 70.1332339,4.71917573 72.6342339,15.4511757 C73.6582339,19.8421757 73.1852339,24.3471757 71.3162339,28.3711757 L109.050234,19.5771757 C109.646234,19.4381757 110.241234,19.8091757 110.380234,20.4041757 L120.071234,61.9861757 C122.770234,57.0061757 127.447234,53.3991757 133.092234,52.0831757 C143.824234,49.5821757 154.590234,56.2781757 157.092234,67.0111757 C159.593234,77.7431757 152.896234,88.5091757 142.164234,91.0111757 C136.520234,92.3261757 130.730234,91.1591757 126.107234,87.8851757 L146.366234,174.813176 C146.476234,175.284176 146.268234,175.771176 145.853234,176.017176 C145.436234,176.263176 144.910234,176.212176 144.549234,175.891176 C140.300234,172.093176 134.299234,170.633176 128.497234,171.985176 C118.954234,174.209176 113.000234,183.782176 115.224234,193.324176 C117.448234,202.867176 127.021234,208.821176 136.564234,206.597176 C142.322234,205.255176 147.022234,201.153176 149.136234,195.622176 C149.311234,195.167176 149.762234,194.879176 150.246234,194.913176 C150.732234,194.946176 151.139234,195.292176 151.250234,195.766176 L160.811234,236.792176 C160.950234,237.388176 160.580234,237.984176 159.984234,238.122176 L118.132234,247.876176 C123.980234,250.316176 128.404234,255.431176 129.885234,261.785176 C132.386234,272.518176 125.690234,283.284176 114.957234,285.785176" id="Fill-3" fill="#3B3735"></path>
        </g>
    </g>
</svg>