{
	"typography": {
		"body": {
			"font-size": {
				"desktop": {
					"value": "{global.typography.font-size.base.value}",
					"name": "",
					"comment": ""
				},
				"desktop-large": {
					"value": "{global.typography.font-size.large.value}",
					"name": "",
					"comment": ""
				},
				"mobile": {
					"value": "{global.typography.font-size.base.value}",
					"name": "",
					"comment": ""
				}
			},
			"font-weight": {
				"desktop": {
					"value": "{global.typography.font-weight.regular.value}",
					"name": "",
					"comment": ""
				},
				"desktop-large": {
					"value": "{global.typography.font-weight.regular.value}",
					"name": "",
					"comment": ""
				},
				"mobile": {
					"value": "{global.typography.font-weight.regular.value}",
					"name": "",
					"comment": ""
				}
			},
			"line-height": {
				"desktop": {
					"value": "{global.typography.line-height.base.value}",
					"name": "",
					"comment": ""
				},
				"desktop-large": {
					"value": "{global.typography.line-height.base.value}",
					"name": "",
					"comment": ""
				},
				"mobile": {
					"value": "{global.typography.line-height.base.value}",
					"name": "",
					"comment": ""
				}
			},
			"text-decoration": {
				"desktop": {
					"value": "{global.typography.text-decoration.default.value}",
					"name": "",
					"comment": ""
				},
				"desktop-large": {
					"value": "{global.typography.text-decoration.default.value}",
					"name": "",
					"comment": ""
				},
				"mobile": {
					"value": "{global.typography.text-decoration.default.value}",
					"name": "",
					"comment": ""
				}
			}
		},
		"description": {
			"font-size": {
				"desktop": {
					"value": "{global.typography.font-size.base.value}",
					"name": "",
					"comment": ""
				},
				"desktop-large": {
					"value": "{global.typography.font-size.large.value}",
					"name": "",
					"comment": ""
				},
				"mobile": {
					"value": "{global.typography.font-size.base.value}",
					"name": "",
					"comment": ""
				}
			},
			"font-weight": {
				"desktop": {
					"value": "{global.typography.font-weight.semibold.value}",
					"name": "",
					"comment": ""
				},
				"desktop-large": {
					"value": "{global.typography.font-weight.semibold.value}",
					"name": "",
					"comment": ""
				},
				"mobile": {
					"value": "{global.typography.font-weight.semibold.value}",
					"name": "",
					"comment": ""
				}
			},
			"line-height": {
				"desktop": {
					"value": "{global.typography.line-height.base.value}",
					"name": "",
					"comment": ""
				},
				"desktop-large": {
					"value": "{global.typography.line-height.base.value}",
					"name": "",
					"comment": ""
				},
				"mobile": {
					"value": "{global.typography.line-height.base.value}",
					"name": "",
					"comment": ""
				}
			},
			"text-decoration": {
				"desktop": {
					"value": "{global.typography.text-decoration.default.value}",
					"name": "",
					"comment": ""
				},
				"desktop-large": {
					"value": "{global.typography.text-decoration.default.value}",
					"name": "",
					"comment": ""
				},
				"mobile": {
					"value": "{global.typography.text-decoration.default.value}",
					"name": "",
					"comment": ""
				}
			}
		},
		"heading-1": {
			"font-size": {
				"desktop": {
					"value": "{global.typography.font-size.largest-4.value}",
					"name": "",
					"comment": ""
				},
				"desktop-large": {
					"value": "{global.typography.font-size.largest-6.value}",
					"name": "",
					"comment": ""
				},
				"mobile": {
					"value": "{global.typography.font-size.largest-3.value}",
					"name": "",
					"comment": ""
				}
			},
			"font-weight": {
				"desktop": {
					"value": "{global.typography.font-weight.semibold.value}",
					"name": "",
					"comment": ""
				},
				"desktop-large": {
					"value": "{global.typography.font-weight.semibold.value}",
					"name": "",
					"comment": ""
				},
				"mobile": {
					"value": "{global.typography.font-weight.semibold.value}",
					"name": "",
					"comment": ""
				}
			},
			"line-height": {
				"desktop": {
					"value": "{global.typography.line-height.base.value}",
					"name": "",
					"comment": ""
				},
				"desktop-large": {
					"value": "{global.typography.line-height.base.value}",
					"name": "",
					"comment": ""
				},
				"mobile": {
					"value": "{global.typography.line-height.base.value}",
					"name": "",
					"comment": ""
				}
			},
			"text-decoration": {
				"desktop": {
					"value": "{global.typography.text-decoration.default.value}",
					"name": "",
					"comment": ""
				},
				"desktop-large": {
					"value": "{global.typography.text-decoration.default.value}",
					"name": "",
					"comment": ""
				},
				"mobile": {
					"value": "{global.typography.text-decoration.default.value}",
					"name": "",
					"comment": ""
				}
			}
		},
		"heading-2": {
			"font-size": {
				"desktop": {
					"value": "{global.typography.font-size.largest-2.value}",
					"name": "",
					"comment": ""
				},
				"desktop-large": {
					"value": "{global.typography.font-size.largest-3.value}",
					"name": "",
					"comment": ""
				},
				"mobile": {
					"value": "{global.typography.font-size.largest.value}",
					"name": "",
					"comment": ""
				}
			},
			"font-weight": {
				"desktop": {
					"value": "{global.typography.font-weight.semibold.value}",
					"name": "",
					"comment": ""
				},
				"desktop-large": {
					"value": "{global.typography.font-weight.semibold.value}",
					"name": "",
					"comment": ""
				},
				"mobile": {
					"value": "{global.typography.font-weight.semibold.value}",
					"name": "",
					"comment": ""
				}
			},
			"line-height": {
				"desktop": {
					"value": "{global.typography.line-height.base.value}",
					"name": "",
					"comment": ""
				},
				"desktop-large": {
					"value": "{global.typography.line-height.base.value}",
					"name": "",
					"comment": ""
				},
				"mobile": {
					"value": "{global.typography.line-height.base.value}",
					"name": "",
					"comment": ""
				}
			},
			"text-decoration": {
				"desktop": {
					"value": "{global.typography.text-decoration.default.value}",
					"name": "",
					"comment": ""
				},
				"desktop-large": {
					"value": "{global.typography.text-decoration.default.value}",
					"name": "",
					"comment": ""
				},
				"mobile": {
					"value": "{global.typography.text-decoration.default.value}",
					"name": "",
					"comment": ""
				}
			}
		},
		"heading-3": {
			"font-size": {
				"desktop": {
					"value": "{global.typography.font-size.larger.value}",
					"name": "",
					"comment": ""
				},
				"desktop-large": {
					"value": "{global.typography.font-size.largest.value}",
					"name": "",
					"comment": ""
				},
				"mobile": {
					"value": "{global.typography.font-size.large.value}",
					"name": "",
					"comment": ""
				}
			},
			"font-weight": {
				"desktop": {
					"value": "{global.typography.font-weight.semibold.value}",
					"name": "",
					"comment": ""
				},
				"desktop-large": {
					"value": "{global.typography.font-weight.semibold.value}",
					"name": "",
					"comment": ""
				},
				"mobile": {
					"value": "{global.typography.font-weight.semibold.value}",
					"name": "",
					"comment": ""
				}
			},
			"line-height": {
				"desktop": {
					"value": "{global.typography.line-height.base.value}",
					"name": "",
					"comment": ""
				},
				"desktop-large": {
					"value": "{global.typography.line-height.base.value}",
					"name": "",
					"comment": ""
				},
				"mobile": {
					"value": "{global.typography.line-height.base.value}",
					"name": "",
					"comment": ""
				}
			},
			"text-decoration": {
				"desktop": {
					"value": "{global.typography.text-decoration.default.value}",
					"name": "",
					"comment": ""
				},
				"desktop-large": {
					"value": "{global.typography.text-decoration.default.value}",
					"name": "",
					"comment": ""
				},
				"mobile": {
					"value": "{global.typography.text-decoration.default.value}",
					"name": "",
					"comment": ""
				}
			}
		},
		"heading-4": {
			"font-size": {
				"desktop": {
					"value": "{global.typography.font-size.base.value}",
					"name": "",
					"comment": ""
				},
				"desktop-large": {
					"value": "{global.typography.font-size.large.value}",
					"name": "",
					"comment": ""
				},
				"mobile": {
					"value": "{global.typography.font-size.base.value}",
					"name": "",
					"comment": ""
				}
			},
			"font-weight": {
				"desktop": {
					"value": "{global.typography.font-weight.semibold.value}",
					"name": "",
					"comment": ""
				},
				"desktop-large": {
					"value": "{global.typography.font-weight.semibold.value}",
					"name": "",
					"comment": ""
				},
				"mobile": {
					"value": "{global.typography.font-weight.semibold.value}",
					"name": "",
					"comment": ""
				}
			},
			"line-height": {
				"desktop": {
					"value": "{global.typography.line-height.base.value}",
					"name": "",
					"comment": ""
				},
				"desktop-large": {
					"value": "{global.typography.line-height.base.value}",
					"name": "",
					"comment": ""
				},
				"mobile": {
					"value": "{global.typography.line-height.base.value}",
					"name": "",
					"comment": ""
				}
			},
			"text-decoration": {
				"desktop": {
					"value": "{global.typography.text-decoration.default.value}",
					"name": "",
					"comment": ""
				},
				"desktop-large": {
					"value": "{global.typography.text-decoration.default.value}",
					"name": "",
					"comment": ""
				},
				"mobile": {
					"value": "{global.typography.text-decoration.default.value}",
					"name": "",
					"comment": ""
				}
			}
		},
		"heading-jumbo": {
			"font-size": {
				"desktop": {
					"value": "{global.typography.font-size.largest-4.value}",
					"name": "",
					"comment": ""
				},
				"desktop-large": {
					"value": "{global.typography.font-size.largest-6.value}",
					"name": "",
					"comment": ""
				},
				"mobile": {
					"value": "{global.typography.font-size.largest-3.value}",
					"name": "",
					"comment": ""
				}
			},
			"font-weight": {
				"desktop": {
					"value": "{global.typography.font-weight.semibold.value}",
					"name": "",
					"comment": ""
				},
				"desktop-large": {
					"value": "{global.typography.font-weight.semibold.value}",
					"name": "",
					"comment": ""
				},
				"mobile": {
					"value": "{global.typography.font-weight.semibold.value}",
					"name": "",
					"comment": ""
				}
			},
			"line-height": {
				"desktop": {
					"value": "{global.typography.line-height.base.value}",
					"name": "",
					"comment": ""
				},
				"desktop-large": {
					"value": "{global.typography.line-height.base.value}",
					"name": "",
					"comment": ""
				},
				"mobile": {
					"value": "{global.typography.line-height.base.value}",
					"name": "",
					"comment": ""
				}
			},
			"text-decoration": {
				"desktop": {
					"value": "{global.typography.text-decoration.default.value}",
					"name": "",
					"comment": ""
				},
				"desktop-large": {
					"value": "{global.typography.text-decoration.default.value}",
					"name": "",
					"comment": ""
				},
				"mobile": {
					"value": "{global.typography.text-decoration.default.value}",
					"name": "",
					"comment": ""
				}
			}
		},
		"input": {
			"font-size": {
				"desktop": {
					"value": "{global.typography.font-size.base.value}",
					"name": "",
					"comment": ""
				},
				"desktop-large": {
					"value": "{global.typography.font-size.large.value}",
					"name": "",
					"comment": ""
				},
				"mobile": {
					"value": "{global.typography.font-size.base.value}",
					"name": "",
					"comment": ""
				}
			},
			"font-weight": {
				"desktop": {
					"value": "{global.typography.font-weight.regular.value}",
					"name": "",
					"comment": ""
				},
				"desktop-large": {
					"value": "{global.typography.font-weight.regular.value}",
					"name": "",
					"comment": ""
				},
				"mobile": {
					"value": "{global.typography.font-weight.regular.value}",
					"name": "",
					"comment": ""
				}
			},
			"line-height": {
				"desktop": {
					"value": "{global.typography.line-height.base.value}",
					"name": "",
					"comment": ""
				},
				"desktop-large": {
					"value": "{global.typography.line-height.base.value}",
					"name": "",
					"comment": ""
				},
				"mobile": {
					"value": "{global.typography.line-height.base.value}",
					"name": "",
					"comment": ""
				}
			},
			"text-decoration": {
				"desktop": {
					"value": "{global.typography.text-decoration.default.value}",
					"name": "",
					"comment": ""
				},
				"desktop-large": {
					"value": "{global.typography.text-decoration.default.value}",
					"name": "",
					"comment": ""
				},
				"mobile": {
					"value": "{global.typography.text-decoration.default.value}",
					"name": "",
					"comment": ""
				}
			}
		},
		"label": {
			"font-size": {
				"desktop": {
					"value": "{global.typography.font-size.base.value}",
					"name": "",
					"comment": ""
				},
				"desktop-large": {
					"value": "{global.typography.font-size.large.value}",
					"name": "",
					"comment": ""
				},
				"mobile": {
					"value": "{global.typography.font-size.base.value}",
					"name": "",
					"comment": ""
				}
			},
			"font-weight": {
				"desktop": {
					"value": "{global.typography.font-weight.semibold.value}",
					"name": "",
					"comment": ""
				},
				"desktop-large": {
					"value": "{global.typography.font-weight.semibold.value}",
					"name": "",
					"comment": ""
				},
				"mobile": {
					"value": "{global.typography.font-weight.semibold.value}",
					"name": "",
					"comment": ""
				}
			},
			"line-height": {
				"desktop": {
					"value": "{global.typography.line-height.base.value}",
					"name": "",
					"comment": ""
				},
				"desktop-large": {
					"value": "{global.typography.line-height.base.value}",
					"name": "",
					"comment": ""
				},
				"mobile": {
					"value": "{global.typography.line-height.base.value}",
					"name": "",
					"comment": ""
				}
			},
			"text-decoration": {
				"desktop": {
					"value": "{global.typography.text-decoration.default.value}",
					"name": "",
					"comment": ""
				},
				"desktop-large": {
					"value": "{global.typography.text-decoration.default.value}",
					"name": "",
					"comment": ""
				},
				"mobile": {
					"value": "{global.typography.text-decoration.default.value}",
					"name": "",
					"comment": ""
				}
			}
		},
		"label-description": {
			"font-size": {
				"desktop": {
					"value": "{global.typography.font-size.base.value}",
					"name": "",
					"comment": ""
				},
				"desktop-large": {
					"value": "{global.typography.font-size.large.value}",
					"name": "",
					"comment": ""
				},
				"mobile": {
					"value": "{global.typography.font-size.base.value}",
					"name": "",
					"comment": ""
				}
			},
			"font-weight": {
				"desktop": {
					"value": "{global.typography.font-weight.semibold.value}",
					"name": "",
					"comment": ""
				},
				"desktop-large": {
					"value": "{global.typography.font-weight.semibold.value}",
					"name": "",
					"comment": ""
				},
				"mobile": {
					"value": "{global.typography.font-weight.semibold.value}",
					"name": "",
					"comment": ""
				}
			},
			"line-height": {
				"desktop": {
					"value": "{global.typography.line-height.base.value}",
					"name": "",
					"comment": ""
				},
				"desktop-large": {
					"value": "{global.typography.line-height.base.value}",
					"name": "",
					"comment": ""
				},
				"mobile": {
					"value": "{global.typography.line-height.base.value}",
					"name": "",
					"comment": ""
				}
			},
			"text-decoration": {
				"desktop": {
					"value": "{global.typography.text-decoration.default.value}",
					"name": "",
					"comment": ""
				},
				"desktop-large": {
					"value": "{global.typography.text-decoration.default.value}",
					"name": "",
					"comment": ""
				},
				"mobile": {
					"value": "{global.typography.text-decoration.default.value}",
					"name": "",
					"comment": ""
				}
			}
		},
		"link": {
			"font-size": {
				"desktop": {
					"value": "{global.typography.font-size.base.value}",
					"name": "",
					"comment": ""
				},
				"desktop-large": {
					"value": "{global.typography.font-size.large.value}",
					"name": "",
					"comment": ""
				},
				"mobile": {
					"value": "{global.typography.font-size.base.value}",
					"name": "",
					"comment": ""
				}
			},
			"font-weight": {
				"desktop": {
					"value": "{global.typography.font-weight.regular.value}",
					"name": "",
					"comment": ""
				},
				"desktop-large": {
					"value": "{global.typography.font-weight.regular.value}",
					"name": "",
					"comment": ""
				},
				"mobile": {
					"value": "{global.typography.font-weight.regular.value}",
					"name": "",
					"comment": ""
				}
			},
			"line-height": {
				"desktop": {
					"value": "{global.typography.line-height.base.value}",
					"name": "",
					"comment": ""
				},
				"desktop-large": {
					"value": "{global.typography.line-height.base.value}",
					"name": "",
					"comment": ""
				},
				"mobile": {
					"value": "{global.typography.line-height.base.value}",
					"name": "",
					"comment": ""
				}
			},
			"text-decoration": {
				"desktop": {
					"value": "{global.typography.text-decoration.link.value}",
					"name": "",
					"comment": ""
				},
				"desktop-large": {
					"value": "{global.typography.text-decoration.link.value}",
					"name": "",
					"comment": ""
				},
				"mobile": {
					"value": "{global.typography.text-decoration.link.value}",
					"name": "",
					"comment": ""
				}
			}
		},
		"link-bold": {
			"font-size": {
				"desktop": {
					"value": "{global.typography.font-size.base.value}",
					"name": "",
					"comment": ""
				},
				"desktop-large": {
					"value": "{global.typography.font-size.large.value}",
					"name": "",
					"comment": ""
				},
				"mobile": {
					"value": "{global.typography.font-size.base.value}",
					"name": "",
					"comment": ""
				}
			},
			"font-weight": {
				"desktop": {
					"value": "{global.typography.font-weight.semibold.value}",
					"name": "",
					"comment": ""
				},
				"desktop-large": {
					"value": "{global.typography.font-weight.semibold.value}",
					"name": "",
					"comment": ""
				},
				"mobile": {
					"value": "{global.typography.font-weight.semibold.value}",
					"name": "",
					"comment": ""
				}
			},
			"line-height": {
				"desktop": {
					"value": "{global.typography.line-height.base.value}",
					"name": "",
					"comment": ""
				},
				"desktop-large": {
					"value": "{global.typography.line-height.base.value}",
					"name": "",
					"comment": ""
				},
				"mobile": {
					"value": "{global.typography.line-height.base.value}",
					"name": "",
					"comment": ""
				}
			},
			"text-decoration": {
				"desktop": {
					"value": "{global.typography.text-decoration.link.value}",
					"name": "",
					"comment": ""
				},
				"desktop-large": {
					"value": "{global.typography.text-decoration.link.value}",
					"name": "",
					"comment": ""
				},
				"mobile": {
					"value": "{global.typography.text-decoration.link.value}",
					"name": "",
					"comment": ""
				}
			}
		},
		"placeholder": {
			"font-size": {
				"desktop": {
					"value": "{global.typography.font-size.base.value}",
					"name": "",
					"comment": ""
				},
				"desktop-large": {
					"value": "{global.typography.font-size.large.value}",
					"name": "",
					"comment": ""
				},
				"mobile": {
					"value": "{global.typography.font-size.base.value}",
					"name": "",
					"comment": ""
				}
			},
			"font-weight": {
				"desktop": {
					"value": "{global.typography.font-weight.regular.value}",
					"name": "",
					"comment": ""
				},
				"desktop-large": {
					"value": "{global.typography.font-weight.regular.value}",
					"name": "",
					"comment": ""
				},
				"mobile": {
					"value": "{global.typography.font-weight.regular.value}",
					"name": "",
					"comment": ""
				}
			},
			"line-height": {
				"desktop": {
					"value": "{global.typography.line-height.base.value}",
					"name": "",
					"comment": ""
				},
				"desktop-large": {
					"value": "{global.typography.line-height.base.value}",
					"name": "",
					"comment": ""
				},
				"mobile": {
					"value": "{global.typography.line-height.base.value}",
					"name": "",
					"comment": ""
				}
			},
			"text-decoration": {
				"desktop": {
					"value": "{global.typography.text-decoration.default.value}",
					"name": "",
					"comment": ""
				},
				"desktop-large": {
					"value": "{global.typography.text-decoration.default.value}",
					"name": "",
					"comment": ""
				},
				"mobile": {
					"value": "{global.typography.text-decoration.default.value}",
					"name": "",
					"comment": ""
				}
			}
		},
		"preamble": {
			"font-size": {
				"desktop": {
					"value": "{global.typography.font-size.base.value}",
					"name": "",
					"comment": ""
				},
				"desktop-large": {
					"value": "{global.typography.font-size.large.value}",
					"name": "",
					"comment": ""
				},
				"mobile": {
					"value": "{global.typography.font-size.base.value}",
					"name": "",
					"comment": ""
				}
			},
			"font-weight": {
				"desktop": {
					"value": "{global.typography.font-weight.semibold.value}",
					"name": "",
					"comment": ""
				},
				"desktop-large": {
					"value": "{global.typography.font-weight.semibold.value}",
					"name": "",
					"comment": ""
				},
				"mobile": {
					"value": "{global.typography.font-weight.semibold.value}",
					"name": "",
					"comment": ""
				}
			},
			"line-height": {
				"desktop": {
					"value": "{global.typography.line-height.base.value}",
					"name": "",
					"comment": ""
				},
				"desktop-large": {
					"value": "{global.typography.line-height.base.value}",
					"name": "",
					"comment": ""
				},
				"mobile": {
					"value": "{global.typography.line-height.base.value}",
					"name": "",
					"comment": ""
				}
			},
			"text-decoration": {
				"desktop": {
					"value": "{global.typography.text-decoration.default.value}",
					"name": "",
					"comment": ""
				},
				"desktop-large": {
					"value": "{global.typography.text-decoration.default.value}",
					"name": "",
					"comment": ""
				},
				"mobile": {
					"value": "{global.typography.text-decoration.default.value}",
					"name": "",
					"comment": ""
				}
			}
		},
		"accordion": {
			"font-size": {
				"desktop": {
					"value": "{global.typography.font-size.base.value}",
					"name": "",
					"comment": ""
				},
				"desktop-large": {
					"value": "{global.typography.font-size.large.value}",
					"name": "",
					"comment": ""
				},
				"mobile": {
					"value": "{global.typography.font-size.base.value}",
					"name": "",
					"comment": ""
				}
			},
			"font-weight": {
				"desktop": {
					"value": "{global.typography.font-weight.semibold.value}",
					"name": "",
					"comment": ""
				},
				"desktop-large": {
					"value": "{global.typography.font-weight.semibold.value}",
					"name": "",
					"comment": ""
				},
				"mobile": {
					"value": "{global.typography.font-weight.semibold.value}",
					"name": "",
					"comment": ""
				}
			},
			"line-height": {
				"desktop": {
					"value": "{global.typography.line-height.base.value}",
					"name": "",
					"comment": ""
				},
				"desktop-large": {
					"value": "{global.typography.line-height.base.value}",
					"name": "",
					"comment": ""
				},
				"mobile": {
					"value": "{global.typography.line-height.base.value}",
					"name": "",
					"comment": ""
				}
			},
			"text-decoration": {
				"desktop": {
					"value": "{global.typography.text-decoration.default.value}",
					"name": "",
					"comment": ""
				},
				"desktop-large": {
					"value": "{global.typography.text-decoration.default.value}",
					"name": "",
					"comment": ""
				},
				"mobile": {
					"value": "{global.typography.text-decoration.default.value}",
					"name": "",
					"comment": ""
				}
			}
		},
		"tag": {
			"font-size": {
				"desktop": {
					"value": "{global.typography.font-size.small.value}",
					"name": "",
					"comment": ""
				},
				"desktop-large": {
					"value": "{global.typography.font-size.small.value}",
					"name": "",
					"comment": ""
				},
				"mobile": {
					"value": "{global.typography.font-size.small.value}",
					"name": "",
					"comment": ""
				}
			},
			"font-weight": {
				"desktop": {
					"value": "{global.typography.font-weight.regular.value}",
					"name": "",
					"comment": ""
				},
				"desktop-large": {
					"value": "{global.typography.font-weight.regular.value}",
					"name": "",
					"comment": ""
				},
				"mobile": {
					"value": "{global.typography.font-weight.regular.value}",
					"name": "",
					"comment": ""
				}
			},
			"line-height": {
				"desktop": {
					"value": "{global.typography.line-height.base.value}",
					"name": "",
					"comment": ""
				},
				"desktop-large": {
					"value": "{global.typography.line-height.base.value}",
					"name": "",
					"comment": ""
				},
				"mobile": {
					"value": "{global.typography.line-height.base.value}",
					"name": "",
					"comment": ""
				}
			},
			"text-decoration": {
				"desktop": {
					"value": "{global.typography.text-decoration.default.value}",
					"name": "",
					"comment": ""
				},
				"desktop-large": {
					"value": "{global.typography.text-decoration.default.value}",
					"name": "",
					"comment": ""
				},
				"mobile": {
					"value": "{global.typography.text-decoration.default.value}",
					"name": "",
					"comment": ""
				}
			}
		},
		"breadcrumbs": {
			"font-size": {
				"desktop": {
					"value": "{global.typography.font-size.small.value}",
					"name": "",
					"comment": ""
				},
				"desktop-large": {
					"value": "{global.typography.font-size.small.value}",
					"name": "",
					"comment": ""
				},
				"mobile": {
					"value": "{global.typography.font-size.small.value}",
					"name": "",
					"comment": ""
				}
			},
			"font-weight": {
				"desktop": {
					"value": "{global.typography.font-weight.regular.value}",
					"name": "",
					"comment": ""
				},
				"desktop-large": {
					"value": "{global.typography.font-weight.regular.value}",
					"name": "",
					"comment": ""
				},
				"mobile": {
					"value": "{global.typography.font-weight.regular.value}",
					"name": "",
					"comment": ""
				}
			},
			"line-height": {
				"desktop": {
					"value": "{global.typography.line-height.base.value}",
					"name": "",
					"comment": ""
				},
				"desktop-large": {
					"value": "{global.typography.line-height.base.value}",
					"name": "",
					"comment": ""
				},
				"mobile": {
					"value": "{global.typography.line-height.base.value}",
					"name": "",
					"comment": ""
				}
			},
			"text-decoration": {
				"desktop": {
					"value": "{global.typography.text-decoration.default.value}",
					"name": "",
					"comment": ""
				},
				"desktop-large": {
					"value": "{global.typography.text-decoration.default.value}",
					"name": "",
					"comment": ""
				},
				"mobile": {
					"value": "{global.typography.text-decoration.default.value}",
					"name": "",
					"comment": ""
				}
			}
		},
		"title-logo": {
			"font-size": {
				"desktop": {
					"value": "{global.typography.font-size.largest-5.value}",
					"name": "",
					"comment": ""
				},
				"desktop-large": {
					"value": "{global.typography.font-size.largest-5.value}",
					"name": "",
					"comment": ""
				},
				"mobile": {
					"value": "{global.typography.font-size.largest-3.value}",
					"name": "",
					"comment": ""
				}
			},
			"font-weight": {
				"desktop": {
					"value": "{global.typography.font-weight.bold.value}",
					"name": "",
					"comment": ""
				},
				"desktop-large": {
					"value": "{global.typography.font-weight.bold.value}",
					"name": "",
					"comment": ""
				},
				"mobile": {
					"value": "{global.typography.font-weight.bold.value}",
					"name": "",
					"comment": ""
				}
			},
			"line-height": {
				"desktop": {
					"value": "{global.typography.line-height.small.value}",
					"name": "",
					"comment": ""
				},
				"desktop-large": {
					"value": "{global.typography.line-height.small.value}",
					"name": "",
					"comment": ""
				},
				"mobile": {
					"value": "{global.typography.line-height.small.value}",
					"name": "",
					"comment": ""
				}
			},
			"text-decoration": {
				"desktop": {
					"value": "{global.typography.text-decoration.default.value}",
					"name": "",
					"comment": ""
				},
				"desktop-large": {
					"value": "{global.typography.text-decoration.default.value}",
					"name": "",
					"comment": ""
				},
				"mobile": {
					"value": "{global.typography.text-decoration.default.value}",
					"name": "",
					"comment": ""
				}
			}
		},
		"vertical-menu-level-1": {
			"font-size": {
				"desktop": {
					"value": "{global.typography.font-size.large.value}",
					"name": "",
					"comment": ""
				},
				"desktop-large": {
					"value": "{global.typography.font-size.larger.value}",
					"name": "",
					"comment": ""
				},
				"mobile": {
					"value": "{global.typography.font-size.large.value}",
					"name": "",
					"comment": ""
				}
			},
			"font-weight": {
				"desktop": {
					"value": "{global.typography.font-weight.bold.value}",
					"name": "",
					"comment": ""
				},
				"desktop-large": {
					"value": "{global.typography.font-weight.bold.value}",
					"name": "",
					"comment": ""
				},
				"mobile": {
					"value": "{global.typography.font-weight.bold.value}",
					"name": "",
					"comment": ""
				}
			},
			"line-height": {
				"desktop": {
					"value": "{global.typography.line-height.base.value}",
					"name": "",
					"comment": ""
				},
				"desktop-large": {
					"value": "{global.typography.line-height.base.value}",
					"name": "",
					"comment": ""
				},
				"mobile": {
					"value": "{global.typography.line-height.base.value}",
					"name": "",
					"comment": ""
				}
			},
			"text-decoration": {
				"desktop": {
					"value": "{global.typography.text-decoration.default.value}",
					"name": "",
					"comment": ""
				},
				"desktop-large": {
					"value": "{global.typography.text-decoration.default.value}",
					"name": "",
					"comment": ""
				},
				"mobile": {
					"value": "{global.typography.text-decoration.default.value}",
					"name": "",
					"comment": ""
				}
			}
		},
		"vertical-menu-level-2": {
			"font-size": {
				"desktop": {
					"value": "{global.typography.font-size.base.value}",
					"name": "",
					"comment": ""
				},
				"desktop-large": {
					"value": "{global.typography.font-size.large.value}",
					"name": "",
					"comment": ""
				},
				"mobile": {
					"value": "{global.typography.font-size.base.value}",
					"name": "",
					"comment": ""
				}
			},
			"font-weight": {
				"desktop": {
					"value": "{global.typography.font-weight.regular.value}",
					"name": "",
					"comment": ""
				},
				"desktop-large": {
					"value": "{global.typography.font-weight.regular.value}",
					"name": "",
					"comment": ""
				},
				"mobile": {
					"value": "{global.typography.font-weight.regular.value}",
					"name": "",
					"comment": ""
				}
			},
			"line-height": {
				"desktop": {
					"value": "{global.typography.line-height.base.value}",
					"name": "",
					"comment": ""
				},
				"desktop-large": {
					"value": "{global.typography.line-height.base.value}",
					"name": "",
					"comment": ""
				},
				"mobile": {
					"value": "{global.typography.line-height.base.value}",
					"name": "",
					"comment": ""
				}
			},
			"text-decoration": {
				"desktop": {
					"value": "{global.typography.text-decoration.default.value}",
					"name": "",
					"comment": ""
				},
				"desktop-large": {
					"value": "{global.typography.text-decoration.default.value}",
					"name": "",
					"comment": ""
				},
				"mobile": {
					"value": "{global.typography.text-decoration.default.value}",
					"name": "",
					"comment": ""
				}
			}
		},
		"vertical-menu-level-3": {
			"font-size": {
				"desktop": {
					"value": "{global.typography.font-size.base.value}",
					"name": "",
					"comment": ""
				},
				"desktop-large": {
					"value": "{global.typography.font-size.large.value}",
					"name": "",
					"comment": ""
				},
				"mobile": {
					"value": "{global.typography.font-size.base.value}",
					"name": "",
					"comment": ""
				}
			},
			"font-weight": {
				"desktop": {
					"value": "{global.typography.font-weight.regular.value}",
					"name": "",
					"comment": ""
				},
				"desktop-large": {
					"value": "{global.typography.font-weight.regular.value}",
					"name": "",
					"comment": ""
				},
				"mobile": {
					"value": "{global.typography.font-weight.regular.value}",
					"name": "",
					"comment": ""
				}
			},
			"line-height": {
				"desktop": {
					"value": "{global.typography.line-height.base.value}",
					"name": "",
					"comment": ""
				},
				"desktop-large": {
					"value": "{global.typography.line-height.base.value}",
					"name": "",
					"comment": ""
				},
				"mobile": {
					"value": "{global.typography.line-height.base.value}",
					"name": "",
					"comment": ""
				}
			},
			"text-decoration": {
				"desktop": {
					"value": "{global.typography.text-decoration.default.value}",
					"name": "",
					"comment": ""
				},
				"desktop-large": {
					"value": "{global.typography.text-decoration.default.value}",
					"name": "",
					"comment": ""
				},
				"mobile": {
					"value": "{global.typography.text-decoration.default.value}",
					"name": "",
					"comment": ""
				}
			}
		},
		"vertical-menu-level-4": {
			"font-size": {
				"desktop": {
					"value": "{global.typography.font-size.base.value}",
					"name": "",
					"comment": ""
				},
				"desktop-large": {
					"value": "{global.typography.font-size.large.value}",
					"name": "",
					"comment": ""
				},
				"mobile": {
					"value": "{global.typography.font-size.base.value}",
					"name": "",
					"comment": ""
				}
			},
			"font-weight": {
				"desktop": {
					"value": "{global.typography.font-weight.regular.value}",
					"name": "",
					"comment": ""
				},
				"desktop-large": {
					"value": "{global.typography.font-weight.regular.value}",
					"name": "",
					"comment": ""
				},
				"mobile": {
					"value": "{global.typography.font-weight.regular.value}",
					"name": "",
					"comment": ""
				}
			},
			"line-height": {
				"desktop": {
					"value": "{global.typography.line-height.base.value}",
					"name": "",
					"comment": ""
				},
				"desktop-large": {
					"value": "{global.typography.line-height.base.value}",
					"name": "",
					"comment": ""
				},
				"mobile": {
					"value": "{global.typography.line-height.base.value}",
					"name": "",
					"comment": ""
				}
			},
			"text-decoration": {
				"desktop": {
					"value": "{global.typography.text-decoration.default.value}",
					"name": "",
					"comment": ""
				},
				"desktop-large": {
					"value": "{global.typography.text-decoration.default.value}",
					"name": "",
					"comment": ""
				},
				"mobile": {
					"value": "{global.typography.text-decoration.default.value}",
					"name": "",
					"comment": ""
				}
			}
		},
		"button": {
			"font-size": {
				"desktop": {
					"value": "{global.typography.font-size.base.value}",
					"name": "",
					"comment": ""
				},
				"desktop-large": {
					"value": "{global.typography.font-size.large.value}",
					"name": "",
					"comment": ""
				},
				"mobile": {
					"value": "{global.typography.font-size.base.value}",
					"name": "",
					"comment": ""
				}
			},
			"font-weight": {
				"desktop": {
					"value": "{global.typography.font-weight.semibold.value}",
					"name": "",
					"comment": ""
				},
				"desktop-large": {
					"value": "{global.typography.font-weight.semibold.value}",
					"name": "",
					"comment": ""
				},
				"mobile": {
					"value": "{global.typography.font-weight.semibold.value}",
					"name": "",
					"comment": ""
				}
			},
			"line-height": {
				"desktop": {
					"value": "{global.typography.line-height.base.value}",
					"name": "",
					"comment": ""
				},
				"desktop-large": {
					"value": "{global.typography.line-height.base.value}",
					"name": "",
					"comment": ""
				},
				"mobile": {
					"value": "{global.typography.line-height.base.value}",
					"name": "",
					"comment": ""
				}
			},
			"text-decoration": {
				"desktop": {
					"value": "{global.typography.text-decoration.default.value}",
					"name": "",
					"comment": ""
				},
				"desktop-large": {
					"value": "{global.typography.text-decoration.default.value}",
					"name": "",
					"comment": ""
				},
				"mobile": {
					"value": "{global.typography.text-decoration.default.value}",
					"name": "",
					"comment": ""
				}
			}
		}
	}
}
